﻿3952 10:14:14 INFO  [Index=sitecore_core_index] Initializing IntervalAsynchronousUpdateStrategy with interval '00:01:00'.
3952 10:14:14 INFO  [Index=sitecore_core_index] Initializing SitecoreItemCrawler. DB:core / Root:/sitecore
3952 10:14:14 INFO  [Index=sitecore_master_index] Initializing SynchronousStrategy.
3952 10:14:14 INFO  [Index=sitecore_master_index] Initializing SitecoreItemCrawler. DB:master / Root:/sitecore
3952 10:14:14 INFO  [Index=sitecore_web_index] Initializing OnPublishEndAsynchronousStrategy.
3952 10:14:14 INFO  [Index=sitecore_web_index] Initializing SitecoreItemCrawler. DB:web / Root:/sitecore
6612 10:16:26 WARN  Hosting Environment Stop Requested : immediate=False
6612 10:16:26 WARN  [Index=sitecore_core_index] Crawling Stopped
6612 10:16:26 WARN  [Index=sitecore_master_index] Crawling Stopped
6612 10:16:26 WARN  [Index=sitecore_web_index] Crawling Stopped
6612 10:16:56 WARN  Hosting Environment Stop Requested : immediate=True
