﻿4152 15:46:48 INFO  [Index=sitecore_core_index] Initializing IntervalAsynchronousUpdateStrategy with interval '00:01:00'.
4152 15:46:48 INFO  [Index=sitecore_core_index] Initializing SitecoreItemCrawler. DB:core / Root:/sitecore
4152 15:46:48 INFO  [Index=sitecore_master_index] Initializing SynchronousStrategy.
4152 15:46:48 INFO  [Index=sitecore_master_index] Initializing SitecoreItemCrawler. DB:master / Root:/sitecore
4152 15:46:48 INFO  [Index=sitecore_web_index] Initializing OnPublishEndAsynchronousStrategy.
4152 15:46:48 INFO  [Index=sitecore_web_index] Initializing SitecoreItemCrawler. DB:web / Root:/sitecore
7952 15:48:20 WARN  Hosting Environment Stop Requested : immediate=False
7952 15:48:20 WARN  [Index=sitecore_core_index] Crawling Stopped
7952 15:48:20 WARN  [Index=sitecore_master_index] Crawling Stopped
7952 15:48:20 WARN  [Index=sitecore_web_index] Crawling Stopped
7952 15:48:50 WARN  Hosting Environment Stop Requested : immediate=True
