﻿2384 14:48:19 INFO  [Index=sitecore_core_index] Initializing IntervalAsynchronousUpdateStrategy with interval '00:01:00'.
2384 14:48:19 INFO  [Index=sitecore_core_index] Initializing SitecoreItemCrawler. DB:core / Root:/sitecore
2384 14:48:19 INFO  [Index=sitecore_master_index] Initializing SynchronousStrategy.
2384 14:48:19 INFO  [Index=sitecore_master_index] Initializing SitecoreItemCrawler. DB:master / Root:/sitecore
2384 14:48:19 INFO  [Index=sitecore_web_index] Initializing OnPublishEndAsynchronousStrategy.
2384 14:48:19 INFO  [Index=sitecore_web_index] Initializing SitecoreItemCrawler. DB:web / Root:/sitecore
4564 14:53:50 WARN  Hosting Environment Stop Requested : immediate=False
4564 14:53:50 WARN  [Index=sitecore_core_index] Crawling Stopped
4564 14:53:50 WARN  [Index=sitecore_master_index] Crawling Stopped
4564 14:53:50 WARN  [Index=sitecore_web_index] Crawling Stopped
4564 14:54:20 WARN  Hosting Environment Stop Requested : immediate=True
