﻿4888 14:15:57 INFO  [Index=sitecore_core_index] Initializing IntervalAsynchronousUpdateStrategy with interval '00:01:00'.
4888 14:15:57 INFO  [Index=sitecore_core_index] Initializing SitecoreItemCrawler. DB:core / Root:/sitecore
4888 14:15:57 INFO  [Index=sitecore_master_index] Initializing SynchronousStrategy.
4888 14:15:57 INFO  [Index=sitecore_master_index] Initializing SitecoreItemCrawler. DB:master / Root:/sitecore
4888 14:15:57 INFO  [Index=sitecore_web_index] Initializing OnPublishEndAsynchronousStrategy.
4888 14:15:57 INFO  [Index=sitecore_web_index] Initializing SitecoreItemCrawler. DB:web / Root:/sitecore
1360 14:18:26 WARN  Hosting Environment Stop Requested : immediate=False
1360 14:18:26 WARN  [Index=sitecore_core_index] Crawling Stopped
1360 14:18:26 WARN  [Index=sitecore_master_index] Crawling Stopped
1360 14:18:26 WARN  [Index=sitecore_web_index] Crawling Stopped
1360 14:18:56 WARN  Hosting Environment Stop Requested : immediate=True
