﻿2020 14:50:51 INFO  [Index=sitecore_core_index] Initializing IntervalAsynchronousUpdateStrategy with interval '00:01:00'.
2020 14:50:51 INFO  [Index=sitecore_core_index] Initializing SitecoreItemCrawler. DB:core / Root:/sitecore
2020 14:50:51 INFO  [Index=sitecore_master_index] Initializing SynchronousStrategy.
2020 14:50:51 INFO  [Index=sitecore_master_index] Initializing SitecoreItemCrawler. DB:master / Root:/sitecore
2020 14:50:51 INFO  [Index=sitecore_web_index] Initializing OnPublishEndAsynchronousStrategy.
2020 14:50:51 INFO  [Index=sitecore_web_index] Initializing SitecoreItemCrawler. DB:web / Root:/sitecore
4496 15:01:03 WARN  Hosting Environment Stop Requested : immediate=False
4496 15:01:03 WARN  [Index=sitecore_core_index] Crawling Stopped
4496 15:01:03 WARN  [Index=sitecore_master_index] Crawling Stopped
4496 15:01:03 WARN  [Index=sitecore_web_index] Crawling Stopped
4496 15:01:34 WARN  Hosting Environment Stop Requested : immediate=True
