﻿5932 12:21:09 INFO  [Index=sitecore_core_index] Initializing IntervalAsynchronousUpdateStrategy with interval '00:01:00'.
5932 12:21:09 INFO  [Index=sitecore_core_index] Initializing SitecoreItemCrawler. DB:core / Root:/sitecore
5932 12:21:09 INFO  [Index=sitecore_master_index] Initializing SynchronousStrategy.
5932 12:21:09 INFO  [Index=sitecore_master_index] Initializing SitecoreItemCrawler. DB:master / Root:/sitecore
5932 12:21:09 INFO  [Index=sitecore_web_index] Initializing OnPublishEndAsynchronousStrategy.
5932 12:21:09 INFO  [Index=sitecore_web_index] Initializing SitecoreItemCrawler. DB:web / Root:/sitecore
