﻿3952 14:45:45 INFO  [Index=sitecore_core_index] Initializing IntervalAsynchronousUpdateStrategy with interval '00:01:00'.
3952 14:45:45 INFO  [Index=sitecore_core_index] Initializing SitecoreItemCrawler. DB:core / Root:/sitecore
3952 14:45:45 INFO  [Index=sitecore_master_index] Initializing SynchronousStrategy.
3952 14:45:45 INFO  [Index=sitecore_master_index] Initializing SitecoreItemCrawler. DB:master / Root:/sitecore
3952 14:45:45 INFO  [Index=sitecore_web_index] Initializing OnPublishEndAsynchronousStrategy.
3952 14:45:45 INFO  [Index=sitecore_web_index] Initializing SitecoreItemCrawler. DB:web / Root:/sitecore
