﻿6240 15:56:52 INFO  [Index=sitecore_core_index] Initializing IntervalAsynchronousUpdateStrategy with interval '00:01:00'.
6240 15:56:52 INFO  [Index=sitecore_core_index] Initializing SitecoreItemCrawler. DB:core / Root:/sitecore
6240 15:56:52 INFO  [Index=sitecore_master_index] Initializing SynchronousStrategy.
6240 15:56:52 INFO  [Index=sitecore_master_index] Initializing SitecoreItemCrawler. DB:master / Root:/sitecore
6240 15:56:52 INFO  [Index=sitecore_web_index] Initializing OnPublishEndAsynchronousStrategy.
6240 15:56:52 INFO  [Index=sitecore_web_index] Initializing SitecoreItemCrawler. DB:web / Root:/sitecore
7028 15:57:16 WARN  Hosting Environment Stop Requested : immediate=False
7028 15:57:16 WARN  [Index=sitecore_core_index] Crawling Stopped
7028 15:57:16 WARN  [Index=sitecore_master_index] Crawling Stopped
7028 15:57:16 WARN  [Index=sitecore_web_index] Crawling Stopped
7028 15:57:46 WARN  Hosting Environment Stop Requested : immediate=True
