﻿1424 14:25:53 INFO  [Index=sitecore_core_index] Initializing IntervalAsynchronousUpdateStrategy with interval '00:01:00'.
1424 14:25:53 INFO  [Index=sitecore_core_index] Initializing SitecoreItemCrawler. DB:core / Root:/sitecore
1424 14:25:53 INFO  [Index=sitecore_master_index] Initializing SynchronousStrategy.
1424 14:25:53 INFO  [Index=sitecore_master_index] Initializing SitecoreItemCrawler. DB:master / Root:/sitecore
1424 14:25:53 INFO  [Index=sitecore_web_index] Initializing OnPublishEndAsynchronousStrategy.
1424 14:25:53 INFO  [Index=sitecore_web_index] Initializing SitecoreItemCrawler. DB:web / Root:/sitecore
5240 14:27:58 WARN  Hosting Environment Stop Requested : immediate=False
5240 14:27:58 WARN  [Index=sitecore_core_index] Crawling Stopped
5240 14:27:58 WARN  [Index=sitecore_master_index] Crawling Stopped
5240 14:27:58 WARN  [Index=sitecore_web_index] Crawling Stopped
5240 14:28:28 WARN  Hosting Environment Stop Requested : immediate=True
