﻿3952 16:40:11 WARN  Counter category 'Sitecore.System' does not exist on this server.
3952 16:40:11 WARN  Counter category 'Sitecore.System' does not exist on this server.
3952 16:40:11 WARN  Counter category 'Sitecore.System' does not exist on this server.
3952 16:40:11 INFO  HttpModule is being initialized
3952 16:40:11 WARN  Counter category 'Sitecore.System' does not exist on this server.
3952 16:40:11 WARN  Counter category 'Sitecore.System' does not exist on this server.
3952 16:40:11 WARN  Counter category 'Sitecore.System' does not exist on this server.
3952 16:40:11 WARN  Counter category 'Sitecore.System' does not exist on this server.
3952 16:40:11 WARN  Counter category 'Sitecore.System' does not exist on this server.
3952 16:40:11 WARN  Counter category 'Sitecore.System' does not exist on this server.
3952 16:40:11 WARN  Counter category 'Sitecore.System' does not exist on this server.
3952 16:40:11 WARN  Counter category 'Sitecore.System' does not exist on this server.
3952 16:40:11 WARN  Counter category 'Sitecore.System' does not exist on this server.
3952 16:40:11 WARN  Counter category 'Sitecore.System' does not exist on this server.
3952 16:40:11 INFO  
3952 16:40:11 INFO  **********************************************************************
3952 16:40:11 INFO  **********************************************************************
3952 16:40:11 INFO  Sitecore started
3952 16:40:11 INFO  Sitecore.NET 7.2 (rev. 140526)
3952 16:40:11 INFO  
3952 16:40:11 INFO  d:\movie tickets\movie tickets\website\bin\componentart.web.ui.dll ()
3952 16:40:11 INFO  d:\movie tickets\movie tickets\website\bin\ecmascript.net.modified.dll (Modified version of the EcmaScript.NET assembly)
3952 16:40:11 INFO  d:\movie tickets\movie tickets\website\bin\htmlagilitypack.dll (Html Agility Pack, 1.4.6.0)
3952 16:40:11 INFO  d:\movie tickets\movie tickets\website\bin\ithit.webdav.server.dll (WebDav Server .Net v2, IT Hit WebDAV Server .Net v2)
3952 16:40:11 INFO  d:\movie tickets\movie tickets\website\bin\lucene.net.contrib.analyzers.dll (Lucene.Net.Contrib.Analyzers)
3952 16:40:11 INFO  d:\movie tickets\movie tickets\website\bin\lucene.net.contrib.core.dll (Lucene.Net.Contrib.Core, Contributions to the Lucene.Net core library)
3952 16:40:11 INFO  d:\movie tickets\movie tickets\website\bin\lucene.net.contrib.fastvectorhighlighter.dll (Lucene.Net.Contrib.FastVectorHighlighter, FastVectorHighlighter for Lucene.Net)
3952 16:40:11 INFO  d:\movie tickets\movie tickets\website\bin\lucene.net.contrib.highlighter.dll (Lucene.Net.Contrib.Highlighter, The Apache Software Foundation Lucene.Net a full-text search engine library, 2.3.2)
3952 16:40:11 INFO  d:\movie tickets\movie tickets\website\bin\lucene.net.contrib.memory.dll (Contrib.Memory)
3952 16:40:11 INFO  d:\movie tickets\movie tickets\website\bin\lucene.net.contrib.queries.dll (Lucene.Net.Contrib.Queries)
3952 16:40:11 INFO  d:\movie tickets\movie tickets\website\bin\lucene.net.contrib.regex.dll (Lucene.Net.Contrib.Regex)
3952 16:40:11 INFO  d:\movie tickets\movie tickets\website\bin\lucene.net.contrib.simplefacetedsearch.dll (Lucene.Net.SimpleFacetedSearch, SimpleFacetedSearch for Lucene.Net)
3952 16:40:11 INFO  d:\movie tickets\movie tickets\website\bin\lucene.net.contrib.snowball.dll (Lucene.Net.Contrib.Snowball, The Apache Software Foundation Lucene.Net a full-text search engine library, 2.0)
3952 16:40:11 INFO  d:\movie tickets\movie tickets\website\bin\lucene.net.contrib.spellchecker.dll (SpellChecker.Net, The Apache Software Foundation Lucene.Net a full-text search engine library, 3.0.3)
3952 16:40:11 INFO  d:\movie tickets\movie tickets\website\bin\lucene.net.dll (Lucene.Net, The Apache Software Foundation Lucene.Net a full-text search engine library, 3.0.3)
3952 16:40:11 INFO  d:\movie tickets\movie tickets\website\bin\microsoft.web.infrastructure.dll (Microsoft ASP.Net WebPages)
3952 16:40:11 INFO  d:\movie tickets\movie tickets\website\bin\mvp.xml.dll (MVP XML Library)
3952 16:40:11 INFO  d:\movie tickets\movie tickets\website\bin\newtonsoft.json.dll (Json.NET, Json.NET is a popular high-performance JSON framework for .NET)
3952 16:40:11 INFO  d:\movie tickets\movie tickets\website\bin\radeditor.net2.dll (RadEditor, Telerik RadEditor)
3952 16:40:11 INFO  d:\movie tickets\movie tickets\website\bin\sitecore.analytics.dll (Sitecore DMS, Sitecore Digital Marketing System, 7.2 rev. 140526)
3952 16:40:11 INFO  d:\movie tickets\movie tickets\website\bin\sitecore.analytics.robotdetection.dll (Sitecore Robot Detection, 1.0.0 rev. 140507)
3952 16:40:11 INFO  d:\movie tickets\movie tickets\website\bin\sitecore.apps.loader.dll (Sitecore.Apps.Loader, 1.0.0 rev. 130822)
3952 16:40:11 INFO  d:\movie tickets\movie tickets\website\bin\sitecore.automation.marketingautomation.dll (Sitecore EAS, Sitecore Engagement Automation Suite, 7.2 rev. 140526)
3952 16:40:11 INFO  d:\movie tickets\movie tickets\website\bin\sitecore.buckets.client.dll (Sitecore Buckets, The assembly can be used to have Sitecore queries driven via a query, 1.0.0 rev. 140526)
3952 16:40:11 INFO  d:\movie tickets\movie tickets\website\bin\sitecore.buckets.dll (Sitecore Buckets, The assembly can be used to have Sitecore queries driven via search providers, 1.0.0 rev. 140526)
3952 16:40:11 INFO  d:\movie tickets\movie tickets\website\bin\sitecore.client.dll (Sitecore CMS, Sitecore Client Application, 7.2 rev. 140526)
3952 16:40:11 INFO  d:\movie tickets\movie tickets\website\bin\sitecore.contentsearch.client.dll (Sitecore Buckets, 1.0.0 rev. 140526)
3952 16:40:11 INFO  d:\movie tickets\movie tickets\website\bin\sitecore.contentsearch.dll (Sitecore Buckets, Sitecore CMS Search, 1.0.0 rev. 140526)
3952 16:40:11 INFO  d:\movie tickets\movie tickets\website\bin\sitecore.contentsearch.linq.dll (Sitecore Buckets, 1.0.0 rev. 140526)
3952 16:40:11 INFO  d:\movie tickets\movie tickets\website\bin\sitecore.contentsearch.linq.lucene.dll (Sitecore Buckets, 1.0.0 rev. 140526)
3952 16:40:11 INFO  d:\movie tickets\movie tickets\website\bin\sitecore.contentsearch.luceneprovider.dll (Sitecore Buckets, Sitecore CMS Search, 1.0.0 rev. 140526)
3952 16:40:11 INFO  d:\movie tickets\movie tickets\website\bin\sitecore.itemwebapi.dll (Sitecore Item Web API, 1.2.0 rev. 140508)
3952 16:40:11 INFO  d:\movie tickets\movie tickets\website\bin\sitecore.kernel.dll (Sitecore CMS, Sitecore CMS Kernel Library, 7.2 rev. 140526)
3952 16:40:11 INFO  d:\movie tickets\movie tickets\website\bin\sitecore.logging.dll (Sitecore CMS, Sitecore Logging Framework, 6.6.0 rev. 120918)
3952 16:40:11 INFO  d:\movie tickets\movie tickets\website\bin\sitecore.mvc.analytics.dll (Sitecore Mvc Analytics 1.0.0, 1.0.0 rev. 140224)
3952 16:40:11 INFO  d:\movie tickets\movie tickets\website\bin\sitecore.mvc.devicesimulator.dll (Sitecore Mvc Device Simulators 1.0.0, 1.0.0 rev. 140225)
3952 16:40:11 INFO  d:\movie tickets\movie tickets\website\bin\sitecore.mvc.dll (Sitecore Mvc 1.0.0, 1.0.0 rev. 140411)
3952 16:40:11 INFO  d:\movie tickets\movie tickets\website\bin\sitecore.mvc.experienceeditor.dll (Sitecore Mvc Experience Editor 1.0.0, 1.0.0 rev. 140225)
3952 16:40:11 INFO  d:\movie tickets\movie tickets\website\bin\sitecore.nexus.dll (Sitecore.Nexus)
3952 16:40:11 INFO  d:\movie tickets\movie tickets\website\bin\sitecore.nvelocity.dll (Sitecore CMS, Sitecore Macro Expansion Library, 6.6.0 rev. 120918)
3952 16:40:11 INFO  d:\movie tickets\movie tickets\website\bin\sitecore.oracle.dll (Sitecore CMS, Oracle Data Provider for Sitecore, 7.2 rev. 140526)
3952 16:40:11 INFO  d:\movie tickets\movie tickets\website\bin\sitecore.publishing.webdeploy.dll (Sitecore CMS, Sitecore publishing infrastructure based on Web Deployment Tool, 1.0.0 rev. 090323)
3952 16:40:11 INFO  d:\movie tickets\movie tickets\website\bin\sitecore.rocks.server.core.dll (Sitecore.Rocks.Server.Core)
3952 16:40:11 INFO  d:\movie tickets\movie tickets\website\bin\sitecore.rocks.server.dll (Sitecore.Rocks, Sitecore Rocks makes Sitecore developers happy. Directly integrated into Microsoft Visual Studio 2010/2012/2013, Sitecore Rocks provides a fast and streamlined development experience with tools that developers are used to)
3952 16:40:11 INFO  d:\movie tickets\movie tickets\website\bin\sitecore.rocks.server.lucene.2313.dll (Sitecore.Rocks.Server.Lucene.2313)
3952 16:40:11 INFO  d:\movie tickets\movie tickets\website\bin\sitecore.rocks.server.lucene.2941.dll (Sitecore.Rocks.Server.Lucene.2914)
3952 16:40:11 INFO  d:\movie tickets\movie tickets\website\bin\sitecore.rocks.server.lucene.3030.dll (Sitecore.Rocks.Server.Lucene.3030)
3952 16:40:11 INFO  d:\movie tickets\movie tickets\website\bin\sitecore.rocks.server.speak.dll (Sitecore.Rocks.Server.Speak)
3952 16:40:11 INFO  d:\movie tickets\movie tickets\website\bin\sitecore.rocks.server.validation.dll (Sitecore.Rocks.Server.Validation)
3952 16:40:11 INFO  d:\movie tickets\movie tickets\website\bin\sitecore.security.anticsrf.dll (Sitecore AntiCSRF Module 1.0.0, 1.0.0 rev. 140205)
3952 16:40:11 INFO  d:\movie tickets\movie tickets\website\bin\sitecore.segmentbuilder.dll (Sitecore Segment Builder 1.0.0, 1.0.0 rev. 140312)
3952 16:40:11 INFO  d:\movie tickets\movie tickets\website\bin\sitecore.shell.marketingautomation.dll (Sitecore Engagement Automation Suite 1.0.0, 1.0.0 rev. 140307)
3952 16:40:11 INFO  d:\movie tickets\movie tickets\website\bin\sitecore.speak.charting.dll (Sitecore Speak Charting, 1.0.0 rev. 140305)
3952 16:40:11 INFO  d:\movie tickets\movie tickets\website\bin\sitecore.speak.client.dll (Sitecore Speak.Dev, 1.1.2 rev. 140521)
3952 16:40:11 INFO  d:\movie tickets\movie tickets\website\bin\sitecore.speak.dialogs.dll (Sitecore Speak.Dev, 1.1.2 rev. 140521)
3952 16:40:11 INFO  d:\movie tickets\movie tickets\website\bin\sitecore.speak.itemwebapi.dll (Sitecore Speak.Dev, 1.1.2 rev. 140521)
3952 16:40:11 INFO  d:\movie tickets\movie tickets\website\bin\sitecore.speak.mvc.dll (Sitecore Speak.Dev, 1.1.2 rev. 140521)
3952 16:40:11 INFO  d:\movie tickets\movie tickets\website\bin\sitecore.speak.web.dll (Sitecore Speak.Dev, 1.1.2 rev. 140521)
3952 16:40:11 INFO  d:\movie tickets\movie tickets\website\bin\sitecore.update.dll (Sitecore Update Installation Wizard, 1.0.0 rev. 140225)
3952 16:40:11 INFO  d:\movie tickets\movie tickets\website\bin\sitecore.zip.dll (Sitecore CMS, ZIP support for Sitecore, 7.0.0)
3952 16:40:11 INFO  d:\movie tickets\movie tickets\website\bin\stimulsoft.base.dll (Stimulsoft Reports, Stimulsoft Base)
3952 16:40:11 INFO  d:\movie tickets\movie tickets\website\bin\stimulsoft.database.dll (Stimulsoft Reports, Stimulsoft Reports Database Helper)
3952 16:40:11 INFO  d:\movie tickets\movie tickets\website\bin\stimulsoft.report.dll (Stimulsoft Reports, Stimulsoft Reports Engine)
3952 16:40:11 INFO  d:\movie tickets\movie tickets\website\bin\stimulsoft.report.web.dll (Stimulsoft Reports.Web, Stimulsoft Reports.Web Viewer)
3952 16:40:11 INFO  d:\movie tickets\movie tickets\website\bin\stimulsoft.report.webdesign.dll (Stimulsoft Reports Designer.Web, Stimulsoft Reports Designer.Web)
3952 16:40:11 INFO  d:\movie tickets\movie tickets\website\bin\system.web.helpers.dll (Microsoft ASP.NET Web Pages, 3.0.1-20129 (54866f0d3262d0fccfc2cb463f003459fcabd6c8))
3952 16:40:11 INFO  d:\movie tickets\movie tickets\website\bin\system.web.mvc.dll (Microsoft ASP.NET MVC, System.Web.Mvc.dll, 5.1.1-20129 (54866f0d3262d0fccfc2cb463f003459fcabd6c8))
3952 16:40:11 INFO  d:\movie tickets\movie tickets\website\bin\system.web.razor.dll (Microsoft ASP.NET Web Pages, 3.0.1-20129 (54866f0d3262d0fccfc2cb463f003459fcabd6c8))
3952 16:40:11 INFO  d:\movie tickets\movie tickets\website\bin\system.web.webpages.deployment.dll (Microsoft ASP.NET Web Pages, 3.0.1-20129 (54866f0d3262d0fccfc2cb463f003459fcabd6c8))
3952 16:40:11 INFO  d:\movie tickets\movie tickets\website\bin\system.web.webpages.dll (Microsoft ASP.NET Web Pages, 3.0.1-20129 (54866f0d3262d0fccfc2cb463f003459fcabd6c8))
3952 16:40:11 INFO  d:\movie tickets\movie tickets\website\bin\system.web.webpages.razor.dll (Microsoft ASP.NET Web Pages, 3.0.1-20129 (54866f0d3262d0fccfc2cb463f003459fcabd6c8))
3952 16:40:11 INFO  d:\movie tickets\movie tickets\website\bin\telerik.web.ui.dll (Telerik.Web.UI, Telerik RadControls for ASP.NET Ajax)
3952 16:40:11 INFO  d:\movie tickets\movie tickets\website\bin\telerik.web.ui.skins.dll (Telerik RadControls for ASP.NET Ajax Skins)
3952 16:40:11 INFO  d:\movie tickets\movie tickets\website\bin\website.dll (website)
3952 16:40:11 INFO  d:\movie tickets\movie tickets\website\bin\yahoo.yui.compressor.dll (YUI Compressor, A .NET port of the Yahoo! YUI Compressor project)
3952 16:40:11 INFO  
3952 16:40:11 INFO  Operating system Microsoft Windows NT 6.3.9600.0
3952 16:40:11 INFO  
3952 16:40:11 INFO  Microsoft.NET version 4.0.30319.34014
3952 16:40:11 INFO  
3952 16:40:11 INFO  UTC offset: 01:00:00
3952 16:40:11 INFO  Machine name: rtappenden
3952 16:40:11 INFO  App pool ID: Movie Tickets.AppPool
3952 16:40:11 INFO  
3952 16:40:11 INFO  Process ID: 3324
3952 16:40:11 INFO  Windows identity used by the process: NT AUTHORITY\NETWORK SERVICE. Impersonation: False
3952 16:40:11 INFO  Managed pipeline mode: Integrated
3952 16:40:11 INFO  
3952 16:40:11 INFO  EventQueues enabled: True
3952 16:40:11 INFO  Instance Name:RTAPPENDEN-Movie Tickets
3952 16:40:11 INFO  
3952 16:40:11 INFO  Threshold settings
3952 16:40:11 INFO    Show threshold warnings: False
3952 16:40:11 INFO  
3952 16:40:11 INFO  Databases
3952 16:40:11 INFO    core
3952 16:40:11 INFO    master
3952 16:40:11 INFO    web
3952 16:40:11 INFO    filesystem
3952 16:40:11 INFO  
3952 16:40:11 INFO  Domains
3952 16:40:11 INFO  Heartbeat - Initializing
3952 16:40:11 INFO  Heartbeat - Interval set to: 00:00:02
3952 16:40:11 INFO  Heartbeat - Worker thread started
3952 16:40:11 INFO  Trying to load XML configuration /App_Config/Security/Domains.config
3952 16:40:11 INFO    sitecore
3952 16:40:11 INFO    extranet
3952 16:40:11 INFO    default
3952 16:40:11 INFO  
3952 16:40:11 WARN  Note that asp.net debugging is enabled. This can decrease performance considerably.
3952 16:40:11 INFO  
3952 16:40:11 INFO  **********************************************************************
3952 16:40:11 INFO  **********************************************************************
3952 16:40:11 WARN  Counter category 'Sitecore.Jobs' does not exist on this server.
3952 16:40:11 WARN  Counter category 'Sitecore.Jobs' does not exist on this server.
3952 16:40:11 WARN  Counter category 'Sitecore.Jobs' does not exist on this server.
3952 16:40:11 INFO  Attempting to get ASP.NET process history
3952 16:40:11 WARN  No process history available
3952 16:40:11 INFO  Cache created: 'LanguageProvider - Languages' (max size: 100KB, running total: 100KB)
3952 16:40:11 INFO  Cache created: 'DeviceItemsCache' (max size: 10MB, running total: 10MB)
3952 16:40:11 INFO  Cache created: 'core[data]' (max size: 20MB, running total: 30MB)
3952 16:40:11 INFO  Cache created: 'core[items]' (max size: 10MB, running total: 40MB)
3952 16:40:11 INFO  Cache created: 'core[paths]' (max size: 500KB, running total: 40MB)
3952 16:40:11 INFO  Cache created: 'core[standardValues]' (max size: 500KB, running total: 41MB)
3952 16:40:11 INFO  Cache created: 'core[itempaths]' (max size: 10MB, running total: 51MB)
3952 16:40:11 INFO  Cache created: 'core[blobIDs]' (max size: 500KB, running total: 51MB)
3952 16:40:11 WARN  Counter category 'Sitecore.System' does not exist on this server.
3952 16:40:11 INFO  Cache created: 'master[data]' (max size: 20MB, running total: 71MB)
3952 16:40:11 INFO  Cache created: 'master[items]' (max size: 10MB, running total: 81MB)
3952 16:40:11 INFO  Cache created: 'master[paths]' (max size: 500KB, running total: 82MB)
3952 16:40:11 INFO  Cache created: 'master[standardValues]' (max size: 500KB, running total: 82MB)
3952 16:40:11 INFO  Cache created: 'master[itempaths]' (max size: 10MB, running total: 92MB)
3952 16:40:11 INFO  Cache created: 'master[blobIDs]' (max size: 500KB, running total: 93MB)
3952 16:40:11 INFO  Cache created: 'web[data]' (max size: 20MB, running total: 113MB)
3952 16:40:11 INFO  Cache created: 'web[items]' (max size: 10MB, running total: 123MB)
3952 16:40:11 INFO  Cache created: 'web[paths]' (max size: 500KB, running total: 123MB)
3952 16:40:11 INFO  Cache created: 'web[standardValues]' (max size: 500KB, running total: 124MB)
3952 16:40:11 INFO  Cache created: 'web[itempaths]' (max size: 10MB, running total: 134MB)
3952 16:40:11 INFO  Cache created: 'web[blobIDs]' (max size: 500KB, running total: 134MB)
3952 16:40:11 INFO  Cache created: 'filesystem[data]' (max size: 0 bytes, running total: 134MB)
3952 16:40:11 INFO  Cache created: 'filesystem[items]' (max size: 0 bytes, running total: 134MB)
3952 16:40:11 INFO  Cache created: 'filesystem[paths]' (max size: 0 bytes, running total: 134MB)
3952 16:40:11 INFO  Cache created: 'filesystem[standardValues]' (max size: 0 bytes, running total: 134MB)
3952 16:40:11 INFO  Cache created: 'filesystem[itempaths]' (max size: 10MB, running total: 144MB)
3952 16:40:11 INFO  Cache created: 'filesystem[blobIDs]' (max size: 500KB, running total: 144MB)
3952 16:40:11 WARN  Counter category 'Sitecore.System' does not exist on this server.
3952 16:40:11 WARN  Counter category 'Sitecore.System' does not exist on this server.
3952 16:40:11 WARN  Counter category 'Sitecore.Caching' does not exist on this server.
3952 16:40:11 WARN  Counter category 'Sitecore.Caching' does not exist on this server.
3952 16:40:11 WARN  Counter category 'Sitecore.Caching' does not exist on this server.
3952 16:40:11 WARN  Counter category 'Sitecore.Caching' does not exist on this server.
3952 16:40:11 WARN  Counter category 'Sitecore.Caching' does not exist on this server.
3952 16:40:11 WARN  Counter category 'Sitecore.Caching' does not exist on this server.
3952 16:40:11 WARN  Counter category 'Sitecore.Caching' does not exist on this server.
3952 16:40:11 WARN  Counter category 'Sitecore.Caching' does not exist on this server.
3952 16:40:11 WARN  Counter category 'Sitecore.Caching' does not exist on this server.
3952 16:40:11 WARN  Counter category 'Sitecore.Caching' does not exist on this server.
3952 16:40:11 WARN  Counter category 'Sitecore.Caching' does not exist on this server.
3952 16:40:11 WARN  Counter category 'Sitecore.Caching' does not exist on this server.
3952 16:40:11 WARN  Counter category 'Sitecore.Caching' does not exist on this server.
3952 16:40:11 WARN  Counter category 'Sitecore.Caching' does not exist on this server.
3952 16:40:11 WARN  Counter category 'Sitecore.Caching' does not exist on this server.
3952 16:40:11 WARN  Counter category 'Sitecore.Caching' does not exist on this server.
3952 16:40:11 WARN  Counter category 'Sitecore.Caching' does not exist on this server.
3952 16:40:11 WARN  Counter category 'Sitecore.Caching' does not exist on this server.
3952 16:40:11 WARN  Counter category 'Sitecore.Caching' does not exist on this server.
3952 16:40:11 WARN  Counter category 'Sitecore.Caching' does not exist on this server.
3952 16:40:11 WARN  Counter category 'Sitecore.Caching' does not exist on this server.
3952 16:40:11 WARN  Counter category 'Sitecore.Data' does not exist on this server.
3952 16:40:11 WARN  Counter category 'Sitecore.Data' does not exist on this server.
3952 16:40:11 WARN  Counter category 'Sitecore.Data' does not exist on this server.
3952 16:40:11 WARN  Counter category 'Sitecore.Data' does not exist on this server.
3952 16:40:11 WARN  Counter category 'Sitecore.Data' does not exist on this server.
3952 16:40:12 INFO  Cache created: 'SqlDataProvider - Prefetch data(core)' (max size: 10MB, running total: 154MB)
3952 16:40:12 INFO  Cache created: 'ItemCloningRelations' (max size: 10MB, running total: 164MB)
3952 16:40:12 INFO  Cache created: 'AccessResultCache' (max size: 2MB, running total: 166MB)
3952 16:40:12 WARN  Counter category 'Sitecore.Security' does not exist on this server.
3952 16:40:12 WARN  Counter category 'Sitecore.Security' does not exist on this server.
3952 16:40:12 WARN  Counter category 'Sitecore.Security' does not exist on this server.
3952 16:40:12 WARN  Counter category 'Sitecore.Security' does not exist on this server.
3952 16:40:12 WARN  Counter category 'Sitecore.Security' does not exist on this server.
3952 16:40:12 WARN  Counter category 'Sitecore.Security' does not exist on this server.
3952 16:40:12 WARN  Counter category 'Sitecore.Security' does not exist on this server.
3952 16:40:12 WARN  Counter category 'Sitecore.Security' does not exist on this server.
3952 16:40:12 WARN  Counter category 'Sitecore.Security' does not exist on this server.
3952 16:40:12 WARN  Counter category 'Sitecore.Security' does not exist on this server.
3952 16:40:12 WARN  Counter category 'Sitecore.Security' does not exist on this server.
3952 16:40:12 INFO  Cache created: 'ProxyProvider' (max size: 500KB, running total: 167MB)
3952 16:40:12 INFO  Loading Dictionary from cache
3952 16:40:12 WARN  Counter category 'Sitecore.Data' does not exist on this server.
3952 16:40:12 WARN  Counter category 'Sitecore.Data' does not exist on this server.
3952 16:40:12 INFO  MemoryMonitor initialized. Threshold: 800 MB. Interval: 00:00:05
3952 16:40:12 INFO  Cache created: '[FieldReaderCache]' (max size: 5MB, running total: 172MB)
3952 16:40:12 INFO  Cache created: 'SqlDataProvider - Property data(core)' (max size: 500KB, running total: 172MB)
3952 16:40:12 INFO  Cache created: 'SqlDataProvider - Property data(master)' (max size: 500KB, running total: 173MB)
3952 16:40:12 INFO  Cache created: 'SqlDataProvider - Property data(web)' (max size: 500KB, running total: 173MB)
3952 16:40:12 INFO  Scheduler - Initializing
3952 16:40:12 INFO  Cache created: 'UserProfileCache' (max size: 1MB, running total: 174MB)
3952 16:40:12 INFO  Cache created: 'clientData' (max size: 5MB, running total: 179MB)
3952 16:40:12 INFO  Scheduler - Interval set to: 00:00:05
3952 16:40:12 INFO  Scheduler - Worker thread started
7388 16:40:12 INFO  HttpModule is being initialized
7388 16:40:12 INFO  Cache created: 'shell[html]' (max size: 0 bytes, running total: 179MB)
7388 16:40:12 INFO  Cache created: 'shell[registry]' (max size: 3MB, running total: 182MB)
7388 16:40:12 INFO  Cache created: 'shell[viewstate]' (max size: 200KB, running total: 183MB)
7388 16:40:12 INFO  Cache created: 'shell[xsl]' (max size: 5MB, running total: 188MB)
7388 16:40:12 INFO  Cache created: 'shell[filtered items]' (max size: 2MB, running total: 190MB)
7388 16:40:12 INFO  Cache created: 'login[html]' (max size: 0 bytes, running total: 190MB)
7388 16:40:12 INFO  Cache created: 'login[registry]' (max size: 5MB, running total: 195MB)
7388 16:40:12 INFO  Cache created: 'login[viewstate]' (max size: 5MB, running total: 200MB)
7388 16:40:12 INFO  Cache created: 'login[xsl]' (max size: 10MB, running total: 210MB)
7388 16:40:12 INFO  Cache created: 'login[filtered items]' (max size: 2MB, running total: 212MB)
7388 16:40:12 INFO  Cache created: 'admin[html]' (max size: 0 bytes, running total: 212MB)
7388 16:40:12 INFO  Cache created: 'admin[registry]' (max size: 5MB, running total: 217MB)
7388 16:40:12 INFO  Cache created: 'admin[viewstate]' (max size: 5MB, running total: 222MB)
7388 16:40:12 INFO  Cache created: 'admin[xsl]' (max size: 10MB, running total: 232MB)
7388 16:40:12 INFO  Cache created: 'admin[filtered items]' (max size: 2MB, running total: 234MB)
7388 16:40:12 INFO  Cache created: 'service[html]' (max size: 0 bytes, running total: 234MB)
7388 16:40:12 INFO  Cache created: 'service[registry]' (max size: 5MB, running total: 239MB)
7388 16:40:12 INFO  Cache created: 'service[viewstate]' (max size: 5MB, running total: 244MB)
7388 16:40:12 INFO  Cache created: 'service[xsl]' (max size: 10MB, running total: 254MB)
7388 16:40:12 INFO  Cache created: 'service[filtered items]' (max size: 2MB, running total: 256MB)
7388 16:40:12 INFO  Cache created: 'modules_shell[html]' (max size: 0 bytes, running total: 256MB)
7388 16:40:12 INFO  Cache created: 'modules_shell[registry]' (max size: 5MB, running total: 261MB)
7388 16:40:12 INFO  Cache created: 'modules_shell[viewstate]' (max size: 5MB, running total: 266MB)
7388 16:40:12 INFO  Cache created: 'modules_shell[xsl]' (max size: 10MB, running total: 276MB)
7388 16:40:12 INFO  Cache created: 'modules_shell[filtered items]' (max size: 2MB, running total: 278MB)
7388 16:40:12 INFO  Cache created: 'modules_website[html]' (max size: 5MB, running total: 283MB)
7388 16:40:12 INFO  Cache created: 'modules_website[registry]' (max size: 5MB, running total: 288MB)
7388 16:40:12 INFO  Cache created: 'modules_website[viewstate]' (max size: 5MB, running total: 293MB)
7388 16:40:12 INFO  Cache created: 'modules_website[xsl]' (max size: 10MB, running total: 303MB)
7388 16:40:12 INFO  Cache created: 'modules_website[filtered items]' (max size: 2MB, running total: 305MB)
7388 16:40:12 INFO  Cache created: 'website[html]' (max size: 10MB, running total: 315MB)
7388 16:40:12 INFO  Cache created: 'website[registry]' (max size: 0 bytes, running total: 315MB)
7388 16:40:12 INFO  Cache created: 'website[viewstate]' (max size: 0 bytes, running total: 315MB)
7388 16:40:12 INFO  Cache created: 'website[xsl]' (max size: 5MB, running total: 320MB)
7388 16:40:12 INFO  Cache created: 'website[filtered items]' (max size: 2MB, running total: 322MB)
7388 16:40:12 INFO  Cache created: 'scheduler[html]' (max size: 0 bytes, running total: 322MB)
7388 16:40:12 INFO  Cache created: 'scheduler[registry]' (max size: 5MB, running total: 327MB)
7388 16:40:12 INFO  Cache created: 'scheduler[viewstate]' (max size: 5MB, running total: 332MB)
7388 16:40:12 INFO  Cache created: 'scheduler[xsl]' (max size: 10MB, running total: 342MB)
7388 16:40:12 INFO  Cache created: 'scheduler[filtered items]' (max size: 2MB, running total: 344MB)
7388 16:40:12 INFO  Cache created: 'system[html]' (max size: 0 bytes, running total: 344MB)
7388 16:40:12 INFO  Cache created: 'system[registry]' (max size: 5MB, running total: 349MB)
7388 16:40:12 INFO  Cache created: 'system[viewstate]' (max size: 5MB, running total: 354MB)
7388 16:40:12 INFO  Cache created: 'system[xsl]' (max size: 10MB, running total: 364MB)
7388 16:40:12 INFO  Cache created: 'system[filtered items]' (max size: 2MB, running total: 366MB)
7388 16:40:12 INFO  Cache created: 'publisher[html]' (max size: 0 bytes, running total: 366MB)
7388 16:40:12 INFO  Cache created: 'publisher[registry]' (max size: 5MB, running total: 371MB)
7388 16:40:12 INFO  Cache created: 'publisher[viewstate]' (max size: 5MB, running total: 376MB)
7388 16:40:12 INFO  Cache created: 'publisher[xsl]' (max size: 10MB, running total: 386MB)
7388 16:40:12 INFO  Cache created: 'publisher[filtered items]' (max size: 2MB, running total: 388MB)
7388 16:40:12 INFO  Cache created: 'SqlDataProvider - Prefetch data(master)' (max size: 20MB, running total: 408MB)
7388 16:40:13 INFO  Cache created: 'IsUserInRoleCache' (max size: 1MB, running total: 409MB)
7388 16:40:13 INFO  Trying to load XML configuration /App_Config/Security/GlobalRoles.config
ManagedPoolThread #8 16:40:13 INFO  Trying to load XML configuration /App_Config/Security/Domains.config
7388 16:40:14 INFO  Cache created: 'rules' (max size: 800KB, running total: 409MB)
7388 16:40:14 WARN  Counter category 'Sitecore.Presentation' does not exist on this server.
7388 16:40:14 WARN  Counter category 'Sitecore.Presentation' does not exist on this server.
7388 16:40:14 WARN  Counter category 'Sitecore.Presentation' does not exist on this server.
7388 16:40:14 WARN  Counter category 'Sitecore.Presentation' does not exist on this server.
7388 16:40:14 WARN  Counter category 'Sitecore.Presentation' does not exist on this server.
7388 16:40:14 WARN  Counter category 'Sitecore.Presentation' does not exist on this server.
7388 16:40:14 WARN  Counter category 'Sitecore.Presentation' does not exist on this server.
7388 16:40:14 WARN  Counter category 'Sitecore.Presentation' does not exist on this server.
2272 16:40:14 INFO  HttpModule is being initialized
4844 16:40:14 INFO  HttpModule is being initialized
1120 16:40:14 INFO  HttpModule is being initialized
7364 16:40:14 INFO  HttpModule is being initialized
ManagedPoolThread #10 16:40:15 INFO  Trying to load XML configuration /App_Config/Security/GlobalRoles.config
3932 16:40:17 INFO  Scheduler - Adding agents
3932 16:40:17 INFO  Scheduler - Adding agent: Sitecore.Tasks.DatabaseAgent (interval: 00:10:00)
3932 16:40:17 INFO  Scheduler - Adding agent: Sitecore.Tasks.DatabaseAgent (interval: 00:10:00)
3932 16:40:17 INFO  Scheduler - Adding agent: Sitecore.Tasks.UrlAgent (interval: 00:15:00)
3932 16:40:17 INFO  Scheduler - Adding agent: Sitecore.Tasks.TaskDatabaseAgent (interval: 00:10:00)
3932 16:40:17 INFO  Scheduler - Adding agent: Sitecore.Tasks.CompactClientDataAgent (interval: 04:00:00)
3932 16:40:17 INFO  Scheduler - Adding agent: Sitecore.Tasks.CleanupHistory (interval: 04:00:00)
3932 16:40:17 INFO  Scheduler - Adding agent: Sitecore.Tasks.CleanupPublishQueue (interval: 04:00:00)
3932 16:40:17 INFO  Scheduler - Adding agent: Sitecore.Tasks.CleanupEventQueue (interval: 04:00:00)
3932 16:40:17 INFO  Scheduler - Skipping inactive agent: Sitecore.Tasks.HtmlCacheClearAgent
3932 16:40:17 INFO  Scheduler - Skipping inactive agent: Sitecore.Tasks.PublishAgent
3932 16:40:17 INFO  Scheduler - Adding agent: Sitecore.Tasks.CleanupAgent (interval: 06:00:00)
3932 16:40:17 INFO  Scheduler - Adding agent: Sitecore.Tasks.CounterDumpAgent (interval: 01:00:00)
3932 16:40:17 INFO  Scheduler - Adding agent: Sitecore.Tasks.CloneNotificationsCleanupAgent (interval: 1.00:00:00)
3932 16:40:17 INFO  Scheduler - Adding agent: Sitecore.ContentSearch.Tasks.Optimize (interval: 01:00:00)
3932 16:40:17 INFO  Scheduler - Adding agent: Sitecore.Tasks.CleanupFDAObsoleteMediaData (interval: 1.00:00:00)
3932 16:40:17 INFO  Scheduler - Adding agent: Sitecore.Tasks.WebDAVOptionsCleanupAgent (interval: 1.00:00:00)
3932 16:40:17 INFO  Scheduler - Agents added
6868 16:41:04 WARN  Counter category 'Sitecore.System' does not exist on this server.
3828 16:41:04 INFO  Layout file modified: D:\Movie Tickets\Movie Tickets\Website\layouts\MovieBasket.ascx
3828 16:41:06 INFO  Layout file modified: D:\Movie Tickets\Movie Tickets\Website\layouts\MovieBasket.ascx
Heartbeat 16:41:11 WARN  Memory usage exceeded the MemoryMonitor threshold.
Heartbeat 16:41:11 WARN  Memory usage: 847,835,136
Heartbeat 16:41:11 WARN  Number of suppressed logs due to the minimum time between log entries: 9
3640 16:41:13 INFO  Cache created: 'WebUtil.QueryStringCache' (max size: 19KB, running total: 409MB)
Heartbeat 16:42:17 WARN  Memory usage exceeded the MemoryMonitor threshold.
Heartbeat 16:42:17 WARN  Memory usage: 851,390,464
Heartbeat 16:42:17 WARN  Number of suppressed logs due to the minimum time between log entries: 10
Heartbeat 16:43:23 WARN  Memory usage exceeded the MemoryMonitor threshold.
Heartbeat 16:43:23 WARN  Memory usage: 850,931,712
Heartbeat 16:43:23 WARN  Number of suppressed logs due to the minimum time between log entries: 10
3828 16:44:07 INFO  Layout file modified: D:\Movie Tickets\Movie Tickets\Website\layouts\MovieBasket.ascx
3828 16:44:10 INFO  Layout file modified: D:\Movie Tickets\Movie Tickets\Website\layouts\MovieBasket.ascx
Heartbeat 16:44:29 WARN  Memory usage exceeded the MemoryMonitor threshold.
Heartbeat 16:44:29 WARN  Memory usage: 850,911,232
Heartbeat 16:44:29 WARN  Number of suppressed logs due to the minimum time between log entries: 10
ManagedPoolThread #2 16:45:15 WARN  Counter category 'Sitecore.Presentation' does not exist on this server.
ManagedPoolThread #2 16:45:15 WARN  Counter category 'Sitecore.Presentation' does not exist on this server.
ManagedPoolThread #9 16:45:15 WARN  Counter category 'Sitecore.Jobs' does not exist on this server.
ManagedPoolThread #12 16:45:15 INFO  Starting update of index for the database 'master' (1 pending).
ManagedPoolThread #12 16:45:15 WARN  Counter category 'Sitecore.Data' does not exist on this server.
ManagedPoolThread #12 16:45:15 WARN  Counter category 'Sitecore.Data' does not exist on this server.
ManagedPoolThread #12 16:45:15 WARN  Counter category 'Sitecore.Data' does not exist on this server.
ManagedPoolThread #12 16:45:16 INFO  Update of index for the database 'master' done.
3828 16:45:21 INFO  Layout file modified: D:\Movie Tickets\Movie Tickets\Website\layouts\MovieBasket.ascx
3828 16:45:23 INFO  Layout file modified: D:\Movie Tickets\Movie Tickets\Website\layouts\MovieBasket.ascx
3828 16:45:30 INFO  Layout file modified: D:\Movie Tickets\Movie Tickets\Website\layouts\MovieBasket.ascx
3828 16:45:32 INFO  Layout file modified: D:\Movie Tickets\Movie Tickets\Website\layouts\MovieBasket.ascx
Heartbeat 16:45:35 WARN  Memory usage exceeded the MemoryMonitor threshold.
Heartbeat 16:45:35 WARN  Memory usage: 849,899,520
Heartbeat 16:45:35 WARN  Number of suppressed logs due to the minimum time between log entries: 10
3828 16:45:48 INFO  Layout file modified: D:\Movie Tickets\Movie Tickets\Website\layouts\MovieBasket.ascx
3828 16:46:00 INFO  Layout file modified: D:\Movie Tickets\Movie Tickets\Website\layouts\MovieBasket.ascx
3828 16:46:03 INFO  Layout file modified: D:\Movie Tickets\Movie Tickets\Website\layouts\MovieBasket.ascx.cs
4392 16:46:15 INFO  HttpModule is being initialized
3640 16:46:15 INFO  HttpModule is being initialized
  32 16:46:22 INFO  HttpModule is being initialized
Heartbeat 16:46:41 WARN  Memory usage exceeded the MemoryMonitor threshold.
Heartbeat 16:46:41 WARN  Memory usage: 852,885,504
Heartbeat 16:46:41 WARN  Number of suppressed logs due to the minimum time between log entries: 10
Heartbeat 16:47:47 WARN  Memory usage exceeded the MemoryMonitor threshold.
Heartbeat 16:47:47 WARN  Memory usage: 852,897,792
Heartbeat 16:47:47 WARN  Number of suppressed logs due to the minimum time between log entries: 10
Heartbeat 16:48:53 WARN  Memory usage exceeded the MemoryMonitor threshold.
Heartbeat 16:48:53 WARN  Memory usage: 853,745,664
Heartbeat 16:48:53 WARN  Number of suppressed logs due to the minimum time between log entries: 10
Heartbeat 16:49:59 WARN  Memory usage exceeded the MemoryMonitor threshold.
Heartbeat 16:49:59 WARN  Memory usage: 850,202,624
Heartbeat 16:49:59 WARN  Number of suppressed logs due to the minimum time between log entries: 10
Heartbeat 16:50:11 INFO  Health.PrivateBytes: 855,064,576
Heartbeat 16:50:11 INFO  Health.CacheInstances: 90
Heartbeat 16:50:11 INFO  Health.CacheTotalCount: 8,536
Heartbeat 16:50:11 INFO  Health.CacheTotalSize: 33,677,022
Heartbeat 16:50:12 INFO  Health.Counter(w3wp, Process\Private Bytes): 851,095,552
Heartbeat 16:50:12 INFO  Health.Counter(w3wp, Process\Virtual Bytes): 19,060,015,104
ManagedPoolThread #1 16:50:12 INFO  Job started: Sitecore.Tasks.DatabaseAgent
ManagedPoolThread #1 16:50:12 INFO  Scheduling.DatabaseAgent started. Database: core
ManagedPoolThread #1 16:50:12 INFO  Examining schedules (count: 0)
ManagedPoolThread #1 16:50:12 INFO  Job ended: Sitecore.Tasks.DatabaseAgent (units processed: )
ManagedPoolThread #15 16:50:12 INFO  Job started: Sitecore.Tasks.DatabaseAgent
ManagedPoolThread #15 16:50:12 INFO  Scheduling.DatabaseAgent started. Database: master
ManagedPoolThread #15 16:50:12 INFO  Examining schedules (count: 1)
ManagedPoolThread #15 16:50:12 INFO  Starting: __Task Schedule
ManagedPoolThread #15 16:50:12 INFO  Ended: __Task Schedule
ManagedPoolThread #15 16:50:12 INFO  Job ended: Sitecore.Tasks.DatabaseAgent (units processed: 1)
ManagedPoolThread #17 16:50:12 INFO  Job started: Sitecore.Tasks.TaskDatabaseAgent
ManagedPoolThread #17 16:50:12 INFO  Processing tasks (count: 0)
ManagedPoolThread #17 16:50:12 INFO  Job ended: Sitecore.Tasks.TaskDatabaseAgent (units processed: )
Heartbeat 16:50:12 INFO  Health.Counter(w3wp, Process\Page File Bytes): 852,082,688
Heartbeat 16:50:12 INFO  Health.Counter(w3wp, .NET CLR Memory\# Bytes in all Heaps): 81,365,232
Heartbeat 16:50:12 INFO  Health.Counter(w3wp, .NET CLR Memory\% Time in GC): 103,245
Heartbeat 16:50:12 INFO  Health.Counter(w3wp, .NET CLR Memory\Large Object Heap size): 12,532,032
Heartbeat 16:50:12 INFO  Health.Counter(w3wp, .NET CLR Loading\Bytes in Loader Heap): 28,962,816
Heartbeat 16:50:12 INFO  Health.Counter(w3wp, .NET CLR Loading\Current Assemblies): 187
ManagedPoolThread #11 16:50:15 INFO  Starting update of index for the database 'master' (1 pending).
ManagedPoolThread #11 16:50:15 INFO  Update of index for the database 'master' done.
Heartbeat 16:51:01 WARN  Memory usage exceeded the MemoryMonitor threshold.
Heartbeat 16:51:01 WARN  Memory usage: 850,845,696
Heartbeat 16:51:01 WARN  Number of suppressed logs due to the minimum time between log entries: 9
Heartbeat 16:52:07 WARN  Memory usage exceeded the MemoryMonitor threshold.
Heartbeat 16:52:07 WARN  Memory usage: 850,198,528
Heartbeat 16:52:07 WARN  Number of suppressed logs due to the minimum time between log entries: 10
Heartbeat 16:53:13 WARN  Memory usage exceeded the MemoryMonitor threshold.
Heartbeat 16:53:13 WARN  Memory usage: 853,000,192
Heartbeat 16:53:13 WARN  Number of suppressed logs due to the minimum time between log entries: 10
3828 16:53:46 INFO  Layout file modified: D:\Movie Tickets\Movie Tickets\Website\layouts\Sample layout.aspx
7388 16:53:51 INFO  HttpModule is being initialized
4532 16:53:51 ERROR Application error.
Exception: System.Web.HttpCompileException
Message: d:\Movie Tickets\Movie Tickets\Website\layouts\MovieBasket.ascx(25): error CS1061: 'ASP.layouts_moviebasket_ascx' does not contain a definition for 'update_Click' and no extension method 'update_Click' accepting a first argument of type 'ASP.layouts_moviebasket_ascx' could be found (are you missing a using directive or an assembly reference?)
Source: System.Web
   at System.Web.Compilation.BuildManager.PostProcessFoundBuildResult(BuildResult result, Boolean keyFromVPP, VirtualPath virtualPath)
   at System.Web.Compilation.BuildManager.GetBuildResultFromCacheInternal(String cacheKey, Boolean keyFromVPP, VirtualPath virtualPath, Int64 hashCode, Boolean ensureIsUpToDate)
   at System.Web.Compilation.BuildManager.GetVPathBuildResultFromCacheInternal(VirtualPath virtualPath, Boolean ensureIsUpToDate)
   at System.Web.Compilation.BuildManager.GetVPathBuildResultInternal(VirtualPath virtualPath, Boolean noBuild, Boolean allowCrossApp, Boolean allowBuildInPrecompile, Boolean throwIfNotFound, Boolean ensureIsUpToDate)
   at System.Web.Compilation.BuildManager.GetVPathBuildResultWithNoAssert(HttpContext context, VirtualPath virtualPath, Boolean noBuild, Boolean allowCrossApp, Boolean allowBuildInPrecompile, Boolean throwIfNotFound, Boolean ensureIsUpToDate)
   at System.Web.Compilation.BuildManager.GetVPathBuildResult(HttpContext context, VirtualPath virtualPath, Boolean noBuild, Boolean allowCrossApp, Boolean allowBuildInPrecompile, Boolean ensureIsUpToDate)
   at System.Web.UI.TemplateControl.LoadControl(VirtualPath virtualPath)
   at Sitecore.Web.UI.WebControls.Sublayout.GetUserControl(Page page)
   at Sitecore.Web.UI.WebControls.Sublayout.CreateChildControls()
   at System.Web.UI.Control.EnsureChildControls()
   at Sitecore.Layouts.PageContext.Expander.Expand(Control control)
   at Sitecore.Nexus.Web.NexusPlaceholderApi.(Placeholder )
   at Sitecore.Nexus.Web.NexusPlaceholderApi.CreateChildControls(Placeholder placeholder)
   at System.Web.UI.Control.EnsureChildControls()
   at Sitecore.Layouts.PageContext.Expander.Expand(Control control)
   at Sitecore.Layouts.PageContext.Expander.Expand(Control control)
   at Sitecore.Layouts.PageContext.Expander.Expand(Control control)
   at Sitecore.Layouts.PageContext.Build()
   at (Object , Object[] )
   at Sitecore.Pipelines.CorePipeline.Run(PipelineArgs args)
   at Sitecore.Layouts.PageContext.BuildControlTree(Object sender, EventArgs e)
   at System.Web.UI.Page.PerformPreInit()
   at System.Web.UI.Page.ProcessRequestMain(Boolean includeStagesBeforeAsyncPoint, Boolean includeStagesAfterAsyncPoint)
   at System.Web.UI.Page.ProcessRequest(Boolean includeStagesBeforeAsyncPoint, Boolean includeStagesAfterAsyncPoint)
   at System.Web.UI.Page.ProcessRequest()
   at System.Web.UI.Page.ProcessRequest(HttpContext context)
   at ASP.layouts_sample_layout_aspx.ProcessRequest(HttpContext context) in c:\Windows\Microsoft.NET\Framework64\v4.0.30319\Temporary ASP.NET Files\root\da815880\f60e6fe0\App_Web_sample layout.aspx.8f6a0b35.m0popzst.0.cs:line 0
   at System.Web.HttpApplication.CallHandlerExecutionStep.System.Web.HttpApplication.IExecutionStep.Execute()
   at System.Web.HttpApplication.ExecuteStep(IExecutionStep step, Boolean& completedSynchronously)

3828 16:54:00 INFO  Layout file modified: D:\Movie Tickets\Movie Tickets\Website\layouts\Sample layout.aspx
6432 16:54:01 INFO  **************************************************
6432 16:54:01 WARN  Sitecore shutting down
6432 16:54:01 WARN  Shutdown message: Change Notification for critical directories.
bin dir change or directory rename
HostingEnvironment initiated shutdown
Change Notification for critical directories.
bin dir change or directory rename
Change Notification for critical directories.
bin dir change or directory rename
Change Notification for critical directories.
bin dir change or directory rename
Change Notification for critical directories.
bin dir change or directory rename
Change Notification for critical directories.
bin dir change or directory rename
Heartbeat 16:54:19 WARN  Memory usage exceeded the MemoryMonitor threshold.
Heartbeat 16:54:19 WARN  Memory usage: 851,693,568
Heartbeat 16:54:19 WARN  Number of suppressed logs due to the minimum time between log entries: 10
