﻿5864 14:40:14 WARN  Counter category 'Sitecore.System' does not exist on this server.
5864 14:40:14 WARN  Counter category 'Sitecore.System' does not exist on this server.
5864 14:40:14 WARN  Counter category 'Sitecore.System' does not exist on this server.
5864 14:40:14 INFO  HttpModule is being initialized
5864 14:40:14 WARN  Counter category 'Sitecore.System' does not exist on this server.
5864 14:40:14 WARN  Counter category 'Sitecore.System' does not exist on this server.
5864 14:40:14 WARN  Counter category 'Sitecore.System' does not exist on this server.
5864 14:40:14 WARN  Counter category 'Sitecore.System' does not exist on this server.
5864 14:40:14 WARN  Counter category 'Sitecore.System' does not exist on this server.
5864 14:40:14 WARN  Counter category 'Sitecore.System' does not exist on this server.
5864 14:40:14 WARN  Counter category 'Sitecore.System' does not exist on this server.
5864 14:40:14 WARN  Counter category 'Sitecore.System' does not exist on this server.
5864 14:40:14 WARN  Counter category 'Sitecore.System' does not exist on this server.
5864 14:40:14 WARN  Counter category 'Sitecore.System' does not exist on this server.
5864 14:40:14 INFO  
5864 14:40:14 INFO  **********************************************************************
5864 14:40:14 INFO  **********************************************************************
5864 14:40:14 INFO  Sitecore started
5864 14:40:14 INFO  Sitecore.NET 7.2 (rev. 140526)
5864 14:40:14 INFO  
5864 14:40:14 INFO  d:\movie tickets\movie tickets\website\bin\componentart.web.ui.dll ()
5864 14:40:14 INFO  d:\movie tickets\movie tickets\website\bin\ecmascript.net.modified.dll (Modified version of the EcmaScript.NET assembly)
5864 14:40:14 INFO  d:\movie tickets\movie tickets\website\bin\htmlagilitypack.dll (Html Agility Pack, 1.4.6.0)
5864 14:40:14 INFO  d:\movie tickets\movie tickets\website\bin\ithit.webdav.server.dll (WebDav Server .Net v2, IT Hit WebDAV Server .Net v2)
5864 14:40:14 INFO  d:\movie tickets\movie tickets\website\bin\lucene.net.contrib.analyzers.dll (Lucene.Net.Contrib.Analyzers)
5864 14:40:14 INFO  d:\movie tickets\movie tickets\website\bin\lucene.net.contrib.core.dll (Lucene.Net.Contrib.Core, Contributions to the Lucene.Net core library)
5864 14:40:14 INFO  d:\movie tickets\movie tickets\website\bin\lucene.net.contrib.fastvectorhighlighter.dll (Lucene.Net.Contrib.FastVectorHighlighter, FastVectorHighlighter for Lucene.Net)
5864 14:40:14 INFO  d:\movie tickets\movie tickets\website\bin\lucene.net.contrib.highlighter.dll (Lucene.Net.Contrib.Highlighter, The Apache Software Foundation Lucene.Net a full-text search engine library, 2.3.2)
5864 14:40:14 INFO  d:\movie tickets\movie tickets\website\bin\lucene.net.contrib.memory.dll (Contrib.Memory)
5864 14:40:14 INFO  d:\movie tickets\movie tickets\website\bin\lucene.net.contrib.queries.dll (Lucene.Net.Contrib.Queries)
5864 14:40:14 INFO  d:\movie tickets\movie tickets\website\bin\lucene.net.contrib.regex.dll (Lucene.Net.Contrib.Regex)
5864 14:40:14 INFO  d:\movie tickets\movie tickets\website\bin\lucene.net.contrib.simplefacetedsearch.dll (Lucene.Net.SimpleFacetedSearch, SimpleFacetedSearch for Lucene.Net)
5864 14:40:14 INFO  d:\movie tickets\movie tickets\website\bin\lucene.net.contrib.snowball.dll (Lucene.Net.Contrib.Snowball, The Apache Software Foundation Lucene.Net a full-text search engine library, 2.0)
5864 14:40:14 INFO  d:\movie tickets\movie tickets\website\bin\lucene.net.contrib.spellchecker.dll (SpellChecker.Net, The Apache Software Foundation Lucene.Net a full-text search engine library, 3.0.3)
5864 14:40:14 INFO  d:\movie tickets\movie tickets\website\bin\lucene.net.dll (Lucene.Net, The Apache Software Foundation Lucene.Net a full-text search engine library, 3.0.3)
5864 14:40:14 INFO  d:\movie tickets\movie tickets\website\bin\microsoft.web.infrastructure.dll (Microsoft ASP.Net WebPages)
5864 14:40:14 INFO  d:\movie tickets\movie tickets\website\bin\mvp.xml.dll (MVP XML Library)
5864 14:40:14 INFO  d:\movie tickets\movie tickets\website\bin\newtonsoft.json.dll (Json.NET, Json.NET is a popular high-performance JSON framework for .NET)
5864 14:40:14 INFO  d:\movie tickets\movie tickets\website\bin\radeditor.net2.dll (RadEditor, Telerik RadEditor)
5864 14:40:14 INFO  d:\movie tickets\movie tickets\website\bin\sitecore.analytics.dll (Sitecore DMS, Sitecore Digital Marketing System, 7.2 rev. 140526)
5864 14:40:14 INFO  d:\movie tickets\movie tickets\website\bin\sitecore.analytics.robotdetection.dll (Sitecore Robot Detection, 1.0.0 rev. 140507)
5864 14:40:14 INFO  d:\movie tickets\movie tickets\website\bin\sitecore.apps.loader.dll (Sitecore.Apps.Loader, 1.0.0 rev. 130822)
5864 14:40:14 INFO  d:\movie tickets\movie tickets\website\bin\sitecore.automation.marketingautomation.dll (Sitecore EAS, Sitecore Engagement Automation Suite, 7.2 rev. 140526)
5864 14:40:14 INFO  d:\movie tickets\movie tickets\website\bin\sitecore.buckets.client.dll (Sitecore Buckets, The assembly can be used to have Sitecore queries driven via a query, 1.0.0 rev. 140526)
5864 14:40:14 INFO  d:\movie tickets\movie tickets\website\bin\sitecore.buckets.dll (Sitecore Buckets, The assembly can be used to have Sitecore queries driven via search providers, 1.0.0 rev. 140526)
5864 14:40:14 INFO  d:\movie tickets\movie tickets\website\bin\sitecore.client.dll (Sitecore CMS, Sitecore Client Application, 7.2 rev. 140526)
5864 14:40:14 INFO  d:\movie tickets\movie tickets\website\bin\sitecore.contentsearch.client.dll (Sitecore Buckets, 1.0.0 rev. 140526)
5864 14:40:14 INFO  d:\movie tickets\movie tickets\website\bin\sitecore.contentsearch.dll (Sitecore Buckets, Sitecore CMS Search, 1.0.0 rev. 140526)
5864 14:40:14 INFO  d:\movie tickets\movie tickets\website\bin\sitecore.contentsearch.linq.dll (Sitecore Buckets, 1.0.0 rev. 140526)
5864 14:40:14 INFO  d:\movie tickets\movie tickets\website\bin\sitecore.contentsearch.linq.lucene.dll (Sitecore Buckets, 1.0.0 rev. 140526)
5864 14:40:14 INFO  d:\movie tickets\movie tickets\website\bin\sitecore.contentsearch.luceneprovider.dll (Sitecore Buckets, Sitecore CMS Search, 1.0.0 rev. 140526)
5864 14:40:14 INFO  d:\movie tickets\movie tickets\website\bin\sitecore.itemwebapi.dll (Sitecore Item Web API, 1.2.0 rev. 140508)
5864 14:40:14 INFO  d:\movie tickets\movie tickets\website\bin\sitecore.kernel.dll (Sitecore CMS, Sitecore CMS Kernel Library, 7.2 rev. 140526)
5864 14:40:14 INFO  d:\movie tickets\movie tickets\website\bin\sitecore.logging.dll (Sitecore CMS, Sitecore Logging Framework, 6.6.0 rev. 120918)
5864 14:40:14 INFO  d:\movie tickets\movie tickets\website\bin\sitecore.mvc.analytics.dll (Sitecore Mvc Analytics 1.0.0, 1.0.0 rev. 140224)
5864 14:40:14 INFO  d:\movie tickets\movie tickets\website\bin\sitecore.mvc.devicesimulator.dll (Sitecore Mvc Device Simulators 1.0.0, 1.0.0 rev. 140225)
5864 14:40:14 INFO  d:\movie tickets\movie tickets\website\bin\sitecore.mvc.dll (Sitecore Mvc 1.0.0, 1.0.0 rev. 140411)
5864 14:40:14 INFO  d:\movie tickets\movie tickets\website\bin\sitecore.mvc.experienceeditor.dll (Sitecore Mvc Experience Editor 1.0.0, 1.0.0 rev. 140225)
5864 14:40:14 INFO  d:\movie tickets\movie tickets\website\bin\sitecore.nexus.dll (Sitecore.Nexus)
5864 14:40:14 INFO  d:\movie tickets\movie tickets\website\bin\sitecore.nvelocity.dll (Sitecore CMS, Sitecore Macro Expansion Library, 6.6.0 rev. 120918)
5864 14:40:14 INFO  d:\movie tickets\movie tickets\website\bin\sitecore.oracle.dll (Sitecore CMS, Oracle Data Provider for Sitecore, 7.2 rev. 140526)
5864 14:40:14 INFO  d:\movie tickets\movie tickets\website\bin\sitecore.publishing.webdeploy.dll (Sitecore CMS, Sitecore publishing infrastructure based on Web Deployment Tool, 1.0.0 rev. 090323)
5864 14:40:14 INFO  d:\movie tickets\movie tickets\website\bin\sitecore.rocks.server.core.dll (Sitecore.Rocks.Server.Core)
5864 14:40:14 INFO  d:\movie tickets\movie tickets\website\bin\sitecore.rocks.server.dll (Sitecore.Rocks, Sitecore Rocks makes Sitecore developers happy. Directly integrated into Microsoft Visual Studio 2010/2012/2013, Sitecore Rocks provides a fast and streamlined development experience with tools that developers are used to)
5864 14:40:14 INFO  d:\movie tickets\movie tickets\website\bin\sitecore.rocks.server.lucene.2313.dll (Sitecore.Rocks.Server.Lucene.2313)
5864 14:40:14 INFO  d:\movie tickets\movie tickets\website\bin\sitecore.rocks.server.lucene.2941.dll (Sitecore.Rocks.Server.Lucene.2914)
5864 14:40:14 INFO  d:\movie tickets\movie tickets\website\bin\sitecore.rocks.server.lucene.3030.dll (Sitecore.Rocks.Server.Lucene.3030)
5864 14:40:14 INFO  d:\movie tickets\movie tickets\website\bin\sitecore.rocks.server.speak.dll (Sitecore.Rocks.Server.Speak)
5864 14:40:14 INFO  d:\movie tickets\movie tickets\website\bin\sitecore.rocks.server.validation.dll (Sitecore.Rocks.Server.Validation)
5864 14:40:14 INFO  d:\movie tickets\movie tickets\website\bin\sitecore.security.anticsrf.dll (Sitecore AntiCSRF Module 1.0.0, 1.0.0 rev. 140205)
5864 14:40:14 INFO  d:\movie tickets\movie tickets\website\bin\sitecore.segmentbuilder.dll (Sitecore Segment Builder 1.0.0, 1.0.0 rev. 140312)
5864 14:40:14 INFO  d:\movie tickets\movie tickets\website\bin\sitecore.shell.marketingautomation.dll (Sitecore Engagement Automation Suite 1.0.0, 1.0.0 rev. 140307)
5864 14:40:14 INFO  d:\movie tickets\movie tickets\website\bin\sitecore.speak.charting.dll (Sitecore Speak Charting, 1.0.0 rev. 140305)
5864 14:40:14 INFO  d:\movie tickets\movie tickets\website\bin\sitecore.speak.client.dll (Sitecore Speak.Dev, 1.1.2 rev. 140521)
5864 14:40:14 INFO  d:\movie tickets\movie tickets\website\bin\sitecore.speak.dialogs.dll (Sitecore Speak.Dev, 1.1.2 rev. 140521)
5864 14:40:14 INFO  d:\movie tickets\movie tickets\website\bin\sitecore.speak.itemwebapi.dll (Sitecore Speak.Dev, 1.1.2 rev. 140521)
5864 14:40:14 INFO  d:\movie tickets\movie tickets\website\bin\sitecore.speak.mvc.dll (Sitecore Speak.Dev, 1.1.2 rev. 140521)
5864 14:40:14 INFO  d:\movie tickets\movie tickets\website\bin\sitecore.speak.web.dll (Sitecore Speak.Dev, 1.1.2 rev. 140521)
5864 14:40:14 INFO  d:\movie tickets\movie tickets\website\bin\sitecore.update.dll (Sitecore Update Installation Wizard, 1.0.0 rev. 140225)
5864 14:40:14 INFO  d:\movie tickets\movie tickets\website\bin\sitecore.zip.dll (Sitecore CMS, ZIP support for Sitecore, 7.0.0)
5864 14:40:14 INFO  d:\movie tickets\movie tickets\website\bin\stimulsoft.base.dll (Stimulsoft Reports, Stimulsoft Base)
5864 14:40:14 INFO  d:\movie tickets\movie tickets\website\bin\stimulsoft.database.dll (Stimulsoft Reports, Stimulsoft Reports Database Helper)
5864 14:40:14 INFO  d:\movie tickets\movie tickets\website\bin\stimulsoft.report.dll (Stimulsoft Reports, Stimulsoft Reports Engine)
5864 14:40:14 INFO  d:\movie tickets\movie tickets\website\bin\stimulsoft.report.web.dll (Stimulsoft Reports.Web, Stimulsoft Reports.Web Viewer)
5864 14:40:14 INFO  d:\movie tickets\movie tickets\website\bin\stimulsoft.report.webdesign.dll (Stimulsoft Reports Designer.Web, Stimulsoft Reports Designer.Web)
5864 14:40:14 INFO  d:\movie tickets\movie tickets\website\bin\system.web.helpers.dll (Microsoft ASP.NET Web Pages, 3.0.1-20129 (54866f0d3262d0fccfc2cb463f003459fcabd6c8))
5864 14:40:14 INFO  d:\movie tickets\movie tickets\website\bin\system.web.mvc.dll (Microsoft ASP.NET MVC, System.Web.Mvc.dll, 5.1.1-20129 (54866f0d3262d0fccfc2cb463f003459fcabd6c8))
5864 14:40:14 INFO  d:\movie tickets\movie tickets\website\bin\system.web.razor.dll (Microsoft ASP.NET Web Pages, 3.0.1-20129 (54866f0d3262d0fccfc2cb463f003459fcabd6c8))
5864 14:40:14 INFO  d:\movie tickets\movie tickets\website\bin\system.web.webpages.deployment.dll (Microsoft ASP.NET Web Pages, 3.0.1-20129 (54866f0d3262d0fccfc2cb463f003459fcabd6c8))
5864 14:40:14 INFO  d:\movie tickets\movie tickets\website\bin\system.web.webpages.dll (Microsoft ASP.NET Web Pages, 3.0.1-20129 (54866f0d3262d0fccfc2cb463f003459fcabd6c8))
5864 14:40:14 INFO  d:\movie tickets\movie tickets\website\bin\system.web.webpages.razor.dll (Microsoft ASP.NET Web Pages, 3.0.1-20129 (54866f0d3262d0fccfc2cb463f003459fcabd6c8))
5864 14:40:14 INFO  d:\movie tickets\movie tickets\website\bin\telerik.web.ui.dll (Telerik.Web.UI, Telerik RadControls for ASP.NET Ajax)
5864 14:40:14 INFO  d:\movie tickets\movie tickets\website\bin\telerik.web.ui.skins.dll (Telerik RadControls for ASP.NET Ajax Skins)
5864 14:40:14 INFO  d:\movie tickets\movie tickets\website\bin\website.dll (website)
5864 14:40:14 INFO  d:\movie tickets\movie tickets\website\bin\yahoo.yui.compressor.dll (YUI Compressor, A .NET port of the Yahoo! YUI Compressor project)
5864 14:40:14 INFO  
5864 14:40:14 INFO  Operating system Microsoft Windows NT 6.3.9600.0
5864 14:40:14 INFO  
5864 14:40:14 INFO  Microsoft.NET version 4.0.30319.34014
5864 14:40:14 INFO  
5864 14:40:14 INFO  UTC offset: 01:00:00
5864 14:40:14 INFO  Machine name: rtappenden
5864 14:40:14 INFO  App pool ID: Movie Tickets.AppPool
5864 14:40:14 INFO  
5864 14:40:14 INFO  Process ID: 5136
5864 14:40:14 INFO  Windows identity used by the process: NT AUTHORITY\NETWORK SERVICE. Impersonation: False
5864 14:40:14 INFO  Managed pipeline mode: Integrated
5864 14:40:14 INFO  
5864 14:40:14 INFO  EventQueues enabled: True
5864 14:40:14 INFO  Instance Name:RTAPPENDEN-Movie Tickets
5864 14:40:14 INFO  
5864 14:40:14 INFO  Threshold settings
5864 14:40:14 INFO    Show threshold warnings: False
5864 14:40:14 INFO  
5864 14:40:14 INFO  Databases
5864 14:40:14 INFO    core
5864 14:40:14 INFO    master
5864 14:40:14 INFO    web
5864 14:40:14 INFO    filesystem
5864 14:40:14 INFO  
5864 14:40:14 INFO  Domains
5864 14:40:14 INFO  Heartbeat - Initializing
5864 14:40:14 INFO  Heartbeat - Interval set to: 00:00:02
5864 14:40:14 INFO  Heartbeat - Worker thread started
5864 14:40:14 INFO  Trying to load XML configuration /App_Config/Security/Domains.config
5864 14:40:14 INFO    sitecore
5864 14:40:14 INFO    extranet
5864 14:40:14 INFO    default
5864 14:40:14 INFO  
5864 14:40:14 WARN  Note that asp.net debugging is enabled. This can decrease performance considerably.
5864 14:40:14 INFO  
5864 14:40:14 INFO  **********************************************************************
5864 14:40:14 INFO  **********************************************************************
5864 14:40:14 WARN  Counter category 'Sitecore.Jobs' does not exist on this server.
5864 14:40:14 WARN  Counter category 'Sitecore.Jobs' does not exist on this server.
5864 14:40:14 WARN  Counter category 'Sitecore.Jobs' does not exist on this server.
5864 14:40:14 INFO  Attempting to get ASP.NET process history
5864 14:40:14 WARN  No process history available
5864 14:40:14 INFO  Cache created: 'LanguageProvider - Languages' (max size: 100KB, running total: 100KB)
5864 14:40:14 INFO  Cache created: 'DeviceItemsCache' (max size: 10MB, running total: 10MB)
5864 14:40:14 INFO  Cache created: 'core[data]' (max size: 20MB, running total: 30MB)
5864 14:40:14 INFO  Cache created: 'core[items]' (max size: 10MB, running total: 40MB)
5864 14:40:14 INFO  Cache created: 'core[paths]' (max size: 500KB, running total: 40MB)
5864 14:40:14 INFO  Cache created: 'core[standardValues]' (max size: 500KB, running total: 41MB)
5864 14:40:14 INFO  Cache created: 'core[itempaths]' (max size: 10MB, running total: 51MB)
5864 14:40:14 INFO  Cache created: 'core[blobIDs]' (max size: 500KB, running total: 51MB)
5864 14:40:15 WARN  Counter category 'Sitecore.System' does not exist on this server.
5864 14:40:15 INFO  Cache created: 'master[data]' (max size: 20MB, running total: 71MB)
5864 14:40:15 INFO  Cache created: 'master[items]' (max size: 10MB, running total: 81MB)
5864 14:40:15 INFO  Cache created: 'master[paths]' (max size: 500KB, running total: 82MB)
5864 14:40:15 INFO  Cache created: 'master[standardValues]' (max size: 500KB, running total: 82MB)
5864 14:40:15 INFO  Cache created: 'master[itempaths]' (max size: 10MB, running total: 92MB)
5864 14:40:15 INFO  Cache created: 'master[blobIDs]' (max size: 500KB, running total: 93MB)
5864 14:40:15 INFO  Cache created: 'web[data]' (max size: 20MB, running total: 113MB)
5864 14:40:15 INFO  Cache created: 'web[items]' (max size: 10MB, running total: 123MB)
5864 14:40:15 INFO  Cache created: 'web[paths]' (max size: 500KB, running total: 123MB)
5864 14:40:15 INFO  Cache created: 'web[standardValues]' (max size: 500KB, running total: 124MB)
5864 14:40:15 INFO  Cache created: 'web[itempaths]' (max size: 10MB, running total: 134MB)
5864 14:40:15 INFO  Cache created: 'web[blobIDs]' (max size: 500KB, running total: 134MB)
5864 14:40:15 INFO  Cache created: 'filesystem[data]' (max size: 0 bytes, running total: 134MB)
5864 14:40:15 INFO  Cache created: 'filesystem[items]' (max size: 0 bytes, running total: 134MB)
5864 14:40:15 INFO  Cache created: 'filesystem[paths]' (max size: 0 bytes, running total: 134MB)
5864 14:40:15 INFO  Cache created: 'filesystem[standardValues]' (max size: 0 bytes, running total: 134MB)
5864 14:40:15 INFO  Cache created: 'filesystem[itempaths]' (max size: 10MB, running total: 144MB)
5864 14:40:15 INFO  Cache created: 'filesystem[blobIDs]' (max size: 500KB, running total: 144MB)
5864 14:40:15 WARN  Counter category 'Sitecore.System' does not exist on this server.
5864 14:40:15 WARN  Counter category 'Sitecore.System' does not exist on this server.
5864 14:40:15 WARN  Counter category 'Sitecore.Caching' does not exist on this server.
5864 14:40:15 WARN  Counter category 'Sitecore.Caching' does not exist on this server.
5864 14:40:15 WARN  Counter category 'Sitecore.Caching' does not exist on this server.
5864 14:40:15 WARN  Counter category 'Sitecore.Caching' does not exist on this server.
5864 14:40:15 WARN  Counter category 'Sitecore.Caching' does not exist on this server.
5864 14:40:15 WARN  Counter category 'Sitecore.Caching' does not exist on this server.
5864 14:40:15 WARN  Counter category 'Sitecore.Caching' does not exist on this server.
5864 14:40:15 WARN  Counter category 'Sitecore.Caching' does not exist on this server.
5864 14:40:15 WARN  Counter category 'Sitecore.Caching' does not exist on this server.
5864 14:40:15 WARN  Counter category 'Sitecore.Caching' does not exist on this server.
5864 14:40:15 WARN  Counter category 'Sitecore.Caching' does not exist on this server.
5864 14:40:15 WARN  Counter category 'Sitecore.Caching' does not exist on this server.
5864 14:40:15 WARN  Counter category 'Sitecore.Caching' does not exist on this server.
5864 14:40:15 WARN  Counter category 'Sitecore.Caching' does not exist on this server.
5864 14:40:15 WARN  Counter category 'Sitecore.Caching' does not exist on this server.
5864 14:40:15 WARN  Counter category 'Sitecore.Caching' does not exist on this server.
5864 14:40:15 WARN  Counter category 'Sitecore.Caching' does not exist on this server.
5864 14:40:15 WARN  Counter category 'Sitecore.Caching' does not exist on this server.
5864 14:40:15 WARN  Counter category 'Sitecore.Caching' does not exist on this server.
5864 14:40:15 WARN  Counter category 'Sitecore.Caching' does not exist on this server.
5864 14:40:15 WARN  Counter category 'Sitecore.Caching' does not exist on this server.
5864 14:40:15 WARN  Counter category 'Sitecore.Data' does not exist on this server.
5864 14:40:15 WARN  Counter category 'Sitecore.Data' does not exist on this server.
5864 14:40:15 WARN  Counter category 'Sitecore.Data' does not exist on this server.
5864 14:40:15 WARN  Counter category 'Sitecore.Data' does not exist on this server.
5864 14:40:15 WARN  Counter category 'Sitecore.Data' does not exist on this server.
5864 14:40:15 INFO  Cache created: 'SqlDataProvider - Prefetch data(core)' (max size: 10MB, running total: 154MB)
5864 14:40:15 INFO  Cache created: 'ItemCloningRelations' (max size: 10MB, running total: 164MB)
5864 14:40:15 INFO  Cache created: 'AccessResultCache' (max size: 2MB, running total: 166MB)
5864 14:40:15 WARN  Counter category 'Sitecore.Security' does not exist on this server.
5864 14:40:15 WARN  Counter category 'Sitecore.Security' does not exist on this server.
5864 14:40:15 WARN  Counter category 'Sitecore.Security' does not exist on this server.
5864 14:40:15 WARN  Counter category 'Sitecore.Security' does not exist on this server.
5864 14:40:15 WARN  Counter category 'Sitecore.Security' does not exist on this server.
5864 14:40:15 WARN  Counter category 'Sitecore.Security' does not exist on this server.
5864 14:40:15 WARN  Counter category 'Sitecore.Security' does not exist on this server.
5864 14:40:15 WARN  Counter category 'Sitecore.Security' does not exist on this server.
5864 14:40:15 WARN  Counter category 'Sitecore.Security' does not exist on this server.
5864 14:40:15 WARN  Counter category 'Sitecore.Security' does not exist on this server.
5864 14:40:15 WARN  Counter category 'Sitecore.Security' does not exist on this server.
5864 14:40:15 INFO  Cache created: 'ProxyProvider' (max size: 500KB, running total: 167MB)
5864 14:40:16 INFO  Loading Dictionary from cache
5864 14:40:16 WARN  Counter category 'Sitecore.Data' does not exist on this server.
5864 14:40:16 WARN  Counter category 'Sitecore.Data' does not exist on this server.
5864 14:40:16 INFO  MemoryMonitor initialized. Threshold: 800 MB. Interval: 00:00:05
5864 14:40:16 INFO  Cache created: '[FieldReaderCache]' (max size: 5MB, running total: 172MB)
5864 14:40:16 INFO  Cache created: 'SqlDataProvider - Property data(core)' (max size: 500KB, running total: 172MB)
5864 14:40:16 INFO  Cache created: 'SqlDataProvider - Property data(master)' (max size: 500KB, running total: 173MB)
5864 14:40:16 INFO  Cache created: 'SqlDataProvider - Property data(web)' (max size: 500KB, running total: 173MB)
5864 14:40:16 INFO  Scheduler - Initializing
5864 14:40:16 INFO  Cache created: 'UserProfileCache' (max size: 1MB, running total: 174MB)
5864 14:40:16 INFO  Cache created: 'clientData' (max size: 5MB, running total: 179MB)
5864 14:40:16 INFO  Scheduler - Interval set to: 00:00:05
5864 14:40:16 INFO  Scheduler - Worker thread started
5948 14:40:16 INFO  HttpModule is being initialized
ManagedPoolThread #1 14:40:16 INFO  Trying to load XML configuration /App_Config/Security/Domains.config
5948 14:40:16 INFO  Cache created: 'shell[html]' (max size: 0 bytes, running total: 179MB)
5948 14:40:16 INFO  Cache created: 'shell[registry]' (max size: 3MB, running total: 182MB)
5948 14:40:16 INFO  Cache created: 'shell[viewstate]' (max size: 200KB, running total: 183MB)
5948 14:40:16 INFO  Cache created: 'shell[xsl]' (max size: 5MB, running total: 188MB)
5948 14:40:16 INFO  Cache created: 'shell[filtered items]' (max size: 2MB, running total: 190MB)
5948 14:40:16 INFO  Cache created: 'login[html]' (max size: 0 bytes, running total: 190MB)
5948 14:40:16 INFO  Cache created: 'login[registry]' (max size: 5MB, running total: 195MB)
5948 14:40:16 INFO  Cache created: 'login[viewstate]' (max size: 5MB, running total: 200MB)
5948 14:40:16 INFO  Cache created: 'login[xsl]' (max size: 10MB, running total: 210MB)
5948 14:40:16 INFO  Cache created: 'login[filtered items]' (max size: 2MB, running total: 212MB)
5948 14:40:16 INFO  Cache created: 'admin[html]' (max size: 0 bytes, running total: 212MB)
5948 14:40:16 INFO  Cache created: 'admin[registry]' (max size: 5MB, running total: 217MB)
5948 14:40:16 INFO  Cache created: 'admin[viewstate]' (max size: 5MB, running total: 222MB)
5948 14:40:16 INFO  Cache created: 'admin[xsl]' (max size: 10MB, running total: 232MB)
5948 14:40:16 INFO  Cache created: 'admin[filtered items]' (max size: 2MB, running total: 234MB)
5948 14:40:16 INFO  Cache created: 'service[html]' (max size: 0 bytes, running total: 234MB)
5948 14:40:16 INFO  Cache created: 'service[registry]' (max size: 5MB, running total: 239MB)
5948 14:40:16 INFO  Cache created: 'service[viewstate]' (max size: 5MB, running total: 244MB)
5948 14:40:16 INFO  Cache created: 'service[xsl]' (max size: 10MB, running total: 254MB)
5948 14:40:16 INFO  Cache created: 'service[filtered items]' (max size: 2MB, running total: 256MB)
5948 14:40:16 INFO  Cache created: 'modules_shell[html]' (max size: 0 bytes, running total: 256MB)
5948 14:40:16 INFO  Cache created: 'modules_shell[registry]' (max size: 5MB, running total: 261MB)
5948 14:40:16 INFO  Cache created: 'modules_shell[viewstate]' (max size: 5MB, running total: 266MB)
5948 14:40:16 INFO  Cache created: 'modules_shell[xsl]' (max size: 10MB, running total: 276MB)
5948 14:40:16 INFO  Cache created: 'modules_shell[filtered items]' (max size: 2MB, running total: 278MB)
5948 14:40:16 INFO  Cache created: 'modules_website[html]' (max size: 5MB, running total: 283MB)
5948 14:40:16 INFO  Cache created: 'modules_website[registry]' (max size: 5MB, running total: 288MB)
5948 14:40:16 INFO  Cache created: 'modules_website[viewstate]' (max size: 5MB, running total: 293MB)
5948 14:40:16 INFO  Cache created: 'modules_website[xsl]' (max size: 10MB, running total: 303MB)
5948 14:40:16 INFO  Cache created: 'modules_website[filtered items]' (max size: 2MB, running total: 305MB)
5948 14:40:16 INFO  Cache created: 'website[html]' (max size: 10MB, running total: 315MB)
5948 14:40:16 INFO  Cache created: 'website[registry]' (max size: 0 bytes, running total: 315MB)
5948 14:40:16 INFO  Cache created: 'website[viewstate]' (max size: 0 bytes, running total: 315MB)
5948 14:40:16 INFO  Cache created: 'website[xsl]' (max size: 5MB, running total: 320MB)
5948 14:40:16 INFO  Cache created: 'website[filtered items]' (max size: 2MB, running total: 322MB)
5948 14:40:16 INFO  Cache created: 'scheduler[html]' (max size: 0 bytes, running total: 322MB)
5948 14:40:16 INFO  Cache created: 'scheduler[registry]' (max size: 5MB, running total: 327MB)
5948 14:40:16 INFO  Cache created: 'scheduler[viewstate]' (max size: 5MB, running total: 332MB)
5948 14:40:16 INFO  Cache created: 'scheduler[xsl]' (max size: 10MB, running total: 342MB)
5948 14:40:16 INFO  Cache created: 'scheduler[filtered items]' (max size: 2MB, running total: 344MB)
5948 14:40:16 INFO  Cache created: 'system[html]' (max size: 0 bytes, running total: 344MB)
5948 14:40:16 INFO  Cache created: 'system[registry]' (max size: 5MB, running total: 349MB)
5948 14:40:16 INFO  Cache created: 'system[viewstate]' (max size: 5MB, running total: 354MB)
5948 14:40:16 INFO  Cache created: 'system[xsl]' (max size: 10MB, running total: 364MB)
5948 14:40:16 INFO  Cache created: 'system[filtered items]' (max size: 2MB, running total: 366MB)
5948 14:40:16 INFO  Cache created: 'publisher[html]' (max size: 0 bytes, running total: 366MB)
5948 14:40:16 INFO  Cache created: 'publisher[registry]' (max size: 5MB, running total: 371MB)
5948 14:40:16 INFO  Cache created: 'publisher[viewstate]' (max size: 5MB, running total: 376MB)
5948 14:40:16 INFO  Cache created: 'publisher[xsl]' (max size: 10MB, running total: 386MB)
5948 14:40:16 INFO  Cache created: 'publisher[filtered items]' (max size: 2MB, running total: 388MB)
5948 14:40:17 INFO  Cache created: 'SqlDataProvider - Prefetch data(master)' (max size: 20MB, running total: 408MB)
5948 14:40:17 INFO  Cache created: 'IsUserInRoleCache' (max size: 1MB, running total: 409MB)
5948 14:40:17 INFO  Trying to load XML configuration /App_Config/Security/GlobalRoles.config
5948 14:40:19 INFO  Cache created: 'rules' (max size: 800KB, running total: 409MB)
5948 14:40:20 WARN  Counter category 'Sitecore.Presentation' does not exist on this server.
5948 14:40:20 WARN  Counter category 'Sitecore.Presentation' does not exist on this server.
5948 14:40:20 WARN  Counter category 'Sitecore.Presentation' does not exist on this server.
5948 14:40:20 WARN  Counter category 'Sitecore.Presentation' does not exist on this server.
5948 14:40:20 WARN  Counter category 'Sitecore.Presentation' does not exist on this server.
5948 14:40:20 WARN  Counter category 'Sitecore.Presentation' does not exist on this server.
5948 14:40:20 WARN  Counter category 'Sitecore.Presentation' does not exist on this server.
5948 14:40:20 WARN  Counter category 'Sitecore.Presentation' does not exist on this server.
ManagedPoolThread #10 14:40:20 INFO  Trying to load XML configuration /App_Config/Security/GlobalRoles.config
5028 14:40:21 INFO  Scheduler - Adding agents
5028 14:40:21 INFO  Scheduler - Adding agent: Sitecore.Tasks.DatabaseAgent (interval: 00:10:00)
5028 14:40:21 INFO  Scheduler - Adding agent: Sitecore.Tasks.DatabaseAgent (interval: 00:10:00)
5028 14:40:21 INFO  Scheduler - Adding agent: Sitecore.Tasks.UrlAgent (interval: 00:15:00)
5028 14:40:21 INFO  Scheduler - Adding agent: Sitecore.Tasks.TaskDatabaseAgent (interval: 00:10:00)
5028 14:40:21 INFO  Scheduler - Adding agent: Sitecore.Tasks.CompactClientDataAgent (interval: 04:00:00)
5028 14:40:21 INFO  Scheduler - Adding agent: Sitecore.Tasks.CleanupHistory (interval: 04:00:00)
5028 14:40:21 INFO  Scheduler - Adding agent: Sitecore.Tasks.CleanupPublishQueue (interval: 04:00:00)
5028 14:40:21 INFO  Scheduler - Adding agent: Sitecore.Tasks.CleanupEventQueue (interval: 04:00:00)
5028 14:40:21 INFO  Scheduler - Skipping inactive agent: Sitecore.Tasks.HtmlCacheClearAgent
5028 14:40:21 INFO  Scheduler - Skipping inactive agent: Sitecore.Tasks.PublishAgent
5028 14:40:21 INFO  Scheduler - Adding agent: Sitecore.Tasks.CleanupAgent (interval: 06:00:00)
5028 14:40:21 INFO  Scheduler - Adding agent: Sitecore.Tasks.CounterDumpAgent (interval: 01:00:00)
5028 14:40:21 INFO  Scheduler - Adding agent: Sitecore.Tasks.CloneNotificationsCleanupAgent (interval: 1.00:00:00)
5028 14:40:21 INFO  Scheduler - Adding agent: Sitecore.ContentSearch.Tasks.Optimize (interval: 01:00:00)
5028 14:40:21 INFO  Scheduler - Adding agent: Sitecore.Tasks.CleanupFDAObsoleteMediaData (interval: 1.00:00:00)
5028 14:40:21 INFO  Scheduler - Adding agent: Sitecore.Tasks.WebDAVOptionsCleanupAgent (interval: 1.00:00:00)
5028 14:40:21 INFO  Scheduler - Agents added
7780 14:40:30 INFO  HttpModule is being initialized
6220 14:40:30 INFO  HttpModule is being initialized
Heartbeat 14:41:15 WARN  Memory usage exceeded the MemoryMonitor threshold.
Heartbeat 14:41:15 WARN  Memory usage: 993,038,336
Heartbeat 14:41:15 WARN  Number of suppressed logs due to the minimum time between log entries: 9
Heartbeat 14:42:21 WARN  Memory usage exceeded the MemoryMonitor threshold.
Heartbeat 14:42:21 WARN  Memory usage: 991,436,800
Heartbeat 14:42:21 WARN  Number of suppressed logs due to the minimum time between log entries: 10
Heartbeat 14:43:21 WARN  Memory usage exceeded the MemoryMonitor threshold.
Heartbeat 14:43:21 WARN  Memory usage: 995,586,048
Heartbeat 14:43:21 WARN  Number of suppressed logs due to the minimum time between log entries: 9
Heartbeat 14:44:27 WARN  Memory usage exceeded the MemoryMonitor threshold.
Heartbeat 14:44:27 WARN  Memory usage: 989,118,464
Heartbeat 14:44:27 WARN  Number of suppressed logs due to the minimum time between log entries: 10
ManagedPoolThread #3 14:45:18 WARN  Counter category 'Sitecore.Presentation' does not exist on this server.
ManagedPoolThread #3 14:45:18 WARN  Counter category 'Sitecore.Presentation' does not exist on this server.
ManagedPoolThread #3 14:45:18 WARN  Counter category 'Sitecore.Jobs' does not exist on this server.
ManagedPoolThread #4 14:45:18 INFO  Starting update of index for the database 'master' (1 pending).
ManagedPoolThread #4 14:45:19 WARN  Counter category 'Sitecore.Data' does not exist on this server.
ManagedPoolThread #4 14:45:19 WARN  Counter category 'Sitecore.Data' does not exist on this server.
ManagedPoolThread #4 14:45:19 WARN  Counter category 'Sitecore.Data' does not exist on this server.
ManagedPoolThread #4 14:45:19 INFO  Update of index for the database 'master' done.
Heartbeat 14:45:33 WARN  Memory usage exceeded the MemoryMonitor threshold.
Heartbeat 14:45:33 WARN  Memory usage: 990,990,336
Heartbeat 14:45:33 WARN  Number of suppressed logs due to the minimum time between log entries: 10
Heartbeat 14:46:39 WARN  Memory usage exceeded the MemoryMonitor threshold.
Heartbeat 14:46:39 WARN  Memory usage: 995,418,112
Heartbeat 14:46:39 WARN  Number of suppressed logs due to the minimum time between log entries: 10
Heartbeat 14:47:39 WARN  Memory usage exceeded the MemoryMonitor threshold.
Heartbeat 14:47:39 WARN  Memory usage: 993,222,656
Heartbeat 14:47:39 WARN  Number of suppressed logs due to the minimum time between log entries: 9
Heartbeat 14:48:45 WARN  Memory usage exceeded the MemoryMonitor threshold.
Heartbeat 14:48:45 WARN  Memory usage: 994,516,992
Heartbeat 14:48:45 WARN  Number of suppressed logs due to the minimum time between log entries: 10
Heartbeat 14:49:51 WARN  Memory usage exceeded the MemoryMonitor threshold.
Heartbeat 14:49:51 WARN  Memory usage: 994,070,528
Heartbeat 14:49:51 WARN  Number of suppressed logs due to the minimum time between log entries: 10
