﻿1424 15:02:49 WARN  Counter category 'Sitecore.System' does not exist on this server.
1424 15:02:49 WARN  Counter category 'Sitecore.System' does not exist on this server.
1424 15:02:49 WARN  Counter category 'Sitecore.System' does not exist on this server.
1424 15:02:50 INFO  HttpModule is being initialized
1424 15:02:50 WARN  Counter category 'Sitecore.System' does not exist on this server.
1424 15:02:50 WARN  Counter category 'Sitecore.System' does not exist on this server.
1424 15:02:50 WARN  Counter category 'Sitecore.System' does not exist on this server.
1424 15:02:50 WARN  Counter category 'Sitecore.System' does not exist on this server.
1424 15:02:50 WARN  Counter category 'Sitecore.System' does not exist on this server.
1424 15:02:50 WARN  Counter category 'Sitecore.System' does not exist on this server.
1424 15:02:50 WARN  Counter category 'Sitecore.System' does not exist on this server.
1424 15:02:50 WARN  Counter category 'Sitecore.System' does not exist on this server.
1424 15:02:50 WARN  Counter category 'Sitecore.System' does not exist on this server.
1424 15:02:50 WARN  Counter category 'Sitecore.System' does not exist on this server.
1424 15:02:50 INFO  
1424 15:02:50 INFO  **********************************************************************
1424 15:02:50 INFO  **********************************************************************
1424 15:02:50 INFO  Sitecore started
1424 15:02:50 INFO  Sitecore.NET 7.2 (rev. 140526)
1424 15:02:50 INFO  
1424 15:02:50 INFO  d:\movie tickets\movie tickets\website\bin\componentart.web.ui.dll ()
1424 15:02:50 INFO  d:\movie tickets\movie tickets\website\bin\ecmascript.net.modified.dll (Modified version of the EcmaScript.NET assembly)
1424 15:02:50 INFO  d:\movie tickets\movie tickets\website\bin\htmlagilitypack.dll (Html Agility Pack, 1.4.6.0)
1424 15:02:50 INFO  d:\movie tickets\movie tickets\website\bin\ithit.webdav.server.dll (WebDav Server .Net v2, IT Hit WebDAV Server .Net v2)
1424 15:02:50 INFO  d:\movie tickets\movie tickets\website\bin\lucene.net.contrib.analyzers.dll (Lucene.Net.Contrib.Analyzers)
1424 15:02:50 INFO  d:\movie tickets\movie tickets\website\bin\lucene.net.contrib.core.dll (Lucene.Net.Contrib.Core, Contributions to the Lucene.Net core library)
1424 15:02:50 INFO  d:\movie tickets\movie tickets\website\bin\lucene.net.contrib.fastvectorhighlighter.dll (Lucene.Net.Contrib.FastVectorHighlighter, FastVectorHighlighter for Lucene.Net)
1424 15:02:50 INFO  d:\movie tickets\movie tickets\website\bin\lucene.net.contrib.highlighter.dll (Lucene.Net.Contrib.Highlighter, The Apache Software Foundation Lucene.Net a full-text search engine library, 2.3.2)
1424 15:02:50 INFO  d:\movie tickets\movie tickets\website\bin\lucene.net.contrib.memory.dll (Contrib.Memory)
1424 15:02:50 INFO  d:\movie tickets\movie tickets\website\bin\lucene.net.contrib.queries.dll (Lucene.Net.Contrib.Queries)
1424 15:02:50 INFO  d:\movie tickets\movie tickets\website\bin\lucene.net.contrib.regex.dll (Lucene.Net.Contrib.Regex)
1424 15:02:50 INFO  d:\movie tickets\movie tickets\website\bin\lucene.net.contrib.simplefacetedsearch.dll (Lucene.Net.SimpleFacetedSearch, SimpleFacetedSearch for Lucene.Net)
1424 15:02:50 INFO  d:\movie tickets\movie tickets\website\bin\lucene.net.contrib.snowball.dll (Lucene.Net.Contrib.Snowball, The Apache Software Foundation Lucene.Net a full-text search engine library, 2.0)
1424 15:02:50 INFO  d:\movie tickets\movie tickets\website\bin\lucene.net.contrib.spellchecker.dll (SpellChecker.Net, The Apache Software Foundation Lucene.Net a full-text search engine library, 3.0.3)
1424 15:02:50 INFO  d:\movie tickets\movie tickets\website\bin\lucene.net.dll (Lucene.Net, The Apache Software Foundation Lucene.Net a full-text search engine library, 3.0.3)
1424 15:02:50 INFO  d:\movie tickets\movie tickets\website\bin\microsoft.web.infrastructure.dll (Microsoft ASP.Net WebPages)
1424 15:02:50 INFO  d:\movie tickets\movie tickets\website\bin\mvp.xml.dll (MVP XML Library)
1424 15:02:50 INFO  d:\movie tickets\movie tickets\website\bin\newtonsoft.json.dll (Json.NET, Json.NET is a popular high-performance JSON framework for .NET)
1424 15:02:50 INFO  d:\movie tickets\movie tickets\website\bin\radeditor.net2.dll (RadEditor, Telerik RadEditor)
1424 15:02:50 INFO  d:\movie tickets\movie tickets\website\bin\sitecore.analytics.dll (Sitecore DMS, Sitecore Digital Marketing System, 7.2 rev. 140526)
1424 15:02:50 INFO  d:\movie tickets\movie tickets\website\bin\sitecore.analytics.robotdetection.dll (Sitecore Robot Detection, 1.0.0 rev. 140507)
1424 15:02:50 INFO  d:\movie tickets\movie tickets\website\bin\sitecore.apps.loader.dll (Sitecore.Apps.Loader, 1.0.0 rev. 130822)
1424 15:02:50 INFO  d:\movie tickets\movie tickets\website\bin\sitecore.automation.marketingautomation.dll (Sitecore EAS, Sitecore Engagement Automation Suite, 7.2 rev. 140526)
1424 15:02:50 INFO  d:\movie tickets\movie tickets\website\bin\sitecore.buckets.client.dll (Sitecore Buckets, The assembly can be used to have Sitecore queries driven via a query, 1.0.0 rev. 140526)
1424 15:02:50 INFO  d:\movie tickets\movie tickets\website\bin\sitecore.buckets.dll (Sitecore Buckets, The assembly can be used to have Sitecore queries driven via search providers, 1.0.0 rev. 140526)
1424 15:02:50 INFO  d:\movie tickets\movie tickets\website\bin\sitecore.client.dll (Sitecore CMS, Sitecore Client Application, 7.2 rev. 140526)
1424 15:02:50 INFO  d:\movie tickets\movie tickets\website\bin\sitecore.contentsearch.client.dll (Sitecore Buckets, 1.0.0 rev. 140526)
1424 15:02:50 INFO  d:\movie tickets\movie tickets\website\bin\sitecore.contentsearch.dll (Sitecore Buckets, Sitecore CMS Search, 1.0.0 rev. 140526)
1424 15:02:50 INFO  d:\movie tickets\movie tickets\website\bin\sitecore.contentsearch.linq.dll (Sitecore Buckets, 1.0.0 rev. 140526)
1424 15:02:50 INFO  d:\movie tickets\movie tickets\website\bin\sitecore.contentsearch.linq.lucene.dll (Sitecore Buckets, 1.0.0 rev. 140526)
1424 15:02:50 INFO  d:\movie tickets\movie tickets\website\bin\sitecore.contentsearch.luceneprovider.dll (Sitecore Buckets, Sitecore CMS Search, 1.0.0 rev. 140526)
1424 15:02:50 INFO  d:\movie tickets\movie tickets\website\bin\sitecore.itemwebapi.dll (Sitecore Item Web API, 1.2.0 rev. 140508)
1424 15:02:50 INFO  d:\movie tickets\movie tickets\website\bin\sitecore.kernel.dll (Sitecore CMS, Sitecore CMS Kernel Library, 7.2 rev. 140526)
1424 15:02:50 INFO  d:\movie tickets\movie tickets\website\bin\sitecore.logging.dll (Sitecore CMS, Sitecore Logging Framework, 6.6.0 rev. 120918)
1424 15:02:50 INFO  d:\movie tickets\movie tickets\website\bin\sitecore.mvc.analytics.dll (Sitecore Mvc Analytics 1.0.0, 1.0.0 rev. 140224)
1424 15:02:50 INFO  d:\movie tickets\movie tickets\website\bin\sitecore.mvc.devicesimulator.dll (Sitecore Mvc Device Simulators 1.0.0, 1.0.0 rev. 140225)
1424 15:02:50 INFO  d:\movie tickets\movie tickets\website\bin\sitecore.mvc.dll (Sitecore Mvc 1.0.0, 1.0.0 rev. 140411)
1424 15:02:50 INFO  d:\movie tickets\movie tickets\website\bin\sitecore.mvc.experienceeditor.dll (Sitecore Mvc Experience Editor 1.0.0, 1.0.0 rev. 140225)
1424 15:02:50 INFO  d:\movie tickets\movie tickets\website\bin\sitecore.nexus.dll (Sitecore.Nexus)
1424 15:02:50 INFO  d:\movie tickets\movie tickets\website\bin\sitecore.nvelocity.dll (Sitecore CMS, Sitecore Macro Expansion Library, 6.6.0 rev. 120918)
1424 15:02:50 INFO  d:\movie tickets\movie tickets\website\bin\sitecore.oracle.dll (Sitecore CMS, Oracle Data Provider for Sitecore, 7.2 rev. 140526)
1424 15:02:50 INFO  d:\movie tickets\movie tickets\website\bin\sitecore.publishing.webdeploy.dll (Sitecore CMS, Sitecore publishing infrastructure based on Web Deployment Tool, 1.0.0 rev. 090323)
1424 15:02:50 INFO  d:\movie tickets\movie tickets\website\bin\sitecore.rocks.server.core.dll (Sitecore.Rocks.Server.Core)
1424 15:02:50 INFO  d:\movie tickets\movie tickets\website\bin\sitecore.rocks.server.dll (Sitecore.Rocks, Sitecore Rocks makes Sitecore developers happy. Directly integrated into Microsoft Visual Studio 2010/2012/2013, Sitecore Rocks provides a fast and streamlined development experience with tools that developers are used to)
1424 15:02:50 INFO  d:\movie tickets\movie tickets\website\bin\sitecore.rocks.server.lucene.2313.dll (Sitecore.Rocks.Server.Lucene.2313)
1424 15:02:50 INFO  d:\movie tickets\movie tickets\website\bin\sitecore.rocks.server.lucene.2941.dll (Sitecore.Rocks.Server.Lucene.2914)
1424 15:02:50 INFO  d:\movie tickets\movie tickets\website\bin\sitecore.rocks.server.lucene.3030.dll (Sitecore.Rocks.Server.Lucene.3030)
1424 15:02:50 INFO  d:\movie tickets\movie tickets\website\bin\sitecore.rocks.server.speak.dll (Sitecore.Rocks.Server.Speak)
1424 15:02:50 INFO  d:\movie tickets\movie tickets\website\bin\sitecore.rocks.server.validation.dll (Sitecore.Rocks.Server.Validation)
1424 15:02:50 INFO  d:\movie tickets\movie tickets\website\bin\sitecore.security.anticsrf.dll (Sitecore AntiCSRF Module 1.0.0, 1.0.0 rev. 140205)
1424 15:02:50 INFO  d:\movie tickets\movie tickets\website\bin\sitecore.segmentbuilder.dll (Sitecore Segment Builder 1.0.0, 1.0.0 rev. 140312)
1424 15:02:50 INFO  d:\movie tickets\movie tickets\website\bin\sitecore.shell.marketingautomation.dll (Sitecore Engagement Automation Suite 1.0.0, 1.0.0 rev. 140307)
1424 15:02:50 INFO  d:\movie tickets\movie tickets\website\bin\sitecore.speak.charting.dll (Sitecore Speak Charting, 1.0.0 rev. 140305)
1424 15:02:50 INFO  d:\movie tickets\movie tickets\website\bin\sitecore.speak.client.dll (Sitecore Speak.Dev, 1.1.2 rev. 140521)
1424 15:02:50 INFO  d:\movie tickets\movie tickets\website\bin\sitecore.speak.dialogs.dll (Sitecore Speak.Dev, 1.1.2 rev. 140521)
1424 15:02:50 INFO  d:\movie tickets\movie tickets\website\bin\sitecore.speak.itemwebapi.dll (Sitecore Speak.Dev, 1.1.2 rev. 140521)
1424 15:02:50 INFO  d:\movie tickets\movie tickets\website\bin\sitecore.speak.mvc.dll (Sitecore Speak.Dev, 1.1.2 rev. 140521)
1424 15:02:50 INFO  d:\movie tickets\movie tickets\website\bin\sitecore.speak.web.dll (Sitecore Speak.Dev, 1.1.2 rev. 140521)
1424 15:02:50 INFO  d:\movie tickets\movie tickets\website\bin\sitecore.update.dll (Sitecore Update Installation Wizard, 1.0.0 rev. 140225)
1424 15:02:50 INFO  d:\movie tickets\movie tickets\website\bin\sitecore.zip.dll (Sitecore CMS, ZIP support for Sitecore, 7.0.0)
1424 15:02:50 INFO  d:\movie tickets\movie tickets\website\bin\stimulsoft.base.dll (Stimulsoft Reports, Stimulsoft Base)
1424 15:02:50 INFO  d:\movie tickets\movie tickets\website\bin\stimulsoft.database.dll (Stimulsoft Reports, Stimulsoft Reports Database Helper)
1424 15:02:50 INFO  d:\movie tickets\movie tickets\website\bin\stimulsoft.report.dll (Stimulsoft Reports, Stimulsoft Reports Engine)
1424 15:02:50 INFO  d:\movie tickets\movie tickets\website\bin\stimulsoft.report.web.dll (Stimulsoft Reports.Web, Stimulsoft Reports.Web Viewer)
1424 15:02:50 INFO  d:\movie tickets\movie tickets\website\bin\stimulsoft.report.webdesign.dll (Stimulsoft Reports Designer.Web, Stimulsoft Reports Designer.Web)
1424 15:02:50 INFO  d:\movie tickets\movie tickets\website\bin\system.web.helpers.dll (Microsoft ASP.NET Web Pages, 3.0.0-20110)
1424 15:02:50 INFO  d:\movie tickets\movie tickets\website\bin\system.web.mvc.dll (Microsoft ASP.NET MVC, System.Web.Mvc.dll, 5.1.0-20110)
1424 15:02:50 INFO  d:\movie tickets\movie tickets\website\bin\system.web.razor.dll (Microsoft ASP.NET Web Pages, 3.0.0-20110)
1424 15:02:50 INFO  d:\movie tickets\movie tickets\website\bin\system.web.webpages.deployment.dll (Microsoft ASP.NET Web Pages, 3.0.0-20110)
1424 15:02:50 INFO  d:\movie tickets\movie tickets\website\bin\system.web.webpages.dll (Microsoft ASP.NET Web Pages, 3.0.0-20110)
1424 15:02:50 INFO  d:\movie tickets\movie tickets\website\bin\system.web.webpages.razor.dll (Microsoft ASP.NET Web Pages, 3.0.0-20110)
1424 15:02:50 INFO  d:\movie tickets\movie tickets\website\bin\telerik.web.ui.dll (Telerik.Web.UI, Telerik RadControls for ASP.NET Ajax)
1424 15:02:50 INFO  d:\movie tickets\movie tickets\website\bin\telerik.web.ui.skins.dll (Telerik RadControls for ASP.NET Ajax Skins)
1424 15:02:50 INFO  d:\movie tickets\movie tickets\website\bin\trueclarity.movietickets.website.dll (website)
1424 15:02:50 INFO  d:\movie tickets\movie tickets\website\bin\yahoo.yui.compressor.dll (YUI Compressor, A .NET port of the Yahoo! YUI Compressor project)
1424 15:02:50 INFO  
1424 15:02:50 INFO  Operating system Microsoft Windows NT 6.3.9600.0
1424 15:02:50 INFO  
1424 15:02:50 INFO  Microsoft.NET version 4.0.30319.34014
1424 15:02:50 INFO  
1424 15:02:50 INFO  UTC offset: 01:00:00
1424 15:02:50 INFO  Machine name: rtappenden
1424 15:02:50 INFO  App pool ID: Movie Tickets.AppPool
1424 15:02:50 INFO  
1424 15:02:50 INFO  Process ID: 6556
1424 15:02:50 INFO  Windows identity used by the process: NT AUTHORITY\NETWORK SERVICE. Impersonation: False
1424 15:02:50 INFO  Managed pipeline mode: Integrated
1424 15:02:50 INFO  
1424 15:02:50 INFO  EventQueues enabled: True
1424 15:02:50 INFO  Instance Name:RTAPPENDEN-Movie Tickets
1424 15:02:50 INFO  
1424 15:02:50 INFO  Threshold settings
1424 15:02:50 INFO    Show threshold warnings: False
1424 15:02:50 INFO  
1424 15:02:50 INFO  Databases
1424 15:02:50 INFO    core
1424 15:02:50 INFO    master
1424 15:02:50 INFO    web
1424 15:02:50 INFO    filesystem
1424 15:02:50 INFO  
1424 15:02:50 INFO  Domains
1424 15:02:50 INFO  Heartbeat - Initializing
1424 15:02:50 INFO  Heartbeat - Interval set to: 00:00:02
1424 15:02:50 INFO  Heartbeat - Worker thread started
1424 15:02:50 INFO  Trying to load XML configuration /App_Config/Security/Domains.config
1424 15:02:50 INFO    sitecore
1424 15:02:50 INFO    extranet
1424 15:02:50 INFO    default
1424 15:02:50 INFO  
1424 15:02:50 WARN  Note that asp.net debugging is enabled. This can decrease performance considerably.
1424 15:02:50 INFO  
1424 15:02:50 INFO  **********************************************************************
1424 15:02:50 INFO  **********************************************************************
1424 15:02:50 WARN  Counter category 'Sitecore.Jobs' does not exist on this server.
1424 15:02:50 WARN  Counter category 'Sitecore.Jobs' does not exist on this server.
1424 15:02:50 WARN  Counter category 'Sitecore.Jobs' does not exist on this server.
1424 15:02:50 INFO  Attempting to get ASP.NET process history
1424 15:02:50 WARN  No process history available
1424 15:02:50 INFO  Cache created: 'LanguageProvider - Languages' (max size: 100KB, running total: 100KB)
1424 15:02:50 INFO  Cache created: 'DeviceItemsCache' (max size: 10MB, running total: 10MB)
1424 15:02:50 INFO  Cache created: 'core[data]' (max size: 20MB, running total: 30MB)
1424 15:02:50 INFO  Cache created: 'core[items]' (max size: 10MB, running total: 40MB)
1424 15:02:50 INFO  Cache created: 'core[paths]' (max size: 500KB, running total: 40MB)
1424 15:02:50 INFO  Cache created: 'core[standardValues]' (max size: 500KB, running total: 41MB)
1424 15:02:50 INFO  Cache created: 'core[itempaths]' (max size: 10MB, running total: 51MB)
1424 15:02:50 INFO  Cache created: 'core[blobIDs]' (max size: 500KB, running total: 51MB)
1424 15:02:50 WARN  Counter category 'Sitecore.System' does not exist on this server.
1424 15:02:50 INFO  Cache created: 'master[data]' (max size: 20MB, running total: 71MB)
1424 15:02:50 INFO  Cache created: 'master[items]' (max size: 10MB, running total: 81MB)
1424 15:02:50 INFO  Cache created: 'master[paths]' (max size: 500KB, running total: 82MB)
1424 15:02:50 INFO  Cache created: 'master[standardValues]' (max size: 500KB, running total: 82MB)
1424 15:02:50 INFO  Cache created: 'master[itempaths]' (max size: 10MB, running total: 92MB)
1424 15:02:50 INFO  Cache created: 'master[blobIDs]' (max size: 500KB, running total: 93MB)
1424 15:02:50 INFO  Cache created: 'web[data]' (max size: 20MB, running total: 113MB)
1424 15:02:50 INFO  Cache created: 'web[items]' (max size: 10MB, running total: 123MB)
1424 15:02:50 INFO  Cache created: 'web[paths]' (max size: 500KB, running total: 123MB)
1424 15:02:50 INFO  Cache created: 'web[standardValues]' (max size: 500KB, running total: 124MB)
1424 15:02:50 INFO  Cache created: 'web[itempaths]' (max size: 10MB, running total: 134MB)
1424 15:02:50 INFO  Cache created: 'web[blobIDs]' (max size: 500KB, running total: 134MB)
1424 15:02:50 INFO  Cache created: 'filesystem[data]' (max size: 0 bytes, running total: 134MB)
1424 15:02:50 INFO  Cache created: 'filesystem[items]' (max size: 0 bytes, running total: 134MB)
1424 15:02:50 INFO  Cache created: 'filesystem[paths]' (max size: 0 bytes, running total: 134MB)
1424 15:02:50 INFO  Cache created: 'filesystem[standardValues]' (max size: 0 bytes, running total: 134MB)
1424 15:02:50 INFO  Cache created: 'filesystem[itempaths]' (max size: 10MB, running total: 144MB)
1424 15:02:50 INFO  Cache created: 'filesystem[blobIDs]' (max size: 500KB, running total: 144MB)
1424 15:02:50 WARN  Counter category 'Sitecore.System' does not exist on this server.
1424 15:02:50 WARN  Counter category 'Sitecore.System' does not exist on this server.
1424 15:02:50 WARN  Counter category 'Sitecore.Caching' does not exist on this server.
1424 15:02:50 WARN  Counter category 'Sitecore.Caching' does not exist on this server.
1424 15:02:50 WARN  Counter category 'Sitecore.Caching' does not exist on this server.
1424 15:02:50 WARN  Counter category 'Sitecore.Caching' does not exist on this server.
1424 15:02:50 WARN  Counter category 'Sitecore.Caching' does not exist on this server.
1424 15:02:50 WARN  Counter category 'Sitecore.Caching' does not exist on this server.
1424 15:02:50 WARN  Counter category 'Sitecore.Caching' does not exist on this server.
1424 15:02:50 WARN  Counter category 'Sitecore.Caching' does not exist on this server.
1424 15:02:50 WARN  Counter category 'Sitecore.Caching' does not exist on this server.
1424 15:02:50 WARN  Counter category 'Sitecore.Caching' does not exist on this server.
1424 15:02:50 WARN  Counter category 'Sitecore.Caching' does not exist on this server.
1424 15:02:50 WARN  Counter category 'Sitecore.Caching' does not exist on this server.
1424 15:02:50 WARN  Counter category 'Sitecore.Caching' does not exist on this server.
1424 15:02:50 WARN  Counter category 'Sitecore.Caching' does not exist on this server.
1424 15:02:50 WARN  Counter category 'Sitecore.Caching' does not exist on this server.
1424 15:02:50 WARN  Counter category 'Sitecore.Caching' does not exist on this server.
1424 15:02:50 WARN  Counter category 'Sitecore.Caching' does not exist on this server.
1424 15:02:50 WARN  Counter category 'Sitecore.Caching' does not exist on this server.
1424 15:02:50 WARN  Counter category 'Sitecore.Caching' does not exist on this server.
1424 15:02:50 WARN  Counter category 'Sitecore.Caching' does not exist on this server.
1424 15:02:50 WARN  Counter category 'Sitecore.Caching' does not exist on this server.
1424 15:02:50 WARN  Counter category 'Sitecore.Data' does not exist on this server.
1424 15:02:50 WARN  Counter category 'Sitecore.Data' does not exist on this server.
1424 15:02:50 WARN  Counter category 'Sitecore.Data' does not exist on this server.
1424 15:02:50 WARN  Counter category 'Sitecore.Data' does not exist on this server.
1424 15:02:50 WARN  Counter category 'Sitecore.Data' does not exist on this server.
1424 15:02:50 INFO  Cache created: 'SqlDataProvider - Prefetch data(core)' (max size: 10MB, running total: 154MB)
1424 15:02:50 INFO  Cache created: 'ItemCloningRelations' (max size: 10MB, running total: 164MB)
1424 15:02:50 INFO  Cache created: 'AccessResultCache' (max size: 2MB, running total: 166MB)
1424 15:02:50 WARN  Counter category 'Sitecore.Security' does not exist on this server.
1424 15:02:50 WARN  Counter category 'Sitecore.Security' does not exist on this server.
1424 15:02:50 WARN  Counter category 'Sitecore.Security' does not exist on this server.
1424 15:02:50 WARN  Counter category 'Sitecore.Security' does not exist on this server.
1424 15:02:50 WARN  Counter category 'Sitecore.Security' does not exist on this server.
1424 15:02:50 WARN  Counter category 'Sitecore.Security' does not exist on this server.
1424 15:02:50 WARN  Counter category 'Sitecore.Security' does not exist on this server.
1424 15:02:50 WARN  Counter category 'Sitecore.Security' does not exist on this server.
1424 15:02:50 WARN  Counter category 'Sitecore.Security' does not exist on this server.
1424 15:02:50 WARN  Counter category 'Sitecore.Security' does not exist on this server.
1424 15:02:50 WARN  Counter category 'Sitecore.Security' does not exist on this server.
1424 15:02:50 INFO  Cache created: 'ProxyProvider' (max size: 500KB, running total: 167MB)
1424 15:02:50 INFO  Loading Dictionary from cache
1424 15:02:50 WARN  Counter category 'Sitecore.Data' does not exist on this server.
1424 15:02:50 WARN  Counter category 'Sitecore.Data' does not exist on this server.
1424 15:02:50 INFO  MemoryMonitor initialized. Threshold: 800 MB. Interval: 00:00:05
1424 15:02:50 INFO  Cache created: '[FieldReaderCache]' (max size: 5MB, running total: 172MB)
1424 15:02:51 INFO  Cache created: 'SqlDataProvider - Property data(core)' (max size: 500KB, running total: 172MB)
1424 15:02:51 INFO  Cache created: 'SqlDataProvider - Property data(master)' (max size: 500KB, running total: 173MB)
1424 15:02:51 INFO  Cache created: 'SqlDataProvider - Property data(web)' (max size: 500KB, running total: 173MB)
1424 15:02:51 INFO  Scheduler - Initializing
1424 15:02:51 INFO  Cache created: 'UserProfileCache' (max size: 1MB, running total: 174MB)
1424 15:02:51 INFO  Cache created: 'clientData' (max size: 5MB, running total: 179MB)
1424 15:02:51 INFO  Scheduler - Interval set to: 00:00:05
1424 15:02:51 INFO  Scheduler - Worker thread started
4648 15:02:51 WARN  Counter category 'Sitecore.System' does not exist on this server.
7960 15:02:51 INFO  HttpModule is being initialized
7960 15:02:51 INFO  Cache created: 'shell[html]' (max size: 0 bytes, running total: 179MB)
7960 15:02:51 INFO  Cache created: 'shell[registry]' (max size: 3MB, running total: 182MB)
7960 15:02:51 INFO  Cache created: 'shell[viewstate]' (max size: 200KB, running total: 183MB)
7960 15:02:51 INFO  Cache created: 'shell[xsl]' (max size: 5MB, running total: 188MB)
7960 15:02:51 INFO  Cache created: 'shell[filtered items]' (max size: 2MB, running total: 190MB)
7960 15:02:51 INFO  Cache created: 'login[html]' (max size: 0 bytes, running total: 190MB)
7960 15:02:51 INFO  Cache created: 'login[registry]' (max size: 5MB, running total: 195MB)
7960 15:02:51 INFO  Cache created: 'login[viewstate]' (max size: 5MB, running total: 200MB)
7960 15:02:51 INFO  Cache created: 'login[xsl]' (max size: 10MB, running total: 210MB)
7960 15:02:51 INFO  Cache created: 'login[filtered items]' (max size: 2MB, running total: 212MB)
7960 15:02:51 INFO  Cache created: 'admin[html]' (max size: 0 bytes, running total: 212MB)
7960 15:02:51 INFO  Cache created: 'admin[registry]' (max size: 5MB, running total: 217MB)
7960 15:02:51 INFO  Cache created: 'admin[viewstate]' (max size: 5MB, running total: 222MB)
7960 15:02:51 INFO  Cache created: 'admin[xsl]' (max size: 10MB, running total: 232MB)
7960 15:02:51 INFO  Cache created: 'admin[filtered items]' (max size: 2MB, running total: 234MB)
7960 15:02:51 INFO  Cache created: 'service[html]' (max size: 0 bytes, running total: 234MB)
7960 15:02:51 INFO  Cache created: 'service[registry]' (max size: 5MB, running total: 239MB)
7960 15:02:51 INFO  Cache created: 'service[viewstate]' (max size: 5MB, running total: 244MB)
7960 15:02:51 INFO  Cache created: 'service[xsl]' (max size: 10MB, running total: 254MB)
7960 15:02:51 INFO  Cache created: 'service[filtered items]' (max size: 2MB, running total: 256MB)
7960 15:02:51 INFO  Cache created: 'modules_shell[html]' (max size: 0 bytes, running total: 256MB)
7960 15:02:51 INFO  Cache created: 'modules_shell[registry]' (max size: 5MB, running total: 261MB)
7960 15:02:51 INFO  Cache created: 'modules_shell[viewstate]' (max size: 5MB, running total: 266MB)
7960 15:02:51 INFO  Cache created: 'modules_shell[xsl]' (max size: 10MB, running total: 276MB)
7960 15:02:51 INFO  Cache created: 'modules_shell[filtered items]' (max size: 2MB, running total: 278MB)
7960 15:02:51 INFO  Cache created: 'modules_website[html]' (max size: 5MB, running total: 283MB)
7960 15:02:51 INFO  Cache created: 'modules_website[registry]' (max size: 5MB, running total: 288MB)
7960 15:02:51 INFO  Cache created: 'modules_website[viewstate]' (max size: 5MB, running total: 293MB)
7960 15:02:51 INFO  Cache created: 'modules_website[xsl]' (max size: 10MB, running total: 303MB)
7960 15:02:51 INFO  Cache created: 'modules_website[filtered items]' (max size: 2MB, running total: 305MB)
7960 15:02:51 INFO  Cache created: 'website[html]' (max size: 10MB, running total: 315MB)
7960 15:02:51 INFO  Cache created: 'website[registry]' (max size: 0 bytes, running total: 315MB)
7960 15:02:51 INFO  Cache created: 'website[viewstate]' (max size: 0 bytes, running total: 315MB)
7960 15:02:51 INFO  Cache created: 'website[xsl]' (max size: 5MB, running total: 320MB)
7960 15:02:51 INFO  Cache created: 'website[filtered items]' (max size: 2MB, running total: 322MB)
7960 15:02:51 INFO  Cache created: 'scheduler[html]' (max size: 0 bytes, running total: 322MB)
7960 15:02:51 INFO  Cache created: 'scheduler[registry]' (max size: 5MB, running total: 327MB)
7960 15:02:51 INFO  Cache created: 'scheduler[viewstate]' (max size: 5MB, running total: 332MB)
7960 15:02:51 INFO  Cache created: 'scheduler[xsl]' (max size: 10MB, running total: 342MB)
7960 15:02:51 INFO  Cache created: 'scheduler[filtered items]' (max size: 2MB, running total: 344MB)
7960 15:02:51 INFO  Cache created: 'system[html]' (max size: 0 bytes, running total: 344MB)
7960 15:02:51 INFO  Cache created: 'system[registry]' (max size: 5MB, running total: 349MB)
7960 15:02:51 INFO  Cache created: 'system[viewstate]' (max size: 5MB, running total: 354MB)
7960 15:02:51 INFO  Cache created: 'system[xsl]' (max size: 10MB, running total: 364MB)
7960 15:02:51 INFO  Cache created: 'system[filtered items]' (max size: 2MB, running total: 366MB)
7960 15:02:51 INFO  Cache created: 'publisher[html]' (max size: 0 bytes, running total: 366MB)
7960 15:02:51 INFO  Cache created: 'publisher[registry]' (max size: 5MB, running total: 371MB)
7960 15:02:51 INFO  Cache created: 'publisher[viewstate]' (max size: 5MB, running total: 376MB)
7960 15:02:51 INFO  Cache created: 'publisher[xsl]' (max size: 10MB, running total: 386MB)
7960 15:02:51 INFO  Cache created: 'publisher[filtered items]' (max size: 2MB, running total: 388MB)
7960 15:02:51 INFO  Cache created: 'IsUserInRoleCache' (max size: 1MB, running total: 389MB)
7960 15:02:51 INFO  Trying to load XML configuration /App_Config/Security/GlobalRoles.config
7968 15:02:51 INFO  Layout file modified: D:\Movie Tickets\Movie Tickets\Website\layouts\MovieBasket.ascx
ManagedPoolThread #7 15:02:52 INFO  Trying to load XML configuration /App_Config/Security/Domains.config
7960 15:02:52 WARN  Counter category 'Sitecore.Presentation' does not exist on this server.
7960 15:02:52 WARN  Counter category 'Sitecore.Presentation' does not exist on this server.
7960 15:02:52 WARN  Counter category 'Sitecore.Presentation' does not exist on this server.
7960 15:02:52 WARN  Counter category 'Sitecore.Presentation' does not exist on this server.
7960 15:02:52 WARN  Counter category 'Sitecore.Presentation' does not exist on this server.
7960 15:02:52 WARN  Counter category 'Sitecore.Presentation' does not exist on this server.
7960 15:02:52 WARN  Counter category 'Sitecore.Presentation' does not exist on this server.
7960 15:02:52 WARN  Counter category 'Sitecore.Presentation' does not exist on this server.
ManagedPoolThread #10 15:02:54 INFO  Trying to load XML configuration /App_Config/Security/GlobalRoles.config
7968 15:02:55 INFO  Layout file modified: D:\Movie Tickets\Movie Tickets\Website\layouts\MovieBasket.ascx
8176 15:02:56 INFO  Scheduler - Adding agents
8176 15:02:56 INFO  Scheduler - Adding agent: Sitecore.Tasks.DatabaseAgent (interval: 00:10:00)
8176 15:02:56 INFO  Scheduler - Adding agent: Sitecore.Tasks.DatabaseAgent (interval: 00:10:00)
8176 15:02:56 INFO  Scheduler - Adding agent: Sitecore.Tasks.UrlAgent (interval: 00:15:00)
8176 15:02:56 INFO  Scheduler - Adding agent: Sitecore.Tasks.TaskDatabaseAgent (interval: 00:10:00)
8176 15:02:56 INFO  Scheduler - Adding agent: Sitecore.Tasks.CompactClientDataAgent (interval: 04:00:00)
8176 15:02:56 INFO  Scheduler - Adding agent: Sitecore.Tasks.CleanupHistory (interval: 04:00:00)
8176 15:02:56 INFO  Scheduler - Adding agent: Sitecore.Tasks.CleanupPublishQueue (interval: 04:00:00)
8176 15:02:56 INFO  Scheduler - Adding agent: Sitecore.Tasks.CleanupEventQueue (interval: 04:00:00)
8176 15:02:56 INFO  Scheduler - Skipping inactive agent: Sitecore.Tasks.HtmlCacheClearAgent
8176 15:02:56 INFO  Scheduler - Skipping inactive agent: Sitecore.Tasks.PublishAgent
8176 15:02:56 INFO  Scheduler - Adding agent: Sitecore.Tasks.CleanupAgent (interval: 06:00:00)
8176 15:02:56 INFO  Scheduler - Adding agent: Sitecore.Tasks.CounterDumpAgent (interval: 01:00:00)
8176 15:02:56 INFO  Scheduler - Adding agent: Sitecore.Tasks.CloneNotificationsCleanupAgent (interval: 1.00:00:00)
8176 15:02:56 INFO  Scheduler - Adding agent: Sitecore.ContentSearch.Tasks.Optimize (interval: 01:00:00)
8176 15:02:56 INFO  Scheduler - Adding agent: Sitecore.Tasks.CleanupFDAObsoleteMediaData (interval: 1.00:00:00)
8176 15:02:56 INFO  Scheduler - Adding agent: Sitecore.Tasks.WebDAVOptionsCleanupAgent (interval: 1.00:00:00)
8176 15:02:56 INFO  Scheduler - Agents added
7968 15:02:59 INFO  Layout file modified: D:\Movie Tickets\Movie Tickets\Website\layouts\MovieBasket.ascx
7968 15:03:19 INFO  Layout file modified: D:\Movie Tickets\Movie Tickets\Website\layouts\MovieBasket.ascx
7968 15:03:19 INFO  Layout file modified: D:\Movie Tickets\Movie Tickets\Website\layouts\MovieBasket.ascx.designer.cs
7968 15:03:27 INFO  Layout file modified: D:\Movie Tickets\Movie Tickets\Website\layouts\MovieBasket.ascx.cs
7968 15:03:30 INFO  Layout file modified: D:\Movie Tickets\Movie Tickets\Website\layouts\MovieBasket.ascx.cs
7968 15:03:40 INFO  Layout file modified: D:\Movie Tickets\Movie Tickets\Website\layouts\MovieBasket.ascx.cs
7968 15:03:46 INFO  Layout file modified: D:\Movie Tickets\Movie Tickets\Website\layouts\MovieBasket.ascx.cs
7968 15:03:47 INFO  Layout file modified: D:\Movie Tickets\Movie Tickets\Website\layouts\MovieBasket.ascx.cs
7968 15:03:53 INFO  Layout file modified: D:\Movie Tickets\Movie Tickets\Website\layouts\MovieBasket.ascx.cs
Heartbeat 15:03:56 WARN  Memory usage exceeded the MemoryMonitor threshold.
Heartbeat 15:03:56 WARN  Memory usage: 853,573,632
Heartbeat 15:03:56 WARN  Number of suppressed logs due to the minimum time between log entries: 10
7968 15:03:58 INFO  Layout file modified: D:\Movie Tickets\Movie Tickets\Website\layouts\MovieBasket.ascx.cs
7968 15:04:17 INFO  Layout file modified: D:\Movie Tickets\Movie Tickets\Website\layouts\MovieBasket.ascx.cs
7968 15:04:34 INFO  Layout file modified: D:\Movie Tickets\Movie Tickets\Website\layouts\MovieBasket.ascx.cs
7968 15:04:45 INFO  Layout file modified: D:\Movie Tickets\Movie Tickets\Website\layouts\MovieBasket.ascx.cs
7968 15:04:49 INFO  Layout file modified: D:\Movie Tickets\Movie Tickets\Website\layouts\MovieBasket.ascx.cs
Heartbeat 15:04:56 WARN  Memory usage exceeded the MemoryMonitor threshold.
Heartbeat 15:04:56 WARN  Memory usage: 851,808,256
Heartbeat 15:04:56 WARN  Number of suppressed logs due to the minimum time between log entries: 9
7968 15:04:59 INFO  Layout file modified: D:\Movie Tickets\Movie Tickets\Website\layouts\MovieBasket.ascx
7968 15:05:02 INFO  Layout file modified: D:\Movie Tickets\Movie Tickets\Website\layouts\MovieBasket.ascx
2512 15:05:06 INFO  Cache created: 'SqlDataProvider - Prefetch data(master)' (max size: 20MB, running total: 409MB)
2512 15:05:07 INFO  Cache created: 'rules' (max size: 800KB, running total: 409MB)
2512 15:05:07 INFO  Cache created: 'WebUtil.QueryStringCache' (max size: 19KB, running total: 409MB)
2512 15:05:07 WARN  Counter category 'Sitecore.Data' does not exist on this server.
2512 15:05:07 WARN  Counter category 'Sitecore.Data' does not exist on this server.
2512 15:05:07 WARN  Counter category 'Sitecore.Data' does not exist on this server.
6572 15:05:16 INFO  HttpModule is being initialized
2512 15:05:16 INFO  HttpModule is being initialized
6348 15:05:16 INFO  HttpModule is being initialized
3380 15:05:20 ERROR Application error.
Exception: System.Web.HttpUnhandledException
Message: Exception of type 'System.Web.HttpUnhandledException' was thrown.
Source: System.Web
   at System.Web.UI.Page.HandleError(Exception e)
   at System.Web.UI.Page.ProcessRequestMain(Boolean includeStagesBeforeAsyncPoint, Boolean includeStagesAfterAsyncPoint)
   at System.Web.UI.Page.ProcessRequest(Boolean includeStagesBeforeAsyncPoint, Boolean includeStagesAfterAsyncPoint)
   at System.Web.UI.Page.ProcessRequest()
   at System.Web.UI.Page.ProcessRequest(HttpContext context)
   at ASP.layouts_sample_layout_aspx.ProcessRequest(HttpContext context) in c:\Windows\Microsoft.NET\Framework64\v4.0.30319\Temporary ASP.NET Files\root\da815880\f60e6fe0\App_Web_p1r10zwj.5.cs:line 0
   at System.Web.HttpApplication.CallHandlerExecutionStep.System.Web.HttpApplication.IExecutionStep.Execute()
   at System.Web.HttpApplication.ExecuteStep(IExecutionStep step, Boolean& completedSynchronously)

Nested Exception

Exception: System.NullReferenceException
Message: Object reference not set to an instance of an object.
Source: TrueClarity.MovieTickets.Website
   at TrueClarity.MovieTickets.Website.Layouts.MovieBasket.OnInit(EventArgs e) in d:\Movie Tickets\Movie Tickets\Website\Layouts\MovieBasket.ascx.cs:line 26
   at System.Web.UI.Control.InitRecursive(Control namingContainer)
   at System.Web.UI.Control.InitRecursive(Control namingContainer)
   at System.Web.UI.Control.InitRecursive(Control namingContainer)
   at System.Web.UI.Control.InitRecursive(Control namingContainer)
   at System.Web.UI.Control.InitRecursive(Control namingContainer)
   at System.Web.UI.Page.ProcessRequestMain(Boolean includeStagesBeforeAsyncPoint, Boolean includeStagesAfterAsyncPoint)


7968 15:05:55 INFO  Layout file modified: D:\Movie Tickets\Movie Tickets\Website\layouts\MovieBasket.ascx.cs
7968 15:05:58 INFO  Layout file modified: D:\Movie Tickets\Movie Tickets\Website\layouts\MovieBasket.ascx.cs
2512 15:05:59 INFO  **************************************************
2512 15:05:59 WARN  Sitecore shutting down
2512 15:05:59 WARN  Shutdown message: Change Notification for critical directories.
bin dir change or directory rename
HostingEnvironment initiated shutdown
Change Notification for critical directories.
bin dir change or directory rename
Change Notification for critical directories.
bin dir change or directory rename
Change Notification for critical directories.
bin dir change or directory rename
Change Notification for critical directories.
bin dir change or directory rename
Change Notification for critical directories.
bin dir change or directory rename
Heartbeat 15:06:02 WARN  Memory usage exceeded the MemoryMonitor threshold.
Heartbeat 15:06:02 WARN  Memory usage: 862,191,616
Heartbeat 15:06:02 WARN  Number of suppressed logs due to the minimum time between log entries: 10
