﻿6240 14:18:03 WARN  Counter category 'Sitecore.System' does not exist on this server.
6240 14:18:03 WARN  Counter category 'Sitecore.System' does not exist on this server.
6240 14:18:03 WARN  Counter category 'Sitecore.System' does not exist on this server.
6240 14:18:03 INFO  HttpModule is being initialized
6240 14:18:03 WARN  Counter category 'Sitecore.System' does not exist on this server.
6240 14:18:03 WARN  Counter category 'Sitecore.System' does not exist on this server.
6240 14:18:03 WARN  Counter category 'Sitecore.System' does not exist on this server.
6240 14:18:03 WARN  Counter category 'Sitecore.System' does not exist on this server.
6240 14:18:03 WARN  Counter category 'Sitecore.System' does not exist on this server.
6240 14:18:03 WARN  Counter category 'Sitecore.System' does not exist on this server.
6240 14:18:03 WARN  Counter category 'Sitecore.System' does not exist on this server.
6240 14:18:03 WARN  Counter category 'Sitecore.System' does not exist on this server.
6240 14:18:03 WARN  Counter category 'Sitecore.System' does not exist on this server.
6240 14:18:03 WARN  Counter category 'Sitecore.System' does not exist on this server.
6240 14:18:03 INFO  
6240 14:18:03 INFO  **********************************************************************
6240 14:18:03 INFO  **********************************************************************
6240 14:18:03 INFO  Sitecore started
6240 14:18:03 INFO  Sitecore.NET 7.2 (rev. 140526)
6240 14:18:03 INFO  
6240 14:18:03 INFO  d:\movie tickets\movie tickets\website\bin\componentart.web.ui.dll ()
6240 14:18:03 INFO  d:\movie tickets\movie tickets\website\bin\ecmascript.net.modified.dll (Modified version of the EcmaScript.NET assembly)
6240 14:18:03 INFO  d:\movie tickets\movie tickets\website\bin\htmlagilitypack.dll (Html Agility Pack, 1.4.6.0)
6240 14:18:03 INFO  d:\movie tickets\movie tickets\website\bin\ithit.webdav.server.dll (WebDav Server .Net v2, IT Hit WebDAV Server .Net v2)
6240 14:18:03 INFO  d:\movie tickets\movie tickets\website\bin\lucene.net.contrib.analyzers.dll (Lucene.Net.Contrib.Analyzers)
6240 14:18:03 INFO  d:\movie tickets\movie tickets\website\bin\lucene.net.contrib.core.dll (Lucene.Net.Contrib.Core, Contributions to the Lucene.Net core library)
6240 14:18:03 INFO  d:\movie tickets\movie tickets\website\bin\lucene.net.contrib.fastvectorhighlighter.dll (Lucene.Net.Contrib.FastVectorHighlighter, FastVectorHighlighter for Lucene.Net)
6240 14:18:03 INFO  d:\movie tickets\movie tickets\website\bin\lucene.net.contrib.highlighter.dll (Lucene.Net.Contrib.Highlighter, The Apache Software Foundation Lucene.Net a full-text search engine library, 2.3.2)
6240 14:18:03 INFO  d:\movie tickets\movie tickets\website\bin\lucene.net.contrib.memory.dll (Contrib.Memory)
6240 14:18:03 INFO  d:\movie tickets\movie tickets\website\bin\lucene.net.contrib.queries.dll (Lucene.Net.Contrib.Queries)
6240 14:18:03 INFO  d:\movie tickets\movie tickets\website\bin\lucene.net.contrib.regex.dll (Lucene.Net.Contrib.Regex)
6240 14:18:03 INFO  d:\movie tickets\movie tickets\website\bin\lucene.net.contrib.simplefacetedsearch.dll (Lucene.Net.SimpleFacetedSearch, SimpleFacetedSearch for Lucene.Net)
6240 14:18:03 INFO  d:\movie tickets\movie tickets\website\bin\lucene.net.contrib.snowball.dll (Lucene.Net.Contrib.Snowball, The Apache Software Foundation Lucene.Net a full-text search engine library, 2.0)
6240 14:18:03 INFO  d:\movie tickets\movie tickets\website\bin\lucene.net.contrib.spellchecker.dll (SpellChecker.Net, The Apache Software Foundation Lucene.Net a full-text search engine library, 3.0.3)
6240 14:18:03 INFO  d:\movie tickets\movie tickets\website\bin\lucene.net.dll (Lucene.Net, The Apache Software Foundation Lucene.Net a full-text search engine library, 3.0.3)
6240 14:18:03 INFO  d:\movie tickets\movie tickets\website\bin\microsoft.web.infrastructure.dll (Microsoft ASP.Net WebPages)
6240 14:18:03 INFO  d:\movie tickets\movie tickets\website\bin\mvp.xml.dll (MVP XML Library)
6240 14:18:03 INFO  d:\movie tickets\movie tickets\website\bin\newtonsoft.json.dll (Json.NET, Json.NET is a popular high-performance JSON framework for .NET)
6240 14:18:03 INFO  d:\movie tickets\movie tickets\website\bin\radeditor.net2.dll (RadEditor, Telerik RadEditor)
6240 14:18:03 INFO  d:\movie tickets\movie tickets\website\bin\sitecore.analytics.dll (Sitecore DMS, Sitecore Digital Marketing System, 7.2 rev. 140526)
6240 14:18:03 INFO  d:\movie tickets\movie tickets\website\bin\sitecore.analytics.robotdetection.dll (Sitecore Robot Detection, 1.0.0 rev. 140507)
6240 14:18:03 INFO  d:\movie tickets\movie tickets\website\bin\sitecore.apps.loader.dll (Sitecore.Apps.Loader, 1.0.0 rev. 130822)
6240 14:18:03 INFO  d:\movie tickets\movie tickets\website\bin\sitecore.automation.marketingautomation.dll (Sitecore EAS, Sitecore Engagement Automation Suite, 7.2 rev. 140526)
6240 14:18:03 INFO  d:\movie tickets\movie tickets\website\bin\sitecore.buckets.client.dll (Sitecore Buckets, The assembly can be used to have Sitecore queries driven via a query, 1.0.0 rev. 140526)
6240 14:18:03 INFO  d:\movie tickets\movie tickets\website\bin\sitecore.buckets.dll (Sitecore Buckets, The assembly can be used to have Sitecore queries driven via search providers, 1.0.0 rev. 140526)
6240 14:18:03 INFO  d:\movie tickets\movie tickets\website\bin\sitecore.client.dll (Sitecore CMS, Sitecore Client Application, 7.2 rev. 140526)
6240 14:18:03 INFO  d:\movie tickets\movie tickets\website\bin\sitecore.contentsearch.client.dll (Sitecore Buckets, 1.0.0 rev. 140526)
6240 14:18:03 INFO  d:\movie tickets\movie tickets\website\bin\sitecore.contentsearch.dll (Sitecore Buckets, Sitecore CMS Search, 1.0.0 rev. 140526)
6240 14:18:03 INFO  d:\movie tickets\movie tickets\website\bin\sitecore.contentsearch.linq.dll (Sitecore Buckets, 1.0.0 rev. 140526)
6240 14:18:03 INFO  d:\movie tickets\movie tickets\website\bin\sitecore.contentsearch.linq.lucene.dll (Sitecore Buckets, 1.0.0 rev. 140526)
6240 14:18:03 INFO  d:\movie tickets\movie tickets\website\bin\sitecore.contentsearch.luceneprovider.dll (Sitecore Buckets, Sitecore CMS Search, 1.0.0 rev. 140526)
6240 14:18:03 INFO  d:\movie tickets\movie tickets\website\bin\sitecore.itemwebapi.dll (Sitecore Item Web API, 1.2.0 rev. 140508)
6240 14:18:03 INFO  d:\movie tickets\movie tickets\website\bin\sitecore.kernel.dll (Sitecore CMS, Sitecore CMS Kernel Library, 7.2 rev. 140526)
6240 14:18:03 INFO  d:\movie tickets\movie tickets\website\bin\sitecore.logging.dll (Sitecore CMS, Sitecore Logging Framework, 6.6.0 rev. 120918)
6240 14:18:03 INFO  d:\movie tickets\movie tickets\website\bin\sitecore.mvc.analytics.dll (Sitecore Mvc Analytics 1.0.0, 1.0.0 rev. 140224)
6240 14:18:03 INFO  d:\movie tickets\movie tickets\website\bin\sitecore.mvc.devicesimulator.dll (Sitecore Mvc Device Simulators 1.0.0, 1.0.0 rev. 140225)
6240 14:18:03 INFO  d:\movie tickets\movie tickets\website\bin\sitecore.mvc.dll (Sitecore Mvc 1.0.0, 1.0.0 rev. 140411)
6240 14:18:03 INFO  d:\movie tickets\movie tickets\website\bin\sitecore.mvc.experienceeditor.dll (Sitecore Mvc Experience Editor 1.0.0, 1.0.0 rev. 140225)
6240 14:18:03 INFO  d:\movie tickets\movie tickets\website\bin\sitecore.nexus.dll (Sitecore.Nexus)
6240 14:18:03 INFO  d:\movie tickets\movie tickets\website\bin\sitecore.nvelocity.dll (Sitecore CMS, Sitecore Macro Expansion Library, 6.6.0 rev. 120918)
6240 14:18:03 INFO  d:\movie tickets\movie tickets\website\bin\sitecore.oracle.dll (Sitecore CMS, Oracle Data Provider for Sitecore, 7.2 rev. 140526)
6240 14:18:03 INFO  d:\movie tickets\movie tickets\website\bin\sitecore.publishing.webdeploy.dll (Sitecore CMS, Sitecore publishing infrastructure based on Web Deployment Tool, 1.0.0 rev. 090323)
6240 14:18:03 INFO  d:\movie tickets\movie tickets\website\bin\sitecore.rocks.server.core.dll (Sitecore.Rocks.Server.Core)
6240 14:18:03 INFO  d:\movie tickets\movie tickets\website\bin\sitecore.rocks.server.dll (Sitecore.Rocks, Sitecore Rocks makes Sitecore developers happy. Directly integrated into Microsoft Visual Studio 2010/2012/2013, Sitecore Rocks provides a fast and streamlined development experience with tools that developers are used to)
6240 14:18:03 INFO  d:\movie tickets\movie tickets\website\bin\sitecore.rocks.server.lucene.2313.dll (Sitecore.Rocks.Server.Lucene.2313)
6240 14:18:03 INFO  d:\movie tickets\movie tickets\website\bin\sitecore.rocks.server.lucene.2941.dll (Sitecore.Rocks.Server.Lucene.2914)
6240 14:18:03 INFO  d:\movie tickets\movie tickets\website\bin\sitecore.rocks.server.lucene.3030.dll (Sitecore.Rocks.Server.Lucene.3030)
6240 14:18:03 INFO  d:\movie tickets\movie tickets\website\bin\sitecore.rocks.server.speak.dll (Sitecore.Rocks.Server.Speak)
6240 14:18:03 INFO  d:\movie tickets\movie tickets\website\bin\sitecore.rocks.server.validation.dll (Sitecore.Rocks.Server.Validation)
6240 14:18:03 INFO  d:\movie tickets\movie tickets\website\bin\sitecore.security.anticsrf.dll (Sitecore AntiCSRF Module 1.0.0, 1.0.0 rev. 140205)
6240 14:18:03 INFO  d:\movie tickets\movie tickets\website\bin\sitecore.segmentbuilder.dll (Sitecore Segment Builder 1.0.0, 1.0.0 rev. 140312)
6240 14:18:03 INFO  d:\movie tickets\movie tickets\website\bin\sitecore.shell.marketingautomation.dll (Sitecore Engagement Automation Suite 1.0.0, 1.0.0 rev. 140307)
6240 14:18:03 INFO  d:\movie tickets\movie tickets\website\bin\sitecore.speak.charting.dll (Sitecore Speak Charting, 1.0.0 rev. 140305)
6240 14:18:03 INFO  d:\movie tickets\movie tickets\website\bin\sitecore.speak.client.dll (Sitecore Speak.Dev, 1.1.2 rev. 140521)
6240 14:18:03 INFO  d:\movie tickets\movie tickets\website\bin\sitecore.speak.dialogs.dll (Sitecore Speak.Dev, 1.1.2 rev. 140521)
6240 14:18:03 INFO  d:\movie tickets\movie tickets\website\bin\sitecore.speak.itemwebapi.dll (Sitecore Speak.Dev, 1.1.2 rev. 140521)
6240 14:18:03 INFO  d:\movie tickets\movie tickets\website\bin\sitecore.speak.mvc.dll (Sitecore Speak.Dev, 1.1.2 rev. 140521)
6240 14:18:03 INFO  d:\movie tickets\movie tickets\website\bin\sitecore.speak.web.dll (Sitecore Speak.Dev, 1.1.2 rev. 140521)
6240 14:18:03 INFO  d:\movie tickets\movie tickets\website\bin\sitecore.update.dll (Sitecore Update Installation Wizard, 1.0.0 rev. 140225)
6240 14:18:03 INFO  d:\movie tickets\movie tickets\website\bin\sitecore.zip.dll (Sitecore CMS, ZIP support for Sitecore, 7.0.0)
6240 14:18:03 INFO  d:\movie tickets\movie tickets\website\bin\stimulsoft.base.dll (Stimulsoft Reports, Stimulsoft Base)
6240 14:18:03 INFO  d:\movie tickets\movie tickets\website\bin\stimulsoft.database.dll (Stimulsoft Reports, Stimulsoft Reports Database Helper)
6240 14:18:03 INFO  d:\movie tickets\movie tickets\website\bin\stimulsoft.report.dll (Stimulsoft Reports, Stimulsoft Reports Engine)
6240 14:18:03 INFO  d:\movie tickets\movie tickets\website\bin\stimulsoft.report.web.dll (Stimulsoft Reports.Web, Stimulsoft Reports.Web Viewer)
6240 14:18:03 INFO  d:\movie tickets\movie tickets\website\bin\stimulsoft.report.webdesign.dll (Stimulsoft Reports Designer.Web, Stimulsoft Reports Designer.Web)
6240 14:18:03 INFO  d:\movie tickets\movie tickets\website\bin\system.web.helpers.dll (Microsoft ASP.NET Web Pages, 3.0.0-20110)
6240 14:18:03 INFO  d:\movie tickets\movie tickets\website\bin\system.web.mvc.dll (Microsoft ASP.NET MVC, System.Web.Mvc.dll, 5.1.0-20110)
6240 14:18:03 INFO  d:\movie tickets\movie tickets\website\bin\system.web.razor.dll (Microsoft ASP.NET Web Pages, 3.0.0-20110)
6240 14:18:03 INFO  d:\movie tickets\movie tickets\website\bin\system.web.webpages.deployment.dll (Microsoft ASP.NET Web Pages, 3.0.0-20110)
6240 14:18:03 INFO  d:\movie tickets\movie tickets\website\bin\system.web.webpages.dll (Microsoft ASP.NET Web Pages, 3.0.0-20110)
6240 14:18:03 INFO  d:\movie tickets\movie tickets\website\bin\system.web.webpages.razor.dll (Microsoft ASP.NET Web Pages, 3.0.0-20110)
6240 14:18:03 INFO  d:\movie tickets\movie tickets\website\bin\telerik.web.ui.dll (Telerik.Web.UI, Telerik RadControls for ASP.NET Ajax)
6240 14:18:03 INFO  d:\movie tickets\movie tickets\website\bin\telerik.web.ui.skins.dll (Telerik RadControls for ASP.NET Ajax Skins)
6240 14:18:03 INFO  d:\movie tickets\movie tickets\website\bin\trueclarity.movietickets.website.dll (website)
6240 14:18:03 INFO  d:\movie tickets\movie tickets\website\bin\yahoo.yui.compressor.dll (YUI Compressor, A .NET port of the Yahoo! YUI Compressor project)
6240 14:18:03 INFO  
6240 14:18:03 INFO  Operating system Microsoft Windows NT 6.3.9600.0
6240 14:18:03 INFO  
6240 14:18:03 INFO  Microsoft.NET version 4.0.30319.34014
6240 14:18:03 INFO  
6240 14:18:03 INFO  UTC offset: 01:00:00
6240 14:18:03 INFO  Machine name: rtappenden
6240 14:18:03 INFO  App pool ID: Movie Tickets.AppPool
6240 14:18:03 INFO  
6240 14:18:03 INFO  Process ID: 6556
6240 14:18:03 INFO  Windows identity used by the process: NT AUTHORITY\NETWORK SERVICE. Impersonation: False
6240 14:18:03 INFO  Managed pipeline mode: Integrated
6240 14:18:03 INFO  
6240 14:18:03 INFO  EventQueues enabled: True
6240 14:18:03 INFO  Instance Name:RTAPPENDEN-Movie Tickets
6240 14:18:03 INFO  
6240 14:18:03 INFO  Threshold settings
6240 14:18:03 INFO    Show threshold warnings: False
6240 14:18:03 INFO  
6240 14:18:03 INFO  Databases
6240 14:18:03 INFO    core
6240 14:18:03 INFO    master
6240 14:18:03 INFO    web
6240 14:18:03 INFO    filesystem
6240 14:18:03 INFO  
6240 14:18:03 INFO  Domains
6240 14:18:03 INFO  Heartbeat - Initializing
6240 14:18:03 INFO  Heartbeat - Interval set to: 00:00:02
6240 14:18:03 INFO  Heartbeat - Worker thread started
6240 14:18:03 INFO  Trying to load XML configuration /App_Config/Security/Domains.config
6240 14:18:03 INFO    sitecore
6240 14:18:03 INFO    extranet
6240 14:18:03 INFO    default
6240 14:18:03 INFO  
6240 14:18:03 WARN  Note that asp.net debugging is enabled. This can decrease performance considerably.
6240 14:18:03 INFO  
6240 14:18:03 INFO  **********************************************************************
6240 14:18:03 INFO  **********************************************************************
6240 14:18:03 WARN  Counter category 'Sitecore.Jobs' does not exist on this server.
6240 14:18:03 WARN  Counter category 'Sitecore.Jobs' does not exist on this server.
6240 14:18:03 WARN  Counter category 'Sitecore.Jobs' does not exist on this server.
6240 14:18:03 INFO  Attempting to get ASP.NET process history
6240 14:18:03 WARN  No process history available
6240 14:18:03 INFO  Cache created: 'LanguageProvider - Languages' (max size: 100KB, running total: 100KB)
6240 14:18:03 INFO  Cache created: 'DeviceItemsCache' (max size: 10MB, running total: 10MB)
6240 14:18:03 INFO  Cache created: 'core[data]' (max size: 20MB, running total: 30MB)
6240 14:18:03 INFO  Cache created: 'core[items]' (max size: 10MB, running total: 40MB)
6240 14:18:03 INFO  Cache created: 'core[paths]' (max size: 500KB, running total: 40MB)
6240 14:18:03 INFO  Cache created: 'core[standardValues]' (max size: 500KB, running total: 41MB)
6240 14:18:03 INFO  Cache created: 'core[itempaths]' (max size: 10MB, running total: 51MB)
6240 14:18:03 INFO  Cache created: 'core[blobIDs]' (max size: 500KB, running total: 51MB)
6240 14:18:04 WARN  Counter category 'Sitecore.System' does not exist on this server.
6240 14:18:04 INFO  Cache created: 'master[data]' (max size: 20MB, running total: 71MB)
6240 14:18:04 INFO  Cache created: 'master[items]' (max size: 10MB, running total: 81MB)
6240 14:18:04 INFO  Cache created: 'master[paths]' (max size: 500KB, running total: 82MB)
6240 14:18:04 INFO  Cache created: 'master[standardValues]' (max size: 500KB, running total: 82MB)
6240 14:18:04 INFO  Cache created: 'master[itempaths]' (max size: 10MB, running total: 92MB)
6240 14:18:04 INFO  Cache created: 'master[blobIDs]' (max size: 500KB, running total: 93MB)
6240 14:18:04 INFO  Cache created: 'web[data]' (max size: 20MB, running total: 113MB)
6240 14:18:04 INFO  Cache created: 'web[items]' (max size: 10MB, running total: 123MB)
6240 14:18:04 INFO  Cache created: 'web[paths]' (max size: 500KB, running total: 123MB)
6240 14:18:04 INFO  Cache created: 'web[standardValues]' (max size: 500KB, running total: 124MB)
6240 14:18:04 INFO  Cache created: 'web[itempaths]' (max size: 10MB, running total: 134MB)
6240 14:18:04 INFO  Cache created: 'web[blobIDs]' (max size: 500KB, running total: 134MB)
6240 14:18:04 INFO  Cache created: 'filesystem[data]' (max size: 0 bytes, running total: 134MB)
6240 14:18:04 INFO  Cache created: 'filesystem[items]' (max size: 0 bytes, running total: 134MB)
6240 14:18:04 INFO  Cache created: 'filesystem[paths]' (max size: 0 bytes, running total: 134MB)
6240 14:18:04 INFO  Cache created: 'filesystem[standardValues]' (max size: 0 bytes, running total: 134MB)
6240 14:18:04 INFO  Cache created: 'filesystem[itempaths]' (max size: 10MB, running total: 144MB)
6240 14:18:04 INFO  Cache created: 'filesystem[blobIDs]' (max size: 500KB, running total: 144MB)
6240 14:18:04 WARN  Counter category 'Sitecore.System' does not exist on this server.
6240 14:18:04 WARN  Counter category 'Sitecore.System' does not exist on this server.
6240 14:18:04 WARN  Counter category 'Sitecore.Caching' does not exist on this server.
6240 14:18:04 WARN  Counter category 'Sitecore.Caching' does not exist on this server.
6240 14:18:04 WARN  Counter category 'Sitecore.Caching' does not exist on this server.
6240 14:18:04 WARN  Counter category 'Sitecore.Caching' does not exist on this server.
6240 14:18:04 WARN  Counter category 'Sitecore.Caching' does not exist on this server.
6240 14:18:04 WARN  Counter category 'Sitecore.Caching' does not exist on this server.
6240 14:18:04 WARN  Counter category 'Sitecore.Caching' does not exist on this server.
6240 14:18:04 WARN  Counter category 'Sitecore.Caching' does not exist on this server.
6240 14:18:04 WARN  Counter category 'Sitecore.Caching' does not exist on this server.
6240 14:18:04 WARN  Counter category 'Sitecore.Caching' does not exist on this server.
6240 14:18:04 WARN  Counter category 'Sitecore.Caching' does not exist on this server.
6240 14:18:04 WARN  Counter category 'Sitecore.Caching' does not exist on this server.
6240 14:18:04 WARN  Counter category 'Sitecore.Caching' does not exist on this server.
6240 14:18:04 WARN  Counter category 'Sitecore.Caching' does not exist on this server.
6240 14:18:04 WARN  Counter category 'Sitecore.Caching' does not exist on this server.
6240 14:18:04 WARN  Counter category 'Sitecore.Caching' does not exist on this server.
6240 14:18:04 WARN  Counter category 'Sitecore.Caching' does not exist on this server.
6240 14:18:04 WARN  Counter category 'Sitecore.Caching' does not exist on this server.
6240 14:18:04 WARN  Counter category 'Sitecore.Caching' does not exist on this server.
6240 14:18:04 WARN  Counter category 'Sitecore.Caching' does not exist on this server.
6240 14:18:04 WARN  Counter category 'Sitecore.Caching' does not exist on this server.
6240 14:18:04 WARN  Counter category 'Sitecore.Data' does not exist on this server.
6240 14:18:04 WARN  Counter category 'Sitecore.Data' does not exist on this server.
6240 14:18:04 WARN  Counter category 'Sitecore.Data' does not exist on this server.
6240 14:18:04 WARN  Counter category 'Sitecore.Data' does not exist on this server.
6240 14:18:04 WARN  Counter category 'Sitecore.Data' does not exist on this server.
6240 14:18:04 INFO  Cache created: 'SqlDataProvider - Prefetch data(core)' (max size: 10MB, running total: 154MB)
6240 14:18:04 INFO  Cache created: 'ItemCloningRelations' (max size: 10MB, running total: 164MB)
6240 14:18:04 INFO  Cache created: 'AccessResultCache' (max size: 2MB, running total: 166MB)
6240 14:18:04 WARN  Counter category 'Sitecore.Security' does not exist on this server.
6240 14:18:04 WARN  Counter category 'Sitecore.Security' does not exist on this server.
6240 14:18:04 WARN  Counter category 'Sitecore.Security' does not exist on this server.
6240 14:18:04 WARN  Counter category 'Sitecore.Security' does not exist on this server.
6240 14:18:04 WARN  Counter category 'Sitecore.Security' does not exist on this server.
6240 14:18:04 WARN  Counter category 'Sitecore.Security' does not exist on this server.
6240 14:18:04 WARN  Counter category 'Sitecore.Security' does not exist on this server.
6240 14:18:04 WARN  Counter category 'Sitecore.Security' does not exist on this server.
6240 14:18:04 WARN  Counter category 'Sitecore.Security' does not exist on this server.
6240 14:18:04 WARN  Counter category 'Sitecore.Security' does not exist on this server.
6240 14:18:04 WARN  Counter category 'Sitecore.Security' does not exist on this server.
6240 14:18:04 INFO  Cache created: 'ProxyProvider' (max size: 500KB, running total: 167MB)
6240 14:18:04 INFO  Loading Dictionary from cache
6240 14:18:04 WARN  Counter category 'Sitecore.Data' does not exist on this server.
6240 14:18:04 WARN  Counter category 'Sitecore.Data' does not exist on this server.
6240 14:18:04 INFO  MemoryMonitor initialized. Threshold: 800 MB. Interval: 00:00:05
6240 14:18:04 INFO  Cache created: '[FieldReaderCache]' (max size: 5MB, running total: 172MB)
6240 14:18:04 INFO  Cache created: 'SqlDataProvider - Property data(core)' (max size: 500KB, running total: 172MB)
6240 14:18:04 INFO  Cache created: 'SqlDataProvider - Property data(master)' (max size: 500KB, running total: 173MB)
6240 14:18:04 INFO  Cache created: 'SqlDataProvider - Property data(web)' (max size: 500KB, running total: 173MB)
6240 14:18:04 INFO  Scheduler - Initializing
6240 14:18:04 INFO  Cache created: 'UserProfileCache' (max size: 1MB, running total: 174MB)
6240 14:18:04 INFO  Cache created: 'clientData' (max size: 5MB, running total: 179MB)
6240 14:18:04 INFO  Scheduler - Interval set to: 00:00:05
6240 14:18:04 INFO  Scheduler - Worker thread started
5096 14:18:04 INFO  HttpModule is being initialized
5096 14:18:05 INFO  Cache created: 'shell[html]' (max size: 0 bytes, running total: 179MB)
5096 14:18:05 INFO  Cache created: 'shell[registry]' (max size: 3MB, running total: 182MB)
5096 14:18:05 INFO  Cache created: 'shell[viewstate]' (max size: 200KB, running total: 183MB)
5096 14:18:05 INFO  Cache created: 'shell[xsl]' (max size: 5MB, running total: 188MB)
5096 14:18:05 INFO  Cache created: 'shell[filtered items]' (max size: 2MB, running total: 190MB)
5096 14:18:05 INFO  Cache created: 'login[html]' (max size: 0 bytes, running total: 190MB)
5096 14:18:05 INFO  Cache created: 'login[registry]' (max size: 5MB, running total: 195MB)
5096 14:18:05 INFO  Cache created: 'login[viewstate]' (max size: 5MB, running total: 200MB)
5096 14:18:05 INFO  Cache created: 'login[xsl]' (max size: 10MB, running total: 210MB)
5096 14:18:05 INFO  Cache created: 'login[filtered items]' (max size: 2MB, running total: 212MB)
5096 14:18:05 INFO  Cache created: 'admin[html]' (max size: 0 bytes, running total: 212MB)
5096 14:18:05 INFO  Cache created: 'admin[registry]' (max size: 5MB, running total: 217MB)
5096 14:18:05 INFO  Cache created: 'admin[viewstate]' (max size: 5MB, running total: 222MB)
5096 14:18:05 INFO  Cache created: 'admin[xsl]' (max size: 10MB, running total: 232MB)
5096 14:18:05 INFO  Cache created: 'admin[filtered items]' (max size: 2MB, running total: 234MB)
5096 14:18:05 INFO  Cache created: 'service[html]' (max size: 0 bytes, running total: 234MB)
5096 14:18:05 INFO  Cache created: 'service[registry]' (max size: 5MB, running total: 239MB)
5096 14:18:05 INFO  Cache created: 'service[viewstate]' (max size: 5MB, running total: 244MB)
5096 14:18:05 INFO  Cache created: 'service[xsl]' (max size: 10MB, running total: 254MB)
5096 14:18:05 INFO  Cache created: 'service[filtered items]' (max size: 2MB, running total: 256MB)
5096 14:18:05 INFO  Cache created: 'modules_shell[html]' (max size: 0 bytes, running total: 256MB)
5096 14:18:05 INFO  Cache created: 'modules_shell[registry]' (max size: 5MB, running total: 261MB)
5096 14:18:05 INFO  Cache created: 'modules_shell[viewstate]' (max size: 5MB, running total: 266MB)
5096 14:18:05 INFO  Cache created: 'modules_shell[xsl]' (max size: 10MB, running total: 276MB)
5096 14:18:05 INFO  Cache created: 'modules_shell[filtered items]' (max size: 2MB, running total: 278MB)
5096 14:18:05 INFO  Cache created: 'modules_website[html]' (max size: 5MB, running total: 283MB)
5096 14:18:05 INFO  Cache created: 'modules_website[registry]' (max size: 5MB, running total: 288MB)
5096 14:18:05 INFO  Cache created: 'modules_website[viewstate]' (max size: 5MB, running total: 293MB)
5096 14:18:05 INFO  Cache created: 'modules_website[xsl]' (max size: 10MB, running total: 303MB)
5096 14:18:05 INFO  Cache created: 'modules_website[filtered items]' (max size: 2MB, running total: 305MB)
5096 14:18:05 INFO  Cache created: 'website[html]' (max size: 10MB, running total: 315MB)
5096 14:18:05 INFO  Cache created: 'website[registry]' (max size: 0 bytes, running total: 315MB)
5096 14:18:05 INFO  Cache created: 'website[viewstate]' (max size: 0 bytes, running total: 315MB)
5096 14:18:05 INFO  Cache created: 'website[xsl]' (max size: 5MB, running total: 320MB)
5096 14:18:05 INFO  Cache created: 'website[filtered items]' (max size: 2MB, running total: 322MB)
5096 14:18:05 INFO  Cache created: 'scheduler[html]' (max size: 0 bytes, running total: 322MB)
5096 14:18:05 INFO  Cache created: 'scheduler[registry]' (max size: 5MB, running total: 327MB)
5096 14:18:05 INFO  Cache created: 'scheduler[viewstate]' (max size: 5MB, running total: 332MB)
5096 14:18:05 INFO  Cache created: 'scheduler[xsl]' (max size: 10MB, running total: 342MB)
5096 14:18:05 INFO  Cache created: 'scheduler[filtered items]' (max size: 2MB, running total: 344MB)
5096 14:18:05 INFO  Cache created: 'system[html]' (max size: 0 bytes, running total: 344MB)
5096 14:18:05 INFO  Cache created: 'system[registry]' (max size: 5MB, running total: 349MB)
5096 14:18:05 INFO  Cache created: 'system[viewstate]' (max size: 5MB, running total: 354MB)
5096 14:18:05 INFO  Cache created: 'system[xsl]' (max size: 10MB, running total: 364MB)
5096 14:18:05 INFO  Cache created: 'system[filtered items]' (max size: 2MB, running total: 366MB)
5096 14:18:05 INFO  Cache created: 'publisher[html]' (max size: 0 bytes, running total: 366MB)
5096 14:18:05 INFO  Cache created: 'publisher[registry]' (max size: 5MB, running total: 371MB)
5096 14:18:05 INFO  Cache created: 'publisher[viewstate]' (max size: 5MB, running total: 376MB)
5096 14:18:05 INFO  Cache created: 'publisher[xsl]' (max size: 10MB, running total: 386MB)
5096 14:18:05 INFO  Cache created: 'publisher[filtered items]' (max size: 2MB, running total: 388MB)
5096 14:18:05 INFO  Cache created: 'IsUserInRoleCache' (max size: 1MB, running total: 389MB)
ManagedPoolThread #1 14:18:05 INFO  Trying to load XML configuration /App_Config/Security/Domains.config
5096 14:18:06 INFO  Cache created: 'SqlDataProvider - Prefetch data(master)' (max size: 20MB, running total: 409MB)
5096 14:18:07 INFO  Cache created: 'rules' (max size: 800KB, running total: 409MB)
5096 14:18:07 WARN  Counter category 'Sitecore.Presentation' does not exist on this server.
5096 14:18:07 WARN  Counter category 'Sitecore.Presentation' does not exist on this server.
5096 14:18:07 WARN  Counter category 'Sitecore.Presentation' does not exist on this server.
5096 14:18:07 WARN  Counter category 'Sitecore.Presentation' does not exist on this server.
5096 14:18:07 WARN  Counter category 'Sitecore.Presentation' does not exist on this server.
5096 14:18:07 WARN  Counter category 'Sitecore.Presentation' does not exist on this server.
5096 14:18:07 WARN  Counter category 'Sitecore.Presentation' does not exist on this server.
5096 14:18:07 WARN  Counter category 'Sitecore.Presentation' does not exist on this server.
5096 14:18:08 INFO  Cache created: 'WebUtil.QueryStringCache' (max size: 19KB, running total: 409MB)
4972 14:18:08 INFO  HttpModule is being initialized
5968 14:18:08 INFO  HttpModule is being initialized
6152 14:18:08 INFO  HttpModule is being initialized
6036 14:18:09 INFO  Scheduler - Adding agents
6036 14:18:09 INFO  Scheduler - Adding agent: Sitecore.Tasks.DatabaseAgent (interval: 00:10:00)
6036 14:18:09 INFO  Scheduler - Adding agent: Sitecore.Tasks.DatabaseAgent (interval: 00:10:00)
6036 14:18:09 INFO  Scheduler - Adding agent: Sitecore.Tasks.UrlAgent (interval: 00:15:00)
6036 14:18:09 INFO  Scheduler - Adding agent: Sitecore.Tasks.TaskDatabaseAgent (interval: 00:10:00)
6036 14:18:09 INFO  Scheduler - Adding agent: Sitecore.Tasks.CompactClientDataAgent (interval: 04:00:00)
6036 14:18:09 INFO  Scheduler - Adding agent: Sitecore.Tasks.CleanupHistory (interval: 04:00:00)
6036 14:18:09 INFO  Scheduler - Adding agent: Sitecore.Tasks.CleanupPublishQueue (interval: 04:00:00)
6036 14:18:09 INFO  Scheduler - Adding agent: Sitecore.Tasks.CleanupEventQueue (interval: 04:00:00)
6036 14:18:09 INFO  Scheduler - Skipping inactive agent: Sitecore.Tasks.HtmlCacheClearAgent
6036 14:18:09 INFO  Scheduler - Skipping inactive agent: Sitecore.Tasks.PublishAgent
6036 14:18:09 INFO  Scheduler - Adding agent: Sitecore.Tasks.CleanupAgent (interval: 06:00:00)
6036 14:18:09 INFO  Scheduler - Adding agent: Sitecore.Tasks.CounterDumpAgent (interval: 01:00:00)
6036 14:18:09 INFO  Scheduler - Adding agent: Sitecore.Tasks.CloneNotificationsCleanupAgent (interval: 1.00:00:00)
6036 14:18:09 INFO  Scheduler - Adding agent: Sitecore.ContentSearch.Tasks.Optimize (interval: 01:00:00)
6036 14:18:09 INFO  Scheduler - Adding agent: Sitecore.Tasks.CleanupFDAObsoleteMediaData (interval: 1.00:00:00)
6036 14:18:09 INFO  Scheduler - Adding agent: Sitecore.Tasks.WebDAVOptionsCleanupAgent (interval: 1.00:00:00)
6036 14:18:09 INFO  Scheduler - Agents added
Heartbeat 14:19:04 WARN  Memory usage exceeded the MemoryMonitor threshold.
Heartbeat 14:19:04 WARN  Memory usage: 900,022,272
Heartbeat 14:19:04 WARN  Number of suppressed logs due to the minimum time between log entries: 9
Heartbeat 14:20:10 WARN  Memory usage exceeded the MemoryMonitor threshold.
Heartbeat 14:20:10 WARN  Memory usage: 904,413,184
Heartbeat 14:20:10 WARN  Number of suppressed logs due to the minimum time between log entries: 10
Heartbeat 14:21:16 WARN  Memory usage exceeded the MemoryMonitor threshold.
Heartbeat 14:21:16 WARN  Memory usage: 904,822,784
Heartbeat 14:21:16 WARN  Number of suppressed logs due to the minimum time between log entries: 10
2828 14:21:44 WARN  Counter category 'Sitecore.System' does not exist on this server.
6480 14:21:44 INFO  Layout file modified: D:\Movie Tickets\Movie Tickets\Website\layouts\MovieBasket.ascx
2272 14:21:49 INFO  HttpModule is being initialized
4972 14:21:49 INFO  HttpModule is being initialized
4972 14:21:50 INFO  HttpModule is being initialized
5968 14:22:03 INFO  HttpModule is being initialized
2272 14:22:03 INFO  HttpModule is being initialized
6152 14:22:07 INFO  Cache created: 'IsDisplayedInSearchResults[master]' (max size: 10MB, running total: 419MB)
Heartbeat 14:22:22 WARN  Memory usage exceeded the MemoryMonitor threshold.
Heartbeat 14:22:22 WARN  Memory usage: 912,494,592
Heartbeat 14:22:22 WARN  Number of suppressed logs due to the minimum time between log entries: 10
3660 14:22:29 INFO  Trying to load XML configuration /App_Config/Security/GlobalRoles.config
ManagedPoolThread #13 14:22:31 INFO  Trying to load XML configuration /App_Config/Security/GlobalRoles.config
ManagedPoolThread #19 14:23:07 WARN  Counter category 'Sitecore.Presentation' does not exist on this server.
ManagedPoolThread #19 14:23:07 WARN  Counter category 'Sitecore.Presentation' does not exist on this server.
ManagedPoolThread #6 14:23:08 WARN  Counter category 'Sitecore.Jobs' does not exist on this server.
ManagedPoolThread #19 14:23:08 INFO  Starting update of index for the database 'master' (1 pending).
ManagedPoolThread #19 14:23:08 WARN  Counter category 'Sitecore.Data' does not exist on this server.
ManagedPoolThread #19 14:23:08 WARN  Counter category 'Sitecore.Data' does not exist on this server.
ManagedPoolThread #19 14:23:08 WARN  Counter category 'Sitecore.Data' does not exist on this server.
ManagedPoolThread #19 14:23:08 INFO  Update of index for the database 'master' done.
Heartbeat 14:23:22 WARN  Memory usage exceeded the MemoryMonitor threshold.
Heartbeat 14:23:22 WARN  Memory usage: 908,660,736
Heartbeat 14:23:22 WARN  Number of suppressed logs due to the minimum time between log entries: 9
Heartbeat 14:24:28 WARN  Memory usage exceeded the MemoryMonitor threshold.
Heartbeat 14:24:28 WARN  Memory usage: 904,224,768
Heartbeat 14:24:28 WARN  Number of suppressed logs due to the minimum time between log entries: 10
6480 14:24:45 INFO  Layout file modified: D:\Movie Tickets\Movie Tickets\Website\layouts\MovieBasket.ascx
6480 14:24:58 INFO  Layout file modified: D:\Movie Tickets\Movie Tickets\Website\layouts\MovieBasket.ascx
6480 14:25:04 INFO  Layout file modified: D:\Movie Tickets\Movie Tickets\Website\layouts\MovieBasket.ascx.designer.cs
2272 14:25:04 INFO  **************************************************
2272 14:25:04 WARN  Sitecore shutting down
2272 14:25:04 WARN  Shutdown message: Change Notification for critical directories.
bin dir change or directory rename
HostingEnvironment initiated shutdown
Change Notification for critical directories.
bin dir change or directory rename
Change Notification for critical directories.
bin dir change or directory rename
Change Notification for critical directories.
bin dir change or directory rename
Change Notification for critical directories.
bin dir change or directory rename
Change Notification for critical directories.
bin dir change or directory rename
6480 14:25:22 INFO  Layout file modified: D:\Movie Tickets\Movie Tickets\Website\layouts\MovieBasket.ascx
6480 14:25:26 INFO  Layout file modified: D:\Movie Tickets\Movie Tickets\Website\layouts\MovieBasket.ascx
6480 14:25:28 INFO  Layout file modified: D:\Movie Tickets\Movie Tickets\Website\layouts\MovieBasket.ascx
6480 14:25:31 INFO  Layout file modified: D:\Movie Tickets\Movie Tickets\Website\layouts\MovieBasket.ascx
Heartbeat 14:25:34 WARN  Memory usage exceeded the MemoryMonitor threshold.
Heartbeat 14:25:34 WARN  Memory usage: 907,493,376
Heartbeat 14:25:34 WARN  Number of suppressed logs due to the minimum time between log entries: 10
