﻿5232 10:09:31 INFO  [Recovery]: Setting default publish recovery strategy.
5232 10:09:31 INFO  [Recovery]: Publish Recovery Enabled - False
5232 10:09:31 INFO  [Recovery]: Publish Recovery Strategy - DatabasePublishRecoveryStrategy
5232 10:09:31 INFO  Settings.Publishing.AutoScheduleSmartPublish:True
5232 10:09:31 INFO  Settings.Publishing.CheckSecurity:False
5232 10:09:31 INFO  Settings.Publishing.CompareRevisions:True
5232 10:09:31 INFO  Settings.Publishing.DisableDatabaseCaches:False
5232 10:09:31 INFO  Settings.Publishing.ExecuteInManagedThreadPool:False
5232 10:09:31 INFO  Settings.Publishing.LogInterval:0
5232 10:09:31 INFO  Settings.Publishing.MaxDegreeOfParallelism:1
5232 10:09:31 INFO  Settings.Publishing.PublishDialogPollingInterval:500
5232 10:09:31 INFO  Settings.Publishing.PublishEmptyItems:False
5232 10:09:31 INFO  Settings.Publishing.PublishingInstance:RTAPPENDEN-Movie Tickets
5232 10:09:31 INFO  Settings.Publishing.RequireTargetDeleteRightWhenCheckingSecurity:True
5232 10:09:31 INFO  Settings.Publishing.StatusUpdateInterval:00:00:02
5232 10:09:31 INFO  Settings.Publishing.ThreadPriority:BelowNormal
5232 10:09:31 INFO  Settings.Publishing.TimeBeforeStatusExpires:02:00:00
