﻿6176 13:38:31 INFO  [Recovery]: Setting default publish recovery strategy.
6176 13:38:31 INFO  [Recovery]: Publish Recovery Enabled - False
6176 13:38:31 INFO  [Recovery]: Publish Recovery Strategy - DatabasePublishRecoveryStrategy
6176 13:38:31 INFO  Settings.Publishing.AutoScheduleSmartPublish:True
6176 13:38:31 INFO  Settings.Publishing.CheckSecurity:False
6176 13:38:31 INFO  Settings.Publishing.CompareRevisions:True
6176 13:38:31 INFO  Settings.Publishing.DisableDatabaseCaches:False
6176 13:38:31 INFO  Settings.Publishing.ExecuteInManagedThreadPool:False
6176 13:38:31 INFO  Settings.Publishing.LogInterval:0
6176 13:38:31 INFO  Settings.Publishing.MaxDegreeOfParallelism:1
6176 13:38:31 INFO  Settings.Publishing.PublishDialogPollingInterval:500
6176 13:38:31 INFO  Settings.Publishing.PublishEmptyItems:False
6176 13:38:31 INFO  Settings.Publishing.PublishingInstance:RTAPPENDEN-Movie Tickets
6176 13:38:31 INFO  Settings.Publishing.RequireTargetDeleteRightWhenCheckingSecurity:True
6176 13:38:31 INFO  Settings.Publishing.StatusUpdateInterval:00:00:02
6176 13:38:31 INFO  Settings.Publishing.ThreadPriority:BelowNormal
6176 13:38:31 INFO  Settings.Publishing.TimeBeforeStatusExpires:02:00:00
