﻿3128 11:20:33 INFO  [Recovery]: Setting default publish recovery strategy.
3128 11:20:33 INFO  [Recovery]: Publish Recovery Enabled - False
3128 11:20:33 INFO  [Recovery]: Publish Recovery Strategy - DatabasePublishRecoveryStrategy
3128 11:20:33 INFO  Settings.Publishing.AutoScheduleSmartPublish:True
3128 11:20:33 INFO  Settings.Publishing.CheckSecurity:False
3128 11:20:33 INFO  Settings.Publishing.CompareRevisions:True
3128 11:20:33 INFO  Settings.Publishing.DisableDatabaseCaches:False
3128 11:20:33 INFO  Settings.Publishing.ExecuteInManagedThreadPool:False
3128 11:20:33 INFO  Settings.Publishing.LogInterval:0
3128 11:20:33 INFO  Settings.Publishing.MaxDegreeOfParallelism:1
3128 11:20:33 INFO  Settings.Publishing.PublishDialogPollingInterval:500
3128 11:20:33 INFO  Settings.Publishing.PublishEmptyItems:False
3128 11:20:33 INFO  Settings.Publishing.PublishingInstance:RTAPPENDEN-Movie Tickets
3128 11:20:33 INFO  Settings.Publishing.RequireTargetDeleteRightWhenCheckingSecurity:True
3128 11:20:33 INFO  Settings.Publishing.StatusUpdateInterval:00:00:02
3128 11:20:33 INFO  Settings.Publishing.ThreadPriority:BelowNormal
3128 11:20:33 INFO  Settings.Publishing.TimeBeforeStatusExpires:02:00:00
