﻿3152 11:08:22 INFO  [Recovery]: Setting default publish recovery strategy.
3152 11:08:22 INFO  [Recovery]: Publish Recovery Enabled - False
3152 11:08:22 INFO  [Recovery]: Publish Recovery Strategy - DatabasePublishRecoveryStrategy
3152 11:08:22 INFO  Settings.Publishing.AutoScheduleSmartPublish:True
3152 11:08:22 INFO  Settings.Publishing.CheckSecurity:False
3152 11:08:22 INFO  Settings.Publishing.CompareRevisions:True
3152 11:08:22 INFO  Settings.Publishing.DisableDatabaseCaches:False
3152 11:08:22 INFO  Settings.Publishing.ExecuteInManagedThreadPool:False
3152 11:08:22 INFO  Settings.Publishing.LogInterval:0
3152 11:08:22 INFO  Settings.Publishing.MaxDegreeOfParallelism:1
3152 11:08:22 INFO  Settings.Publishing.PublishDialogPollingInterval:500
3152 11:08:22 INFO  Settings.Publishing.PublishEmptyItems:False
3152 11:08:22 INFO  Settings.Publishing.PublishingInstance:RTAPPENDEN-Movie Tickets
3152 11:08:22 INFO  Settings.Publishing.RequireTargetDeleteRightWhenCheckingSecurity:True
3152 11:08:22 INFO  Settings.Publishing.StatusUpdateInterval:00:00:02
3152 11:08:22 INFO  Settings.Publishing.ThreadPriority:BelowNormal
3152 11:08:22 INFO  Settings.Publishing.TimeBeforeStatusExpires:02:00:00
