﻿4888 14:15:57 INFO  [Recovery]: Setting default publish recovery strategy.
4888 14:15:57 INFO  [Recovery]: Publish Recovery Enabled - False
4888 14:15:57 INFO  [Recovery]: Publish Recovery Strategy - DatabasePublishRecoveryStrategy
4888 14:15:57 INFO  Settings.Publishing.AutoScheduleSmartPublish:True
4888 14:15:57 INFO  Settings.Publishing.CheckSecurity:False
4888 14:15:57 INFO  Settings.Publishing.CompareRevisions:True
4888 14:15:57 INFO  Settings.Publishing.DisableDatabaseCaches:False
4888 14:15:57 INFO  Settings.Publishing.ExecuteInManagedThreadPool:False
4888 14:15:57 INFO  Settings.Publishing.LogInterval:0
4888 14:15:57 INFO  Settings.Publishing.MaxDegreeOfParallelism:1
4888 14:15:57 INFO  Settings.Publishing.PublishDialogPollingInterval:500
4888 14:15:57 INFO  Settings.Publishing.PublishEmptyItems:False
4888 14:15:57 INFO  Settings.Publishing.PublishingInstance:RTAPPENDEN-Movie Tickets
4888 14:15:57 INFO  Settings.Publishing.RequireTargetDeleteRightWhenCheckingSecurity:True
4888 14:15:57 INFO  Settings.Publishing.StatusUpdateInterval:00:00:02
4888 14:15:57 INFO  Settings.Publishing.ThreadPriority:BelowNormal
4888 14:15:57 INFO  Settings.Publishing.TimeBeforeStatusExpires:02:00:00
