﻿3608 13:36:56 INFO  [Recovery]: Setting default publish recovery strategy.
3608 13:36:56 INFO  [Recovery]: Publish Recovery Enabled - False
3608 13:36:56 INFO  [Recovery]: Publish Recovery Strategy - DatabasePublishRecoveryStrategy
3608 13:36:56 INFO  Settings.Publishing.AutoScheduleSmartPublish:True
3608 13:36:56 INFO  Settings.Publishing.CheckSecurity:False
3608 13:36:56 INFO  Settings.Publishing.CompareRevisions:True
3608 13:36:56 INFO  Settings.Publishing.DisableDatabaseCaches:False
3608 13:36:56 INFO  Settings.Publishing.ExecuteInManagedThreadPool:False
3608 13:36:56 INFO  Settings.Publishing.LogInterval:0
3608 13:36:56 INFO  Settings.Publishing.MaxDegreeOfParallelism:1
3608 13:36:56 INFO  Settings.Publishing.PublishDialogPollingInterval:500
3608 13:36:56 INFO  Settings.Publishing.PublishEmptyItems:False
3608 13:36:56 INFO  Settings.Publishing.PublishingInstance:RTAPPENDEN-Movie Tickets
3608 13:36:56 INFO  Settings.Publishing.RequireTargetDeleteRightWhenCheckingSecurity:True
3608 13:36:56 INFO  Settings.Publishing.StatusUpdateInterval:00:00:02
3608 13:36:56 INFO  Settings.Publishing.ThreadPriority:BelowNormal
3608 13:36:56 INFO  Settings.Publishing.TimeBeforeStatusExpires:02:00:00
