﻿6508 16:15:56 INFO  [Recovery]: Setting default publish recovery strategy.
6508 16:15:56 INFO  [Recovery]: Publish Recovery Enabled - False
6508 16:15:56 INFO  [Recovery]: Publish Recovery Strategy - DatabasePublishRecoveryStrategy
6508 16:15:56 INFO  Settings.Publishing.AutoScheduleSmartPublish:True
6508 16:15:56 INFO  Settings.Publishing.CheckSecurity:False
6508 16:15:56 INFO  Settings.Publishing.CompareRevisions:True
6508 16:15:56 INFO  Settings.Publishing.DisableDatabaseCaches:False
6508 16:15:56 INFO  Settings.Publishing.ExecuteInManagedThreadPool:False
6508 16:15:56 INFO  Settings.Publishing.LogInterval:0
6508 16:15:56 INFO  Settings.Publishing.MaxDegreeOfParallelism:1
6508 16:15:56 INFO  Settings.Publishing.PublishDialogPollingInterval:500
6508 16:15:56 INFO  Settings.Publishing.PublishEmptyItems:False
6508 16:15:56 INFO  Settings.Publishing.PublishingInstance:RTAPPENDEN-Movie Tickets
6508 16:15:56 INFO  Settings.Publishing.RequireTargetDeleteRightWhenCheckingSecurity:True
6508 16:15:56 INFO  Settings.Publishing.StatusUpdateInterval:00:00:02
6508 16:15:56 INFO  Settings.Publishing.ThreadPriority:BelowNormal
6508 16:15:56 INFO  Settings.Publishing.TimeBeforeStatusExpires:02:00:00
