﻿2608 14:12:53 INFO  Warming and Caching your search indexes
2608 14:12:53 INFO  /******* Warming Queries ********/
2608 14:12:53 INFO  /*************************/
5356 14:13:01 INFO  ExecuteQueryAgainstLucene : spanNear([spanFirst(_name:search, 1), _name:lock, _name:sitecore, SpanWildcardQuery(_name:admin*)], 0, True) spanNear([SpanWildcardQuery(_content:*search), _content:lock, _content:sitecore, SpanWildcardQuery(_content:admin*)], 0, True) - Filter : 
8140 14:13:08 INFO  ExecuteQueryAgainstLucene : spanNear([spanFirst(_name:search, 1), _name:lock, _name:sitecore, SpanWildcardQuery(_name:admin*)], 0, True) spanNear([SpanWildcardQuery(_content:*search), _content:lock, _content:sitecore, SpanWildcardQuery(_content:admin*)], 0, True) - Filter : 
