﻿2020 14:50:51 INFO  Warming and Caching your search indexes
2020 14:50:51 INFO  /******* Warming Queries ********/
2020 14:50:51 INFO  /*************************/
4100 14:50:55 INFO  ExecuteQueryAgainstLucene : spanNear([spanFirst(_name:search, 1), _name:lock, _name:sitecore, SpanWildcardQuery(_name:admin*)], 0, True) spanNear([SpanWildcardQuery(_content:*search), _content:lock, _content:sitecore, SpanWildcardQuery(_content:admin*)], 0, True) - Filter : 
2608 14:51:01 INFO  ExecuteQueryAgainstLucene : spanNear([spanFirst(_name:search, 1), _name:lock, _name:sitecore, SpanWildcardQuery(_name:admin*)], 0, True) spanNear([SpanWildcardQuery(_content:*search), _content:lock, _content:sitecore, SpanWildcardQuery(_content:admin*)], 0, True) - Filter : 
6076 14:51:21 INFO  ExecuteQueryAgainstLucene : spanNear([spanFirst(_name:search, 1), _name:lock, _name:sitecore, SpanWildcardQuery(_name:admin*)], 0, True) spanNear([SpanWildcardQuery(_content:*search), _content:lock, _content:sitecore, SpanWildcardQuery(_content:admin*)], 0, True) - Filter : 
3660 14:52:12 INFO  ExecuteQueryAgainstLucene : spanNear([spanFirst(_name:search, 1), _name:lock, _name:sitecore, SpanWildcardQuery(_name:admin*)], 0, True) spanNear([SpanWildcardQuery(_content:*search), _content:lock, _content:sitecore, SpanWildcardQuery(_content:admin*)], 0, True) - Filter : 
5792 14:53:36 INFO  ExecuteQueryAgainstLucene : spanNear([spanFirst(_name:search, 1), _name:lock, _name:sitecore, SpanWildcardQuery(_name:admin*)], 0, True) spanNear([SpanWildcardQuery(_content:*search), _content:lock, _content:sitecore, SpanWildcardQuery(_content:admin*)], 0, True) - Filter : 
4608 14:53:54 INFO  ExecuteQueryAgainstLucene : spanNear([spanFirst(_name:search, 1), _name:lock, _name:sitecore, SpanWildcardQuery(_name:admin*)], 0, True) spanNear([SpanWildcardQuery(_content:*search), _content:lock, _content:sitecore, SpanWildcardQuery(_content:admin*)], 0, True) - Filter : 
4928 14:54:14 INFO  ExecuteQueryAgainstLucene : spanNear([spanFirst(_name:search, 1), _name:lock, _name:sitecore, SpanWildcardQuery(_name:admin*)], 0, True) spanNear([SpanWildcardQuery(_content:*search), _content:lock, _content:sitecore, SpanWildcardQuery(_content:admin*)], 0, True) - Filter : 
