﻿6240 15:02:31 INFO  Warming and Caching your search indexes
6240 15:02:31 INFO  /******* Warming Queries ********/
6240 15:02:31 INFO  /*************************/
4752 15:02:55 INFO  ExecuteQueryAgainstLucene : spanNear([spanFirst(_name:search, 1), _name:lock, _name:sitecore, SpanWildcardQuery(_name:admin*)], 0, True) spanNear([SpanWildcardQuery(_content:*search), _content:lock, _content:sitecore, SpanWildcardQuery(_content:admin*)], 0, True) - Filter : 
6884 15:03:13 INFO  ExecuteQueryAgainstLucene : spanNear([spanFirst(_name:search, 1), _name:lock, _name:sitecore, SpanWildcardQuery(_name:admin*)], 0, True) spanNear([SpanWildcardQuery(_content:*search), _content:lock, _content:sitecore, SpanWildcardQuery(_content:admin*)], 0, True) - Filter : 
7372 15:03:16 INFO  ExecuteQueryAgainstLucene : spanNear([spanFirst(_name:search, 1), _name:lock, _name:sitecore, SpanWildcardQuery(_name:admin*)], 0, True) spanNear([SpanWildcardQuery(_content:*search), _content:lock, _content:sitecore, SpanWildcardQuery(_content:admin*)], 0, True) - Filter : 
7204 15:03:44 INFO  ExecuteQueryAgainstLucene : spanNear([spanFirst(_name:search, 1), _name:lock, _name:sitecore, SpanWildcardQuery(_name:admin*)], 0, True) spanNear([SpanWildcardQuery(_content:*search), _content:lock, _content:sitecore, SpanWildcardQuery(_content:admin*)], 0, True) - Filter : 
