﻿4696 13:46:01 INFO  Warming and Caching your search indexes
4696 13:46:01 INFO  /******* Warming Queries ********/
4696 13:46:01 INFO  /*************************/
2596 13:46:04 INFO  ExecuteQueryAgainstLucene : spanNear([spanFirst(_name:search, 1), _name:lock, _name:sitecore, SpanWildcardQuery(_name:admin*)], 0, True) spanNear([SpanWildcardQuery(_content:*search), _content:lock, _content:sitecore, SpanWildcardQuery(_content:admin*)], 0, True) - Filter : 
