﻿5932 16:07:56 INFO  Warming and Caching your search indexes
5932 16:07:56 INFO  /******* Warming Queries ********/
5932 16:07:56 INFO  /*************************/
7948 16:07:59 INFO  ExecuteQueryAgainstLucene : spanNear([spanFirst(_name:search, 1), _name:lock, _name:sitecore, SpanWildcardQuery(_name:admin*)], 0, True) spanNear([SpanWildcardQuery(_content:*search), _content:lock, _content:sitecore, SpanWildcardQuery(_content:admin*)], 0, True) - Filter : 
1616 16:08:11 INFO  ExecuteQueryAgainstLucene : spanNear([spanFirst(_name:search, 1), _name:lock, _name:sitecore, SpanWildcardQuery(_name:admin*)], 0, True) spanNear([SpanWildcardQuery(_content:*search), _content:lock, _content:sitecore, SpanWildcardQuery(_content:admin*)], 0, True) - Filter : 
6248 16:08:20 INFO  ExecuteQueryAgainstLucene : spanNear([spanFirst(_name:search, 1), _name:lock, _name:sitecore, SpanWildcardQuery(_name:admin*)], 0, True) spanNear([SpanWildcardQuery(_content:*search), _content:lock, _content:sitecore, SpanWildcardQuery(_content:admin*)], 0, True) - Filter : 
6944 16:08:27 INFO  ExecuteQueryAgainstLucene : spanNear([spanFirst(_name:search, 1), _name:lock, _name:sitecore, SpanWildcardQuery(_name:admin*)], 0, True) spanNear([SpanWildcardQuery(_content:*search), _content:lock, _content:sitecore, SpanWildcardQuery(_content:admin*)], 0, True) - Filter : 
5412 16:08:53 INFO  ExecuteQueryAgainstLucene : spanNear([spanFirst(_name:search, 1), _name:lock, _name:sitecore, SpanWildcardQuery(_name:admin*)], 0, True) spanNear([SpanWildcardQuery(_content:*search), _content:lock, _content:sitecore, SpanWildcardQuery(_content:admin*)], 0, True) - Filter : 
5412 16:08:58 INFO  ExecuteQueryAgainstLucene : spanNear([spanFirst(_name:search, 1), _name:lock, _name:sitecore, SpanWildcardQuery(_name:admin*)], 0, True) spanNear([SpanWildcardQuery(_content:*search), _content:lock, _content:sitecore, SpanWildcardQuery(_content:admin*)], 0, True) - Filter : 
6248 16:09:05 INFO  Facet Search Query : _path:0de95ae441ab4d019eb067441b7c2450
6248 16:09:05 INFO  Facet Search Index : sitecore_master_index
6248 16:09:05 INFO  GetFacets : _templatename : _path:0de95ae441ab4d019eb067441b7c2450
6248 16:09:05 INFO  GetFacets : parsedlanguage : _path:0de95ae441ab4d019eb067441b7c2450
6248 16:09:05 INFO  GetFacets : parsedcreatedby : _path:0de95ae441ab4d019eb067441b7c2450
6248 16:09:05 INFO  GetFacets : __smallcreateddate : _path:0de95ae441ab4d019eb067441b7c2450
6248 16:09:05 INFO  GetFacets : daterange_week : _path:0de95ae441ab4d019eb067441b7c2450
6248 16:09:05 INFO  GetFacets : daterange_month : _path:0de95ae441ab4d019eb067441b7c2450
6248 16:09:05 INFO  GetFacets : daterange_year : _path:0de95ae441ab4d019eb067441b7c2450
6248 16:09:05 INFO  Facet Search Took : 129ms
7912 16:09:06 INFO  ExecuteQueryAgainstLucene : _path:0de95ae441ab4d019eb067441b7c2450 - Filter : 
7912 16:09:06 INFO  Search Query : _path:0de95ae441ab4d019eb067441b7c2450
7912 16:09:06 INFO  Search Index : sitecore_master_index
7912 16:09:06 INFO  ExecuteQueryAgainstLucene : is_displayed_in_search_results:1 - Filter : 
7912 16:09:06 INFO  Search Took : 244ms
6248 16:09:08 INFO  ExecuteQueryAgainstLucene : spanNear([spanFirst(_name:search, 1), _name:lock, _name:sitecore, SpanWildcardQuery(_name:admin*)], 0, True) spanNear([SpanWildcardQuery(_content:*search), _content:lock, _content:sitecore, SpanWildcardQuery(_content:admin*)], 0, True) - Filter : 
7724 16:11:11 INFO  ExecuteQueryAgainstLucene : spanNear([spanFirst(_name:search, 1), _name:lock, _name:sitecore, SpanWildcardQuery(_name:admin*)], 0, True) spanNear([SpanWildcardQuery(_content:*search), _content:lock, _content:sitecore, SpanWildcardQuery(_content:admin*)], 0, True) - Filter : 
1616 16:13:37 INFO  ExecuteQueryAgainstLucene : spanNear([spanFirst(_name:search, 1), _name:lock, _name:sitecore, SpanWildcardQuery(_name:admin*)], 0, True) spanNear([SpanWildcardQuery(_content:*search), _content:lock, _content:sitecore, SpanWildcardQuery(_content:admin*)], 0, True) - Filter : 
6652 16:15:23 INFO  ExecuteQueryAgainstLucene : spanNear([spanFirst(_name:search, 1), _name:lock, _name:sitecore, SpanWildcardQuery(_name:admin*)], 0, True) spanNear([SpanWildcardQuery(_content:*search), _content:lock, _content:sitecore, SpanWildcardQuery(_content:admin*)], 0, True) - Filter : 
4432 16:15:45 INFO  ExecuteQueryAgainstLucene : spanNear([spanFirst(_name:search, 1), _name:lock, _name:sitecore, SpanWildcardQuery(_name:admin*)], 0, True) spanNear([SpanWildcardQuery(_content:*search), _content:lock, _content:sitecore, SpanWildcardQuery(_content:admin*)], 0, True) - Filter : 
7448 16:15:55 INFO  ExecuteQueryAgainstLucene : spanNear([spanFirst(_name:search, 1), _name:lock, _name:sitecore, SpanWildcardQuery(_name:admin*)], 0, True) spanNear([SpanWildcardQuery(_content:*search), _content:lock, _content:sitecore, SpanWildcardQuery(_content:admin*)], 0, True) - Filter : 
7448 16:16:05 INFO  ExecuteQueryAgainstLucene : spanNear([spanFirst(_name:search, 1), _name:lock, _name:sitecore, SpanWildcardQuery(_name:admin*)], 0, True) spanNear([SpanWildcardQuery(_content:*search), _content:lock, _content:sitecore, SpanWildcardQuery(_content:admin*)], 0, True) - Filter : 
6644 16:18:05 INFO  ExecuteQueryAgainstLucene : spanNear([spanFirst(_name:search, 1), _name:lock, _name:sitecore, SpanWildcardQuery(_name:admin*)], 0, True) spanNear([SpanWildcardQuery(_content:*search), _content:lock, _content:sitecore, SpanWildcardQuery(_content:admin*)], 0, True) - Filter : 
7160 16:18:08 INFO  ExecuteQueryAgainstLucene : spanNear([spanFirst(_name:search, 1), _name:lock, _name:sitecore, SpanWildcardQuery(_name:admin*)], 0, True) spanNear([SpanWildcardQuery(_content:*search), _content:lock, _content:sitecore, SpanWildcardQuery(_content:admin*)], 0, True) - Filter : 
